1892 1
1581 5
3110 0
1756 4
1473 3
303 1
3046 5
936 0
1252 2
1766 0
1260 4
567 0
553 1
1327 1
758 0
2133 5
1649 5
1604 2
1768 4
937 0
2889 5
2103 4
381 1
1230 0
722 3
2299 5
1818 5
1195 4
1087 2
226 1
861 0
496 0
522 1
557 4
229 0
2033 5
240 0
1666 4
2684 2
949 0
2381 5
817 1
1399 2
133 3
891 0
849 4
3230 0
1248 2
2019 5
686 1
1266 5
1513 1
794 0
2224 2
2616 5
715 1
2294 2
1714 1
2764 5
1032 5
2285 5
1869 2
474 1
1430 4
1237 0
3187 3
998 1
8 3
1898 5
1101 3
1765 2
2207 2
899 1
11 0
2401 2
300 2
1302 1
1036 2
396 4
1390 2
838 0
2013 5
202 0
2926 4
204 1
921 0
3170 1
1691 2
3132 4
1549 1
452 0
1686 2
819 0
2666 1
618 0
1586 4
1431 4
1098 2
3103 0
1794 1
427 1
1068 5
490 4
1205 5
2795 4
1476 2
446 1
1648 0
1077 5
1749 1
1964 5
1093 4
970 2
2688 0
2000 5
438 1
1110 4
454 1
1100 0
1827 2
1259 2
1866 4
575 3
1264 1
2460 2
2164 5
1677 5
3036 2
1505 2
993 0
2993 1
2248 1
44 0
2635 2
2151 5
1354 5
1420 4
2474 5
1737 1
1626 2
1693 5
68 2
2464 1
2780 3
2240 2
3254 2
71 0
1267 4
980 0
458 1
513 0
2218 2
2810 5
431 4
655 4
1646 1
1936 2
916 1
1003 1
2482 3
678 1
1118 4
2572 2
2828 4
2975 3
1736 1
2064 4
2752 5
1590 5
1521 2
361 2
1139 2
1824 2
2039 2
1002 1
2991 4
2450 5
2231 1
1885 1
233 1
1657 2
1269 1
836 3
1767 0
1323 1
3137 2
2673 2
200 3
2887 0
360 0
141 0
1255 4
279 3
2695 3
2545 2
582 0
1980 2
850 4
2600 5
2144 1
3140 4
2313 2
820 0
2896 5
3138 3
2475 1
189 0
1185 4
1977 2
235 1
173 0
2327 1
1061 4
2099 2
641 0
1091 4
1347 5
1217 3
890 0
391 1
2702 3
3089 4
642 3
1571 4
1270 1
206 4
1210 3
58 1
2377 4
2094 2
712 1
1187 2
322 0
1310 1
3020 3
1371 1
1239 2
3048 5
2565 2
909 1
1254 1
2416 5
195 0
3019 3
1009 5
643 2
589 3
1509 5
1990 5
1881 0
485 0
2108 5
1290 4
629 0
2044 2
1424 2
1580 5
927 1
610 0
2785 0
963 0
344 0
619 0
1606 5
1330 4
2512 0
2868 2
2917 2
1943 2
1065 2
2537 1
1836 0
1709 4
3120 5
886 1
92 0
708 2
1530 3
2310 5
3005 2
398 0
2302 2
2316 1
2866 2
487 0
1942 1
1273 4
1564 1
2499 4
352 2
2617 5
3194 3
855 4
2816 5
2238 3
2331 2
1343 4
3121 5
654 0
2990 4
944 1
2415 4
27 0
3176 2
1774 1
1708 4
719 0
1222 2
3156 0
778 2
3073 1
1495 2
500 1
1013 2
1593 1
1811 2
149 2
250 1
657 0
2361 4
1632 2
1366 5
1972 1
2717 1
309 1
1096 5
2288 1
1326 5
2569 4
910 3
1918 4
651 4
2307 2
593 0
1086 2
898 0
1553 5
825 1
456 5
3206 5
2034 2
2649 5
1583 1
121 1
2853 4
933 0
1084 0
2243 4
444 1
635 2
1952 2
17 5
1806 2
1276 1
703 4
1494 2
1979 2
2560 5
1319 1
1798 5
2938 5
366 0
77 5
3029 4
2363 5
2706 4
2337 2
3028 2
2621 5
519 0
3227 5
2448 1
1478 2
1374 4
721 3
2871 5
1455 5
289 3
1947 4
536 1
2824 3
2655 5
40 0
1969 1
2539 5
161 5
119 2
501 1
1934 5
1370 2
1180 4
476 1
6 0
2088 5
1115 5
1454 4
1654 5
3149 2
418 1
1140 5
457 5
2340 3
2166 5
1976 0
72 0
104 0
601 0
1423 2
411 0
2615 1
2656 0
2857 1
1165 5
2905 5
493 0
1569 2
1062 0
1804 5
2265 5
2519 3
1188 1
2037 1
1341 4
2883 4
1477 2
2466 0
188 1
124 0
1512 5
690 0
333 0
3260 5
1160 2
2162 5
895 5
672 0
220 1
2614 3
1038 2
810 1
1199 4
2601 2
1261 1
2143 4
1845 2
215 1
989 5
2776 3
984 0
2526 3
415 0
1452 4
386 0
2004 2
2058 1
2747 4
2906 5
1427 1
3066 5
2667 5
2049 4
1680 2
2612 3
2976 1
3237 5
1010 1
3078 1
2846 2
805 0
1116 2
1884 4
935 0
1379 4
1313 5
478 5
530 0
1752 2
1907 3
752 5
369 4
2611 1
1994 4
1318 2
169 0
2989 2
1808 2
1637 5
145 0
1783 1
1716 2
43 0
2111 2
982 0
1501 4
2945 1
2588 2
3068 3
1336 1
514 0
1678 2
455 1
1612 2
2278 0
1772 2
1388 2
2912 1
2279 2
2619 2
2650 1
50 1
535 5
2332 3
1012 5
1277 4
3172 4
2291 5
1196 1
1386 2
3207 5
410 0
1825 4
1715 4
2727 4
1017 5
2370 1
2859 1
1499 4
783 0
1151 3
1577 5
3098 3
599 5
2781 1
638 1
2618 3
2531 2
1458 4
345 0
789 1
3013 2
311 0
878 2
762 0
1760 4
3130 2
2598 2
636 2
2147 2
218 1
302 1
3076 4
2452 5
1773 4
1621 5
983 3
831 5
132 0
2409 4
3022 3
1865 4
2644 5
36 3
2308 5
1463 2
2743 2
436 1
1610 2
1293 5
175 1
2198 5
628 0
1538 4
1161 5
1861 2
1840 4
2802 1
2050 2
2801 2
1547 2
461 1
2527 2
2844 5
766 1
15 1
1786 3
2862 4
1114 2
633 4
711 5
1636 5
2491 2
2532 4
1826 1
1014 2
2266 2
701 0
106 1
3248 0
2404 5
1168 5
3196 4
505 0
1900 4
1846 1
441 1
1957 4
2029 2
917 0
2137 4
2689 0
3044 5
2242 2
1789 4
847 0
1444 4
1364 5
1922 4
1334 4
2933 3
10 1
1780 4
1588 1
147 0
1410 0
3067 4
2356 5
1644 4
1083 2
2687 4
1148 4
37 1
298 1
2654 5
1599 4
2793 4
1174 1
1548 4
261 5
661 0
76 0
1138 2
986 0
2035 1
2320 2
2112 1
3153 2
3134 0
128 4
597 1
3202 4
2741 0
1411 3
943 0
2737 3
3180 4
1224 5
1902 2
2342 1
453 0
1519 5
2928 2
2259 2
1450 4
2943 4
3177 1
775 1
2841 1
3128 2
648 0
2784 1
2085 2
135 0
725 1
2329 1
745 1
1256 4
384 0
2577 5
723 1
1859 5
533 1
596 1
2501 2
61 4
1095 2
2948 0
2579 2
3049 5
1893 1
3226 5
812 0
666 1
1240 4
2093 2
2300 0
1023 3
286 0
2632 5
53 4
2774 3
2959 4
443 1
1764 5
3197 5
1103 2
2592 0
2350 1
296 5
961 5
2970 4
2368 0
1544 5
440 2
3105 0
1432 4
1698 4
1299 2
2788 2
1363 5
2249 4
1109 3
1656 1
2025 4
2586 2
1324 5
526 0
1627 5
1981 2
1857 1
2079 0
2653 2
3106 0
558 1
2736 2
2407 2
2757 5
2964 4
966 4
3182 5
3229 1
653 1
2073 5
2561 2
502 1
688 0
2942 5
2954 3
156 1
792 0
1533 2
512 2
326 2
2284 4
2254 5
1281 1
2411 1
884 5
578 1
3185 0
799 5
2258 5
1763 5
3077 4
503 0
905 0
1242 5
1271 5
991 5
357 4
564 1
918 1
516 1
2960 1
3246 5
621 0
270 0
260 1
1944 1
2877 2
2542 3
1467 4
148 2
2622 5
117 1
2710 4
3069 3
1147 2
2275 4
2765 1
187 0
2041 4
2078 0
1245 2
1633 5
413 1
620 0
1726 2
353 2
1000 0
1535 2
1403 5
1841 2
1054 5
354 1
2786 1
969 2
385 0
2277 5
29 5
98 1
652 0
1897 0
3032 4
2812 3
2895 3
483 0
776 0
101 0
2525 3
2996 2
477 0
1486 3
346 0
2062 5
731 0
3165 3
2202 5
615 5
2716 1
317 1
57 2
342 4
2953 5
263 0
1912 5
1223 1
826 1
2317 1
276 0
2729 2
3155 0
1746 2
2188 3
2494 1
2124 5
862 0
574 1
2017 1
3186 0
1570 5
3086 4
1953 4
1 1
2583 0
1894 4
191 0
1059 1
1474 0
1464 1
223 1
2901 0
1236 1
2821 2
676 0
2639 4
2357 2
532 5
1696 5
2458 2
192 0
1712 5
2751 1
1916 5
674 0
531 5
900 1
579 1
1027 2
677 2
259 0
489 5
1958 3
2445 1
846 0
746 1
2982 1
3054 4
2110 1
3234 0
2385 1
1238 1
480 1
3118 5
1962 1
581 0
569 1
97 3
1122 2
2875 0
3010 2
3168 2
2241 2
704 1
2462 1
2698 0
2113 4
1950 5
1643 2
1173 2
2726 4
254 0
379 5
600 1
2680 5
788 0
1687 5
182 5
1991 1
1490 5
242 5
1511 1
685 1
1387 2
2268 2
2125 5
2382 4
70 0
49 0
1489 5
563 4
2921 5
2438 2
2939 1
1601 2
882 5
842 1
1515 4
1829 4
1043 4
1211 4
2515 2
1108 5
906 4
3064 0
414 4
996 1
2030 2
2907 5
1757 1
20 0
1732 5
380 4
1175 4
874 1
2822 2
3058 4
1225 2
109 0
2914 2
997 1
2355 4
2359 5
1275 5
2426 0
2324 4
852 0
2629 3
2766 4
2158 2
3178 4
3003 2
2102 4
399 0
2872 2
2944 4
1951 2
2131 2
2043 4
2374 2
2605 5
1268 5
1751 4
1662 5
1338 4
194 4
716 0
2987 1
299 4
1063 5
1351 5
33 0
2230 5
3035 3
565 5
2694 2
262 3
616 0
18 0
2459 5
80 2
1232 4
1878 1
1231 1
425 0
3213 2
1721 2
962 0
2170 3
1983 2
559 5
2708 2
585 0
896 0
2728 3
1128 1
232 1
1602 2
720 0
1702 4
1753 3
1658 1
913 4
2589 2
2430 3
224 4
2455 1
1754 0
294 1
1603 2
1491 2
2985 2
588 1
392 0
3256 5
1182 4
924 4
1079 5
964 3
1697 2
2351 1
1292 2
3200 2
2986 2
2487 5
2192 0
2193 5
1315 5
1997 4
2894 3
1758 2
2962 3
118 0
14 2
828 2
692 1
684 1
2369 1
1559 5
822 0
1246 1
2016 4
1426 5
2210 0
3101 1
506 1
3007 0
1592 5
1670 4
1713 5
733 0
1587 5
2597 2
2733 5
2885 1
2703 1
2072 4
402 0
1045 2
2406 2
442 2
3263 5
2935 2
2714 5
3249 5
1397 3
3074 3
157 0
2315 5
1129 2
1554 5
784 0
2412 4
1197 2
1380 1
2428 1
234 1
465 4
2849 1
2973 1
2203 2
3085 1
1813 4
316 1
1573 3
1044 2
69 1
1106 2
1949 1
2235 1
1487 4
2587 4
2493 5
1555 3
892 2
2439 5
1615 5
670 5
2624 5
1414 2
359 0
2255 1
1301 5
977 0
1839 4
3079 1
305 0
883 0
2672 2
2087 4
1191 5
1819 4
568 0
2638 1
158 5
472 1
1300 4
1880 4
1282 4
2521 1
332 0
3181 2
545 1
946 3
330 2
2180 1
1692 5
1058 1
1462 4
587 0
2216 0
2297 2
1396 5
2211 2
2386 4
139 3
486 0
269 3
3147 1
914 3
249 0
1025 5
1886 3
1446 2
338 0
757 0
1257 3
1482 2
2057 1
488 0
923 0
1761 4
3175 0
1525 2
1572 0
125 3
2585 0
2100 2
2863 0
1212 4
2130 2
2047 4
162 0
271 5
64 0
3144 1
2664 5
864 0
1620 5
1183 4
405 1
248 4
934 0
2473 2
2172 2
867 0
1762 1
1099 2
1288 4
1359 2
803 1
1928 0
2594 0
926 0
2584 5
1262 4
566 0
310 2
2657 5
1651 4
1485 4
1675 2
2608 5
999 2
2201 5
2319 2
3211 2
2194 2
1042 3
459 1
507 1
2768 4
609 0
2114 4
134 4
1287 1
2756 0
3126 2
1453 4
570 1
1854 2
1929 0
713 4
2873 0
953 0
491 0
13 1
422 2
1203 2
1742 3
3050 5
1526 4
390 1
1785 2
706 1
3016 0
2484 2
376 2
3205 1
2190 3
675 2
3250 5
2160 2
2848 3
2903 2
137 0
527 0
1728 5
1850 1
3184 2
406 5
2718 4
3093 2
1436 2
2183 3
1998 4
2761 1
34 1
314 0
1070 1
2031 0
196 0
3040 4
1081 0
815 0
2115 4
2358 1
2831 4
2343 2
768 5
426 1
1362 5
1550 4
2739 5
1717 5
1449 4
840 1
795 1
2365 5
3090 4
2814 1
252 1
876 2
2312 5
1652 4
2626 2
393 0
2815 4
2573 2
2101 4
499 0
764 4
2346 1
2923 2
3171 5
227 1
