646 1
1224 5
806 0
3165 3
533 1
731 0
156 1
2999 5
1245 2
1449 4
1457 1
521 1
2302 2
2863 0
1955 5
296 5
1015 3
320 1
2320 2
2677 0
663 1
2532 4
1063 5
2433 2
2614 3
3248 0
1465 2
1538 4
398 0
1666 4
3078 1
1826 1
1056 5
1087 2
2657 5
2132 2
1473 3
923 0
3032 4
2052 2
1948 4
248 4
379 5
2654 5
791 5
2328 0
1893 1
1477 2
1606 5
924 4
678 1
1503 2
2285 5
1923 2
147 0
2694 2
1343 4
1785 2
3064 0
1980 2
244 0
1341 4
2828 4
386 0
2626 2
963 0
1079 5
309 1
1651 4
783 0
2476 5
1460 4
1952 2
519 0
1230 0
1311 5
704 1
3138 3
1223 1
463 0
986 0
615 5
1385 0
563 4
601 0
2739 5
1351 5
745 1
441 1
850 4
1403 5
2085 2
1094 4
1165 5
2013 5
628 0
702 4
748 0
3206 5
1657 2
2618 3
2340 3
262 3
720 0
179 1
1501 4
1969 1
1190 3
909 1
1663 1
3180 4
2521 1
667 1
2060 1
1387 2
1005 1
2343 2
3230 0
2133 5
794 0
1139 2
405 1
1798 5
346 0
359 0
1318 2
2584 5
1185 4
1765 2
2707 2
2658 1
3079 1
3237 5
80 2
949 0
2689 0
1725 3
1368 2
1592 5
1424 2
2991 4
1041 2
1687 5
849 4
30 5
2416 5
2718 4
926 0
803 1
3175 0
1450 4
2284 4
2458 2
1573 3
1680 2
1713 5
2883 4
953 0
2725 4
3090 4
1852 3
3178 4
1371 1
2439 5
2940 4
2915 5
1282 4
1981 2
72 0
1768 4
2629 3
677 2
927 1
1922 4
2872 2
1370 2
505 0
2616 5
2315 5
2764 5
1756 4
2243 4
609 0
2831 4
1521 2
1587 5
2131 2
8 3
2078 0
2680 5
3069 3
2487 5
943 0
2000 5
2868 2
2993 1
2297 2
47 0
1366 5
254 0
1096 5
781 2
1593 1
1742 3
587 0
3207 5
1583 1
2062 5
548 1
2499 4
1627 5
3234 0
229 0
1211 4
1158 2
3126 2
3144 1
971 0
1761 4
1712 5
2294 2
1310 1
53 4
703 4
1458 4
3019 3
2111 2
2113 4
2312 5
2948 0
76 0
569 1
158 5
655 4
2299 5
1686 2
2057 1
1338 4
1487 4
1504 2
766 1
259 0
1281 1
1273 4
2653 2
1463 2
1885 1
1002 1
1603 2
195 0
92 0
951 1
1850 1
2275 4
1678 2
2846 2
1106 2
1327 1
125 3
2110 1
2589 2
682 1
1410 0
3005 2
599 5
846 0
559 5
2989 2
2291 5
342 4
2726 4
2981 1
64 0
1972 1
690 0
107 1
2254 5
2242 2
2894 3
2927 4
2765 1
1571 4
543 2
2455 1
3172 4
1906 2
1934 5
2635 2
2203 2
1237 0
2193 5
1315 5
305 0
1962 1
1199 4
961 5
1264 1
3132 4
852 0
1836 0
2345 4
1914 1
2316 1
106 1
2050 2
1526 4
1898 5
776 0
1052 5
2415 4
3016 0
3106 0
1478 2
1003 1
1942 1
3196 4
3260 5
3252 1
979 0
357 4
446 1
1732 5
1446 2
2788 2
1530 3
1507 1
118 0
2567 2
3166 5
3105 0
795 1
1262 4
597 1
618 0
1824 2
124 0
1620 5
399 0
1746 2
276 0
900 1
1733 5
242 5
810 1
270 0
2597 2
413 1
69 1
2398 4
2895 3
453 0
2039 2
139 3
2784 1
2571 2
2049 4
958 2
1736 1
2858 2
2473 2
2147 2
306 0
2041 4
260 1
2377 4
1539 1
1467 4
20 0
1261 1
227 1
2586 2
2308 5
1277 4
1326 5
2549 1
2351 1
59 0
2207 2
2355 4
1108 5
1818 5
2728 3
1396 5
299 4
263 0
2386 4
3116 2
2810 5
238 0
2819 0
2687 4
1054 5
1764 5
2102 4
1140 5
2130 2
1951 2
864 0
119 2
2125 5
2814 1
1979 2
2943 4
3003 2
2307 2
487 0
217 5
2638 1
2751 1
1577 5
2815 4
825 1
585 0
566 0
3107 0
2004 2
1656 1
1303 4
2385 1
2116 4
1494 2
2324 4
1252 2
1509 5
1454 4
396 4
1766 0
818 4
132 0
2452 5
895 5
223 1
3177 1
1196 1
1300 4
2075 3
2028 1
2030 2
3243 0
1846 1
826 1
1238 1
2982 1
1907 3
2923 2
3128 2
141 0
712 1
2326 2
2790 2
847 0
876 2
2935 2
735 0
1790 5
2873 0
1636 5
841 0
2443 4
2137 4
475 1
620 0
1957 4
1059 1
2605 5
1258 2
1122 2
1855 4
616 0
3226 5
2581 5
415 0
2478 5
2165 5
1754 0
425 0
427 1
2771 4
289 3
2484 2
2016 4
486 0
1728 5
1513 1
1839 4
1739 5
2429 2
570 1
1618 2
1998 4
896 0
2905 5
188 1
2258 5
579 1
1426 5
2512 0
1168 5
2025 4
3098 3
317 1
465 4
2507 1
3121 5
2370 1
2560 5
553 1
3185 0
2494 1
1990 5
3134 0
861 0
1257 3
440 2
3211 2
2710 4
1280 1
762 0
1013 2
2262 5
3058 4
2266 2
499 0
1486 3
480 1
322 0
1560 3
1267 4
496 0
187 0
588 1
2522 1
2043 4
1129 2
1175 4
2491 2
1217 3
916 1
493 0
3140 4
1789 4
2369 1
1180 4
1288 4
1334 4
2939 1
2265 5
2962 3
1947 4
666 1
3022 3
2031 0
602 0
2901 0
2796 4
161 5
1379 4
1649 5
883 0
10 1
2619 2
3029 4
1038 2
1296 4
1275 5
855 4
1621 5
708 2
1430 4
2170 3
2101 4
3246 5
2615 1
2100 2
868 4
345 0
2821 2
557 4
882 5
360 0
3036 2
1188 1
2134 3
482 1
1943 2
918 1
1476 2
3257 2
2598 2
2305 3
2430 3
454 1
1991 1
15 1
683 1
1081 0
2240 2
775 1
1116 2
1644 4
2241 2
1098 2
546 0
2666 1
1490 5
2889 5
121 1
2268 2
2698 0
385 0
2194 2
3055 5
2587 4
1103 2
1347 5
352 2
1897 0
562 0
815 0
1299 2
2792 4
175 1
1293 5
2474 5
3168 2
2019 5
1390 2
2527 2
442 2
1695 1
2014 2
2513 0
2757 5
1376 3
117 1
2422 4
2588 2
966 4
564 1
2990 4
3103 0
1099 2
443 1
1091 4
1771 2
3170 1
2263 5
1760 4
2672 2
1757 1
14 2
1794 1
2518 2
1061 4
2404 5
2224 2
366 0
40 0
1078 2
3255 1
283 5
1128 1
686 1
1018 0
316 1
2768 4
842 1
3149 2
799 5
751 0
145 0
532 5
57 2
946 3
991 5
2034 2
2381 5
725 1
1127 5
2743 2
2622 5
1084 0
3028 2
1599 4
1866 4
2717 1
2317 1
3153 2
2472 2
522 1
3067 4
3074 3
2621 5
2526 3
1037 5
2706 4
1354 5
502 1
2716 1
104 0
1654 5
2624 5
314 0
2140 4
1362 5
1205 5
995 5
1515 4
2278 0
1586 4
1610 2
1697 2
684 1
2277 5
452 0
2374 2
1735 4
822 0
351 2
936 0
2903 2
39 0
310 2
290 1
904 1
2531 2
1902 2
1867 5
1191 5
2428 1
411 0
1564 1
1693 5
538 3
1039 2
2201 5
2841 1
68 2
984 0
2824 3
232 1
1714 1
3256 5
2093 2
2684 2
2987 1
1936 2
303 1
2583 0
1242 5
135 0
251 0
820 0
575 3
501 1
3046 5
2577 5
1758 2
2551 2
1505 2
1236 1
1580 5
1677 5
536 1
2073 5
1710 1
980 0
3187 3
13 1
2545 2
517 2
2231 1
1637 5
271 5
1892 1
2747 4
1485 4
2190 3
1928 0
1801 1
1380 1
1523 0
2555 4
998 1
1869 2
2900 2
840 1
629 0
2703 1
455 1
1244 1
2035 1
651 4
1270 1
2337 2
2543 1
3205 1
206 4
1330 4
836 3
805 0
589 3
1806 2
233 1
581 0
1411 3
2211 2
2202 5
898 0
1570 5
485 0
1840 4
2772 5
719 0
2976 1
634 1
1700 4
2115 4
1142 5
3200 2
3085 1
1173 2
1547 2
2572 2
1691 2
234 1
3163 2
393 0
1715 4
1047 5
1269 1
2200 5
461 1
2649 5
2656 0
2501 2
483 0
944 1
2776 3
295 1
746 1
2332 3
641 0
61 4
3235 1
1418 4
2592 0
2401 2
1857 1
1118 4
1161 5
3137 2
2812 3
1157 3
1414 2
1749 1
1612 2
892 2
2382 4
286 0
338 0
1 1
1255 4
2047 4
1431 4
526 0
436 1
1601 2
1432 4
653 1
2561 2
514 0
1519 5
3118 5
1977 2
572 1
458 1
2601 2
3047 2
457 5
1775 5
716 0
2143 4
2058 1
674 0
101 0
2786 1
228 0
1652 4
300 2
828 2
2984 3
2774 3
1548 4
2801 2
1648 0
1427 1
2357 2
406 5
1417 0
52 0
3049 5
652 0
27 0
3202 4
1068 5
1474 0
2519 3
1982 1
3141 1
2793 4
1359 2
1976 0
2212 2
962 0
253 1
1489 5
1773 4
2327 1
3048 5
2885 1
764 4
1423 2
2466 0
874 1
1464 1
1453 4
1284 0
2270 0
2639 4
565 5
2565 2
1774 1
2095 5
2160 2
1023 3
668 1
988 0
2985 2
1212 4
3184 2
240 0
3066 5
2762 5
3094 4
1779 4
1581 5
162 0
474 1
1837 0
2271 2
1231 1
2750 1
3216 2
2761 1
2342 1
996 1
1014 2
1949 1
1549 1
2945 1
2475 1
1246 1
2542 3
1696 5
2733 5
2525 3
173 0
2816 5
1708 4
422 2
2359 5
688 0
600 1
914 3
1283 2
1493 0
252 1
1160 2
2917 2
2235 1
1632 2
530 0
2464 1
17 5
1263 4
1491 2
1386 2
2094 2
899 1
743 1
2612 3
1032 5
3050 5
1912 5
2651 1
2514 0
938 3
1762 1
1859 5
1260 4
1804 5
1709 4
1670 4
1945 3
1093 4
2859 1
621 0
2670 0
1953 4
49 0
2267 4
905 0
3181 2
192 0
1861 2
878 2
500 1
1095 2
50 1
999 2
1553 5
3221 2
3077 4
2752 5
1499 4
3030 5
2029 2
2829 4
518 0
1588 1
1875 0
1027 2
977 0
880 1
1276 1
793 4
1452 4
670 5
1793 2
2877 2
2766 4
1881 0
2802 1
3073 1
1136 5
98 1
2773 5
138 0
2906 5
349 0
1357 5
715 1
1633 5
582 0
2780 3
2180 1
1825 4
267 5
402 0
390 1
2361 4
2559 2
23 2
1009 5
1399 2
2564 2
1964 5
202 0
921 0
43 0
547 1
2986 2
2462 1
488 0
1336 1
506 1
1958 3
2857 1
134 4
1572 0
1550 4
2198 5
1373 5
1363 5
1929 0
2155 2
344 0
516 1
890 0
4 3
1195 4
391 1
1239 2
997 1
2844 5
1151 3
3171 5
194 4
1070 1
1495 2
279 3
3076 4
2196 2
2887 0
2978 5
1240 4
1388 2
2896 5
2210 0
2329 1
1271 5
2412 4
70 0
459 1
2579 2
249 0
2975 3
733 0
2907 5
3065 5
1319 1
1555 3
2645 1
444 1
2515 2
1420 4
2912 1
879 5
1323 1
3004 4
1045 2
817 1
1292 2
723 1
1114 2
758 0
113 3
2983 2
1662 5
913 4
2611 1
1786 3
1830 4
456 5
2871 5
2164 5
169 0
964 3
2695 3
1105 4
11 0
2408 4
2218 2
1988 5
264 1
438 1
886 1
2044 2
1819 4
1880 4
1554 5
1197 2
2741 0
2702 3
2928 2
1533 2
2288 1
1643 2
41 0
1626 2
2849 1
578 1
2406 2
1878 1
2585 0
1025 5
2944 4
672 0
333 0
3101 1
1184 5
2737 3
2644 5
1248 2
2947 0
2735 5
245 0
376 2
1944 1
910 3
1349 2
1916 5
1182 4
3044 5
285 5
3110 0
2664 5
2158 2
2128 2
1698 4
1884 4
218 1
3227 5
3197 5
3159 0
654 0
1324 5
302 1
710 2
1525 2
1313 5
619 0
1888 2
2426 0
2124 5
2795 4
1222 2
1232 4
527 0
37 1
384 0
2569 4
983 3
1726 2
2216 0
2573 2
361 2
1393 2
354 1
541 4
3130 2
3086 4
1780 4
1717 5
1110 4
1058 1
3068 3
788 0
1752 2
1086 2
2409 4
2875 0
784 0
97 3
261 5
789 1
2126 0
1436 2
1397 3
1602 2
2449 5
1997 4
1074 0
1872 4
692 1
2079 0
989 5
3249 5
897 1
250 1
1268 5
1042 3
191 0
513 0
935 0
1544 5
2331 2
418 1
687 5
34 1
235 1
700 2
1658 1
2397 4
1062 0
558 1
1301 5
3147 1
3232 2
224 4
1210 3
2594 0
2822 2
982 0
1900 4
3041 4
1225 2
1827 2
934 0
226 1
2770 4
1772 2
1101 3
1886 3
2103 4
31 5
3218 4
2650 1
3020 3
2886 5
2411 1
1767 0
2534 4
757 0
489 5
1328 1
2600 5
58 1
6 0
2460 2
2248 1
200 3
3155 0
867 0
1865 4
2667 5
792 0
706 1
2033 5
531 5
287 3
1148 4
2524 0
1482 2
2279 2
2074 5
831 5
829 5
2925 5
1065 2
204 1
3120 5
2066 2
633 4
1036 2
2410 4
1813 4
2481 2
507 1
2072 4
3229 1
3013 2
981 0
2310 5
77 5
1783 1
128 4
1716 2
2996 2
912 1
535 5
1646 1
2108 5
574 1
2938 5
2166 5
3007 0
109 0
1994 4
819 0
215 1
2921 5
917 0
1109 3
44 0
779 2
940 0
369 4
636 2
1174 1
294 1
9 4
2848 3
1256 4
3093 2
2953 5
2954 3
1737 1
2688 0
1512 5
2708 2
3194 3
529 0
2088 5
1183 4
648 0
2556 1
1030 0
1287 1
685 1
2493 5
1235 1
2574 1
1051 2
1854 2
3089 4
2119 4
2445 1
2300 0
3054 4
18 0
832 0
2112 1
1000 0
1751 4
1721 2
2048 4
392 0
1535 2
2686 2
2781 1
2537 1
1559 5
1808 2
2255 1
2450 5
189 0
1462 4
675 2
2172 2
2655 5
2368 0
3263 5
2448 1
2942 5
2259 2
2144 1
1187 2
2891 1
1511 1
311 0
144 0
1044 2
2714 5
3182 5
676 0
768 5
85 1
1679 4
381 1
1590 5
2064 4
1841 2
1759 2
2959 4
2617 5
48 1
1683 2
1100 0
2964 4
3176 2
2973 1
3035 3
2099 2
933 0
970 2
3186 0
1702 4
2482 3
2162 5
3146 2
1845 2
3213 2
1055 2
2575 2
2988 5
728 0
1569 2
2673 2
1675 2
22 1
1694 4
1615 5
148 2
3038 2
2419 5
1444 4
969 2
2192 0
2674 5
2204 2
2356 5
491 0
1254 1
330 2
503 0
2926 4
638 1
884 5
812 0
1259 2
269 3
2363 5
2678 1
477 0
2950 5
2313 2
3250 5
593 0
490 4
665 0
380 4
635 2
2230 5
937 0
472 1
1364 5
1043 4
1753 3
2087 4
137 0
2608 5
1083 2
29 5
2183 3
661 0
1290 4
2729 2
1604 2
2459 5
657 0
1455 5
993 0
1115 5
33 0
528 0
2017 1
3010 2
2632 5
891 0
1894 4
1302 1
2350 1
567 0
1266 5
1355 3
2785 0
2539 5
2823 1
431 4
2346 1
2914 2
1147 2
2249 4
2866 2
71 0
2037 1
332 0
2736 2
727 0
1010 1
133 3
1203 2
2456 2
149 2
1831 4
410 0
182 5
1983 2
3112 3
778 2
157 0
752 5
642 3
1692 5
353 2
2358 1
610 0
2232 4
838 0
3167 5
3254 2
1448 5
545 1
721 3
2970 4
3070 3
906 4
2114 4
2756 0
643 2
2438 2
2853 4
87 3
3169 5
1012 5
414 4
220 1
2238 3
326 2
1332 1
36 3
2188 3
1049 5
426 1
568 0
713 4
3040 4
1226 1
1017 5
1138 2
1374 4
2960 1
2727 4
722 3
2244 4
1918 4
2933 3
596 1
1763 5
298 1
1377 5
1829 4
3156 0
862 0
196 0
1412 3
3251 2
2365 5
2862 4
1077 5
711 5
478 5
476 1
701 0
1811 2
2319 2
2151 5
512 2
2407 2
1950 5
