309 1
2256 5
2834 1
3263 5
2101 4
1962 1
2068 5
2536 2
10 1
2026 4
1343 4
479 0
1249 4
3257 2
414 4
1810 5
2274 2
2372 4
2836 5
445 5
1928 0
2288 1
2732 5
456 5
886 1
1687 5
1071 3
1442 2
2380 4
1024 5
284 5
3030 5
983 3
298 1
2674 5
2777 0
2296 5
2374 2
951 1
216 3
1575 2
751 0
1016 5
349 0
3130 2
1450 4
1523 0
1653 5
71 0
2310 5
588 1
1898 5
1368 2
2270 0
1096 5
1504 2
3169 5
140 0
2125 5
406 5
730 5
887 3
2433 2
812 0
1514 4
3016 0
2219 0
605 0
2218 2
2737 3
1715 4
1264 1
2986 2
165 0
2351 1
2322 2
702 4
264 1
1564 1
1730 5
2859 1
2476 5
875 0
2036 5
2335 0
2385 1
17 5
1607 2
905 0
549 1
1204 1
2439 5
57 2
1447 2
367 0
793 4
2205 1
630 0
1056 5
383 2
327 3
215 1
2035 1
2792 4
1316 5
3031 5
1001 0
1269 1
2183 3
2475 1
1471 1
1548 4
2403 5
1628 2
2102 4
2983 2
1554 5
1989 5
1732 5
344 0
510 0
651 4
1459 3
852 0
3109 5
3103 0
1759 2
966 4
2981 1
2201 5
1815 1
609 0
25 5
2214 1
374 2
653 1
1534 2
626 4
619 0
1560 3
2626 2
2534 4
2528 1
3071 0
1704 4
136 0
1917 2
1524 2
2845 1
1051 2
2083 1
3055 5
2951 3
2948 0
618 0
1008 0
2431 0
2462 1
2282 1
1831 4
2064 4
2806 4
1245 2
2008 5
2428 1
919 1
1966 5
2497 3
2268 2
2762 5
1593 1
1718 0
3087 4
1525 2
668 1
1263 4
1722 5
3189 1
1567 4
1936 2
2610 1
2298 2
771 1
2156 2
2158 2
1517 1
1279 1
493 0
198 0
805 0
3086 4
402 0
2991 4
757 0
2473 2
1910 4
2131 2
2407 2
2309 4
912 1
2498 3
799 5
137 0
2206 5
1482 2
2061 1
936 0
470 1
478 5
1499 4
1022 0
930 0
755 0
2860 1
3161 1
2261 3
3222 0
1394 1
571 1
2702 3
2307 2
2355 4
897 1
1280 1
2416 5
1087 2
3052 4
3251 2
2738 1
695 1
1746 2
1700 4
2402 4
1410 0
1228 1
2710 4
2007 5
3020 3
1465 2
1301 5
654 0
3054 4
2401 2
1422 2
1527 2
1470 2
1483 5
677 2
698 1
1007 0
2325 4
1030 0
2216 0
868 4
3206 5
1854 2
3220 2
546 0
442 2
1767 0
1805 4
76 0
2505 3
1370 2
11 0
342 4
2774 3
685 1
473 5
1990 5
1378 1
960 0
2833 4
2900 2
2526 3
51 1
1259 2
1396 5
1480 5
1839 4
3122 0
240 0
1106 2
883 0
2024 1
3250 5
872 0
2511 2
3202 4
176 0
1770 4
1239 2
761 1
2434 4
2029 2
1753 3
1818 5
1685 5
2715 1
2810 5
2406 2
3121 5
2492 2
2593 0
1298 4
3173 5
2233 2
2279 2
31 5
1167 2
139 3
569 1
2079 0
882 5
2412 4
1784 5
1230 0
1543 2
2455 1
1241 1
3238 3
1302 1
1541 2
1568 4
2577 5
2550 1
2337 2
214 5
667 1
3057 4
424 0
3227 5
572 1
185 0
1740 5
1466 4
339 0
430 3
2966 5
877 0
1342 1
2779 1
1443 4
1031 5
119 2
1020 1
2067 4
2965 4
3187 3
1074 0
1716 2
1191 5
592 0
1084 0
2494 1
1287 1
1656 1
75 0
1214 4
1104 2
120 0
1092 5
2640 2
155 1
2280 4
2099 2
1544 5
1229 4
1175 4
1010 1
893 5
906 4
78 5
229 0
931 0
680 0
1059 1
447 0
2826 4
2128 2
1580 5
1025 5
624 2
65 1
565 5
1539 1
1931 1
3150 5
2767 3
1695 1
1289 4
3240 2
404 0
1407 1
606 1
281 0
2567 2
2665 1
455 1
2742 0
3164 5
227 1
2048 4
1699 4
200 3
2663 5
1021 2
2228 0
1231 1
2114 4
657 0
40 0
891 0
461 1
2300 0
1497 4
1176 5
726 1
783 0
1726 2
2962 3
1692 5
2543 1
3176 2
208 0
194 4
1556 3
3137 2
1046 2
1201 5
484 1
1243 2
2076 5
223 1
794 0
3183 5
777 1
122 5
1596 2
2369 1
3129 1
131 0
1330 4
681 1
1808 2
1807 2
2592 0
2194 2
617 1
1752 2
294 1
2832 4
1212 4
2637 0
1923 2
2644 5
2556 1
2033 5
2841 1
780 5
56 5
607 1
1787 4
411 0
346 0
989 5
1161 5
890 0
1449 4
2843 1
146 1
2796 4
101 0
364 1
3159 0
3245 2
3076 4
172 3
2939 1
1217 3
1921 2
811 5
550 2
1170 2
2146 1
2935 2
2697 2
2235 1
1830 4
454 1
2625 2
1258 2
350 0
2801 2
1513 1
3244 5
426 1
2301 5
1400 2
48 1
2509 1
3008 0
3120 5
1572 0
1413 2
1062 0
2111 2
153 1
1494 2
96 5
865 2
1690 3
1288 4
797 1
2389 4
934 0
296 5
175 1
1140 5
18 0
2241 2
1078 2
724 0
1090 5
1786 3
2107 2
2501 2
1380 1
2003 2
2808 0
733 0
1956 5
1631 1
1706 5
2877 2
1381 3
576 2
2932 4
2147 2
151 1
980 0
683 1
15 1
1291 2
798 1
3248 0
2163 5
1903 2
1778 1
244 0
475 1
1002 1
1858 2
2053 4
1738 5
2055 4
1419 4
66 1
2880 2
2038 2
180 0
262 3
2088 5
927 1
105 1
1110 4
1271 5
1012 5
3188 5
356 1
1893 1
1822 2
746 1
2086 3
2968 1
2252 2
3084 5
1852 3
490 4
1455 5
1338 4
1131 3
2012 5
2056 4
378 0
1618 2
3006 4
2987 1
1592 5
310 2
2037 1
932 1
507 1
291 1
3065 5
1277 4
2776 3
1950 5
1751 4
1521 2
2714 5
2571 2
876 2
325 2
1194 1
892 2
3003 2
2405 0
2634 2
373 1
2269 3
2260 2
192 0
1061 4
1878 1
2098 2
830 5
2609 2
64 0
2105 4
2670 0
2594 0
527 0
1969 1
2160 2
1934 5
2244 4
1987 4
2600 5
1845 2
245 0
987 0
2490 1
1937 4
2112 1
1562 0
1159 5
1415 4
384 0
359 0
1272 2
940 0
1971 5
2868 2
577 0
985 1
205 1
243 1
1601 2
1620 5
8 3
2464 1
2601 2
809 0
2885 1
2375 0
471 0
77 5
1758 2
915 2
86 2
3044 5
353 2
457 5
2538 4
1728 5
870 0
2581 5
1886 3
1733 5
2331 2
2549 1
23 2
2559 2
2638 1
318 0
3211 2
1414 2
2967 1
1727 5
2830 2
2350 1
813 0
2512 0
149 2
1065 2
3194 3
1189 2
2576 5
2199 0
316 1
1276 1
587 0
1518 5
1693 5
796 5
2427 0
2448 1
1577 5
2669 3
1183 4
1862 0
314 0
3019 3
659 0
1779 4
2074 5
491 0
163 2
758 0
2696 2
1273 4
781 2
256 1
2495 1
347 0
1855 4
2432 1
6 0
1123 0
3199 5
157 0
1500 3
2930 4
540 0
547 1
590 1
1757 1
2234 2
3235 1
321 1
2537 1
928 0
2643 1
1060 5
2751 1
2972 0
2596 0
670 5
2461 3
2579 2
2575 2
863 0
458 1
2316 1
62 1
2137 4
2945 1
1749 1
3113 5
1113 2
1519 5
2198 5
2894 3
2496 4
2769 5
107 1
1916 5
896 0
3239 5
3158 5
1721 2
2722 5
2683 5
1516 0
3001 4
1445 4
839 1
1773 4
371 1
2329 1
516 1
2366 4
2982 1
2851 4
2318 3
2814 1
2014 2
1885 1
1141 1
1844 1
2719 4
2421 4
2305 3
1851 3
2720 2
1424 2
2602 2
2162 5
998 1
1102 2
1086 2
2517 2
2106 4
3231 2
1920 2
557 4
2867 2
405 1
2441 5
522 1
1531 3
1897 0
904 1
3212 4
84 0
1887 2
341 1
2151 5
788 0
2926 4
716 0
1511 1
745 1
2662 5
3012 2
