1951 2
1393 2
2835 5
1427 1
597 1
359 0
1547 2
1518 5
723 1
628 0
2502 1
809 0
3224 5
2973 1
2708 2
3060 5
184 0
2156 2
1051 2
2151 5
2418 0
1588 1
2802 1
513 0
280 0
1040 2
2534 4
1510 3
1800 4
1007 0
759 0
2380 4
963 0
745 1
658 0
612 3
2192 0
870 0
1049 5
316 1
1961 5
2090 4
1880 4
1105 4
1798 5
1147 2
1283 2
3065 5
2244 4
258 1
2997 4
1067 2
3229 1
749 0
1538 4
1963 5
413 1
298 1
3209 3
1211 4
3220 2
1148 4
2581 5
883 0
1486 3
469 1
2583 0
1631 1
2177 0
852 0
1949 1
1190 3
1667 4
2852 0
1753 3
992 0
1675 2
54 1
38 0
200 3
1086 2
900 1
2886 5
2039 2
979 0
2620 5
2783 1
1714 1
2388 5
1559 5
857 5
3023 5
1382 5
109 0
1790 5
2415 4
706 1
2362 2
2798 4
3197 5
2778 1
2444 3
794 0
760 2
1827 2
3106 0
2618 3
2490 1
1655 2
953 0
906 4
1780 4
729 0
2358 1
2428 1
44 0
1504 2
2713 2
1681 2
374 2
2942 5
343 0
1494 2
1916 5
1975 0
2495 1
1312 5
2238 3
930 0
2409 4
1725 3
1774 1
2150 0
1645 1
1664 1
2535 2
889 5
2654 5
2684 2
1865 4
682 1
943 0
3172 4
2040 2
1976 0
1314 4
2047 4
2309 4
1268 5
1414 2
1787 4
1537 4
530 0
932 1
1541 2
2795 4
2028 1
2144 1
2890 5
1570 5
385 0
1869 2
1886 3
1957 4
1236 1
1017 5
1174 1
2871 5
2722 5
1846 1
2453 3
3138 3
629 0
1856 3
2294 2
790 0
2749 1
1611 2
133 3
2676 2
2497 3
2194 2
720 0
1004 1
3084 5
562 0
1432 4
699 1
488 0
1085 2
386 0
2455 1
2046 2
1956 5
1918 4
1995 4
3234 0
779 2
2669 3
3105 0
1578 4
2149 1
2936 3
2316 1
2250 2
2525 3
3142 5
1232 4
1483 5
1140 5
1397 3
3203 5
2394 3
1114 2
704 1
498 0
772 2
266 1
2035 1
2869 1
2274 2
3090 4
2763 1
2705 0
348 1
1266 5
2839 4
769 1
1897 0
2493 5
2158 2
311 0
2825 3
746 1
2422 4
3067 4
1418 4
2122 5
2142 1
994 0
2037 1
1954 5
1062 0
970 2
3121 5
323 2
1344 2
1564 1
2712 4
1465 2
1026 2
1261 1
3011 2
1604 2
1399 2
1577 5
120 0
2506 1
927 1
2874 1
1482 2
539 1
1340 0
1308 2
783 0
2858 2
931 0
2558 2
1179 4
3022 3
1815 1
256 1
2485 3
2922 2
2023 5
2105 4
2033 5
2488 1
333 0
2588 2
546 0
2350 1
1164 1
1202 0
1561 5
2746 4
1908 2
2969 4
575 3
1316 5
968 0
1476 2
2300 0
1556 3
1829 4
838 0
457 5
569 1
1199 4
3047 2
107 1
2861 3
2875 0
1757 1
199 1
1586 4
1485 4
93 1
1207 2
48 1
3162 4
264 1
462 1
1977 2
937 0
1270 1
1580 5
2998 4
126 1
2273 0
1287 1
2044 2
2804 5
579 1
351 2
1946 4
1928 0
2990 4
2100 2
797 1
1706 5
2884 5
2247 2
1909 4
19 0
2317 1
1310 1
816 4
2489 5
1343 4
1523 0
2032 4
1583 1
2080 5
2361 4
582 0
3133 4
479 0
524 1
486 0
2644 5
1633 5
455 1
1999 4
2501 2
1492 5
675 2
91 4
2968 1
1665 4
1643 2
284 5
2633 2
2463 5
1324 5
2687 4
2154 1
2281 1
481 1
2889 5
1127 5
276 0
1809 5
1599 4
558 1
223 1
1279 1
694 3
761 1
2537 1
2147 2
2406 2
534 0
2656 0
2486 2
73 2
552 1
3039 2
1323 1
1563 0
2189 3
3036 2
3001 4
2745 1
211 1
780 5
1250 2
1653 5
2557 2
371 1
3010 2
526 0
1389 2
349 0
849 4
1455 5
2710 4
79 1
2785 0
111 0
651 4
3210 4
1144 5
2857 1
239 0
1436 2
1726 2
248 4
1367 5
3028 2
1696 5
1770 4
691 5
84 0
1171 2
2454 4
1200 1
490 4
1462 4
1239 2
859 0
3014 4
1555 3
14 2
2211 2
2731 2
2590 3
957 0
1374 4
800 5
1516 0
987 0
1064 2
405 1
1337 4
1797 2
891 0
1435 5
2770 4
1254 1
1384 1
1984 1
3032 4
3041 4
2766 4
364 1
2282 1
1392 1
1695 1
1941 1
506 1
3034 0
1549 1
2550 1
1452 4
2084 4
418 1
698 1
1030 0
1302 1
2977 2
1630 2
2545 2
3078 1
765 0
172 3
254 0
3111 2
2482 3
984 0
767 5
2931 1
1378 1
1694 4
1994 4
1857 1
3252 1
2582 0
3228 3
661 0
108 2
1192 5
1947 4
1565 5
1480 5
416 0
1647 5
3 2
2800 2
1320 5
3063 4
827 1
3237 5
2755 4
2229 1
2799 2
193 1
1737 1
1275 5
1479 4
2601 2
903 1
2693 0
2343 2
600 1
332 0
2458 2
2608 5
555 1
3087 4
2906 5
337 5
923 0
2484 2
161 5
2657 5
1167 2
556 1
2089 1
2405 0
3143 5
259 0
1825 4
1079 5
793 4
203 0
2279 2
768 5
1900 4
1978 5
70 0
642 3
1876 2
1597 2
1246 1
1284 0
42 0
1546 4
2257 5
3156 0
2916 2
2325 4
2492 2
2918 5
2370 1
981 0
894 2
11 0
2868 2
742 1
72 0
3176 2
2855 4
3058 4
487 0
2396 4
2849 1
63 3
1096 5
3086 4
1747 2
82 1
3053 0
766 1
1606 5
976 2
2421 4
306 0
1904 2
2781 1
1448 5
1006 1
2036 5
263 0
2538 4
139 3
1985 3
1073 2
598 0
1331 1
2846 2
517 2
2182 4
2949 0
3246 5
567 0
52 0
886 1
1453 4
2335 0
531 5
3110 0
3196 4
1265 2
740 1
1937 4
185 0
246 0
1472 2
2193 5
1277 4
3235 1
1674 1
851 4
2625 2
3044 5
644 1
2385 1
1943 2
532 5
2338 0
1654 5
3070 3
153 1
1131 3
1834 5
985 1
2599 3
879 5
2750 1
1575 2
57 2
2704 2
1571 4
1679 4
2909 1
959 4
1231 1
2500 4
1811 2
2880 2
645 0
823 1
2896 5
969 2
993 0
15 1
3080 4
312 0
1469 2
831 5
1249 4
3113 5
1228 1
39 0
540 0
1953 4
503 0
2200 5
1172 5
175 1
1375 5
1108 5
265 5
2932 4
2577 5
2366 4
41 0
1216 1
639 0
1122 2
1690 3
1964 5
2155 2
1309 5
1319 1
1960 2
272 3
3079 1
1849 5
795 1
155 1
132 0
2562 2
10 1
2321 0
2518 2
1345 3
926 0
29 5
3250 5
2161 2
1566 2
2579 2
1841 2
1607 2
3072 1
542 3
1805 4
2121 3
2059 1
2769 5
2060 1
2295 2
2470 5
1582 1
1434 0
735 0
1998 4
1722 5
448 2
1425 5
3035 3
3024 3
2866 2
2049 4
2921 5
734 0
945 2
581 0
2939 1
1451 1
419 1
1186 5
2735 5
877 0
1671 0
643 2
21 1
2504 2
2133 5
456 5
1348 1
429 5
1749 1
1758 2
2793 4
257 0
2788 2
2575 2
2619 2
2432 1
2553 1
2435 1
2695 3
2670 0
2982 1
2824 3
1921 2
2114 4
1775 5
66 1
2278 0
1773 4
117 1
2673 2
2837 1
2451 0
1290 4
165 0
1467 4
2226 5
407 1
1803 2
502 1
878 2
242 5
356 1
1500 3
496 0
2412 4
1728 5
2218 2
1639 5
1640 1
2223 2
315 0
743 1
2251 4
1598 2
983 3
3226 5
1884 4
3066 5
2680 5
205 1
2924 2
2085 2
2004 2
1530 3
361 2
573 1
1264 1
2539 5
1077 5
2055 4
2870 1
855 4
2661 2
1634 3
750 0
2740 5
279 3
2459 5
2183 3
2917 2
864 0
1819 4
2153 1
692 1
478 5
2094 2
3118 5
2225 2
518 0
1746 2
1914 1
76 0
2129 0
110 0
1828 4
2565 2
1929 0
2174 3
3239 5
2771 4
282 3
1045 2
1471 1
2807 4
1057 2
1808 2
2289 5
1402 2
189 0
3167 5
446 1
135 0
125 3
2051 2
1020 1
62 1
439 1
294 1
157 0
240 0
2930 4
2445 1
2953 5
636 2
1871 4
1298 4
2910 1
2306 3
2286 1
1993 4
884 5
196 0
1262 4
908 1
2258 5
2549 1
2061 1
951 1
1429 4
2010 1
459 1
1489 5
149 2
1505 2
2692 1
1684 2
511 2
711 5
591 0
2018 4
705 1
2009 1
828 2
1002 1
2863 0
840 1
1071 3
1663 1
514 0
2524 0
3215 0
295 1
454 1
913 4
2351 1
2515 2
1723 5
1304 2
1875 0
34 1
2925 5
1103 2
2476 5
1311 5
2393 2
2095 5
3021 3
1196 1
866 0
3007 0
732 0
2996 2
2672 2
2163 5
2621 5
216 3
1038 2
1124 2
2547 3
2540 2
2346 1
61 4
707 2
3255 1
1338 4
527 0
665 0
2423 0
550 2
2491 2
832 0
1306 2
3185 0
1371 1
1548 4
1502 2
1369 5
1498 4
2865 5
1958 3
228 0
1035 2
647 0
3222 0
2818 5
1673 1
2613 3
1370 2
1732 5
1764 5
1766 0
1189 2
535 5
623 0
466 0
1014 2
1385 0
1756 4
893 5
1229 4
422 2
1349 2
2782 0
1554 5
146 1
3129 1
2642 5
1139 2
1760 4
2594 0
3227 5
1839 4
621 0
648 0
2640 2
1823 1
2512 0
2748 5
814 0
1322 4
2178 3
2093 2
2679 4
2777 0
1621 5
2202 5
736 1
2381 5
565 5
497 5
206 4
1783 1
3243 0
1018 0
406 5
1982 1
261 5
2567 2
638 1
3183 5
1112 1
3107 0
730 5
1709 4
2217 5
2694 2
1594 1
1902 2
3068 3
244 0
584 1
2881 1
3195 3
3056 5
843 2
2077 1
693 4
656 1
2125 5
2460 2
1391 2
1444 4
158 5
914 3
1021 2
977 0
3238 3
881 1
997 1
2171 0
1691 2
1373 5
3003 2
2352 3
1794 1
1662 5
215 1
548 1
20 0
74 5
1581 5
3094 4
754 2
1906 2
2915 5
1137 5
379 5
2812 3
1445 4
2160 2
2462 1
1528 2
522 1
1395 5
2834 1
399 0
2829 4
2765 1
131 0
1001 0
43 0
2831 4
2339 2
362 1
2721 4
1130 2
529 0
1595 2
1945 3
154 1
792 0
2742 0
3249 5
998 1
491 0
1188 1
2963 4
2759 2
1497 4
198 0
1981 2
592 0
1109 3
1618 2
543 2
3136 4
1922 4
2907 5
1895 4
366 0
2719 4
2944 4
728 0
2738 1
1898 5
820 0
2548 4
739 0
3161 1
1833 4
136 0
1412 3
2529 4
917 0
325 2
289 3
2313 2
1719 2
101 0
810 1
653 1
2096 1
1620 5
2993 1
3152 5
947 3
1342 1
1081 0
1617 0
2883 4
2919 2
2819 0
1661 5
1212 4
2248 1
1213 0
232 1
677 2
845 0
1248 2
2686 2
3212 4
2962 3
672 0
1882 0
3104 0
1422 2
3115 2
2318 3
3015 4
2747 4
1590 5
2843 1
690 0
1060 5
262 3
307 2
1221 4
1477 2
2606 5
2041 4
593 0
2311 2
537 1
180 0
3045 3
2796 4
666 1
3137 2
241 0
2791 0
880 1
731 0
1911 4
2118 4
3184 2
221 1
2086 3
322 0
2938 5
1739 5
961 5
2751 1
822 0
2416 5
1082 5
1843 0
850 4
2914 2
1039 2
147 0
2542 3
905 0
2375 0
1727 5
2271 2
1068 5
2022 3
1826 1
2384 1
2701 4
3012 2
340 0
2803 4
1920 2
1091 4
1410 0
195 0
825 1
3233 1
1129 2
2950 5
2856 4
1187 2
715 1
1224 5
2734 1
2419 5
2772 5
1851 3
960 0
733 0
321 1
305 0
2241 2
190 5
3151 3
1660 1
2948 0
1587 5
191 0
1488 2
1285 5
7 1
1934 5
2638 1
3029 4
2494 1
1496 2
1905 2
1872 4
614 1
2175 5
1400 2
3025 3
2222 3
156 1
95 1
283 5
124 0
118 0
1605 4
594 0
1098 2
164 0
2169 5
352 2
1093 4
1292 2
2368 0
1641 4
433 0
1143 2
990 1
519 0
367 0
946 3
2576 5
2068 5
461 1
2596 0
986 0
996 1
77 5
1315 5
2360 5
1317 2
1244 1
2347 0
3093 2
2830 2
773 0
2511 2
627 2
671 1
2632 5
1398 2
2308 5
253 1
1721 2
94 1
3171 5
1142 5
3048 5
2732 5
2814 1
331 1
716 0
635 2
2026 4
2610 1
1260 4
437 1
249 0
3242 1
2892 5
170 0
1698 4
1789 4
1300 4
3064 0
90 5
142 4
2615 1
2356 5
2597 2
2383 1
1274 5
360 0
