573 1
618 0
331 1
2549 1
385 0
1863 5
257 0
439 1
72 0
3235 1
649 0
1224 5
2723 4
2548 4
1700 4
498 0
1848 4
2769 5
2606 5
2382 4
3183 5
1827 2
914 3
253 1
2160 2
926 0
2370 1
119 2
3077 4
1342 1
577 0
1096 5
1079 5
2554 0
2028 1
1723 5
1448 5
975 1
2308 5
1570 5
2203 2
630 0
1082 5
1774 1
1117 3
2520 0
2220 5
2860 1
1386 2
1409 3
1074 0
474 1
2175 5
834 0
2348 1
1226 1
896 0
33 0
1289 4
2068 5
2876 0
2791 0
2119 4
579 1
1553 5
1692 5
3079 1
1486 3
1016 5
2453 3
2824 3
1664 1
2039 2
3098 3
1051 2
2604 4
2176 2
1708 4
1338 4
1170 2
1887 2
988 0
2294 2
209 4
917 0
2047 4
147 0
1559 5
1832 4
2531 2
2415 4
1717 5
2373 5
2857 1
1250 2
3255 1
758 0
2142 1
466 0
792 0
2707 2
1586 4
1688 3
1116 2
356 1
1043 4
2891 1
1971 5
1337 4
1407 1
1916 5
3050 5
1315 5
2324 4
947 3
18 0
104 0
1353 3
3193 0
2614 3
973 0
1291 2
3262 2
159 0
670 5
2366 4
327 3
1613 4
972 1
2438 2
2763 1
2455 1
1834 5
2269 3
1884 4
858 0
3206 5
628 0
1247 2
1529 2
350 0
2035 1
117 1
2114 4
2965 4
1710 1
2982 1
2069 5
2770 4
2215 5
1370 2
1055 2
221 1
556 1
597 1
2456 2
1642 2
2801 2
50 1
2858 2
623 0
3230 0
1298 4
66 1
2002 4
317 1
663 1
3046 5
1745 4
518 0
1450 4
420 2
1728 5
594 0
1005 1
1366 5
2007 5
1737 1
981 0
2091 4
2903 2
1780 4
3114 2
2502 1
1173 2
2258 5
152 1
2977 2
1002 1
236 0
2562 2
968 0
1102 2
2820 0
1807 2
277 5
709 1
2042 4
918 1
857 5
3213 2
1797 2
1796 2
2667 5
2943 4
2252 2
2990 4
1793 2
3210 4
723 1
74 5
1316 5
2400 5
2078 0
1499 4
2189 3
1441 2
1340 0
1818 5
3082 5
2079 0
2102 4
2075 3
1259 2
468 1
1186 5
208 0
2971 1
1399 2
2912 1
2363 5
1084 0
1489 5
1661 5
772 2
1954 5
2960 1
2694 2
1204 1
949 0
3188 5
3170 1
1984 1
2391 2
2997 4
2351 1
785 0
1155 4
1477 2
3224 5
3247 0
2392 1
1310 1
3198 5
730 5
846 0
131 0
2879 2
712 1
2650 1
2177 0
710 2
1930 1
2251 4
1865 4
2230 5
2705 0
976 2
2772 5
2390 1
1473 3
2547 3
3152 5
54 1
1414 2
1980 2
2976 1
1592 5
2911 2
2744 1
198 0
2901 0
728 0
1653 5
2133 5
1457 1
2435 1
621 0
11 0
1471 1
1459 3
3185 0
1491 2
308 4
667 1
784 0
693 4
4 3
2591 0
1617 0
2907 5
2307 2
61 4
226 1
1629 2
2518 2
156 1
989 5
502 1
1915 4
3165 3
2739 5
2121 3
706 1
2041 4
2320 2
2762 5
2111 2
882 5
2134 3
3192 2
2645 1
1623 5
1979 2
673 0
2083 1
