1078 2
2322 2
2445 1
595 1
2763 1
2529 4
3248 0
1136 5
2253 2
594 0
605 0
3044 5
2305 3
957 0
2348 1
2514 0
12 2
1166 1
2945 1
1504 2
2891 1
263 0
2699 5
975 1
2053 4
1671 0
693 4
2782 0
2085 2
3217 2
1031 5
1788 4
875 0
2494 1
182 5
3016 0
1413 2
2035 1
2210 0
2695 3
1188 1
774 2
820 0
131 0
3160 2
1660 1
2884 5
2537 1
1015 3
2711 1
415 0
1720 1
1544 5
579 1
1894 4
2903 2
1274 5
1259 2
125 3
198 0
1097 2
1703 2
984 0
62 1
2453 3
118 0
2548 4
129 5
3019 3
2420 0
63 3
2399 2
2899 5
2310 5
648 0
1916 5
723 1
2716 1
1913 5
2527 2
818 4
207 0
815 0
1653 5
2102 4
2150 0
2739 5
1774 1
3002 3
2504 2
1909 4
1245 2
891 0
968 0
2601 2
2012 5
127 2
1383 3
641 0
2762 5
3151 3
2738 1
75 0
646 1
4 3
273 5
387 0
153 1
2882 5
1356 5
2202 5
697 1
362 1
1982 1
91 4
2725 4
2194 2
1638 1
1402 2
995 5
1003 1
1450 4
2593 0
1997 4
2141 1
477 0
3187 3
1588 1
1424 2
1183 4
982 0
1727 5
2583 0
2650 1
423 0
1077 5
1341 4
2335 0
1324 5
2181 1
1206 1
2861 3
1781 2
1002 1
1207 2
830 5
2462 1
2203 2
179 1
628 0
1793 2
550 2
2916 2
1284 0
1394 1
426 1
1743 2
1472 2
1052 5
1856 3
2319 2
1405 5
2635 2
