1797 2
3262 2
3255 1
2362 2
237 2
182 5
1352 3
3257 2
2333 4
4 3
2243 4
1633 5
2392 1
682 1
1284 0
2006 3
2652 4
3010 2
2089 1
54 1
1000 0
3236 5
2634 2
2358 1
2291 5
1747 2
1087 2
2196 2
2466 0
1933 4
2549 1
1064 2
1903 2
958 2
2176 2
2801 2
129 5
2382 4
3170 1
623 0
299 4
1613 4
515 1
362 1
419 1
1489 5
253 1
2718 4
973 0
2084 4
3084 5
2445 1
1408 2
2988 5
897 1
3242 1
1957 4
611 0
2399 2
2872 2
1293 5
1286 2
1652 4
775 1
142 4
2455 1
3126 2
646 1
785 0
2308 5
3185 0
1499 4
2071 2
2406 2
1436 2
1019 2
85 1
426 1
909 1
1834 5
2614 3
906 4
2824 3
1653 5
2738 1
1136 5
1253 2
2238 3
2182 4
2961 2
1413 2
647 0
2111 2
1738 5
732 0
423 0
2048 4
114 0
2527 2
2036 5
2181 1
671 1
1445 4
1407 1
1008 0
2781 1
2354 5
1047 5
632 1
546 0
2120 1
110 0
723 1
1430 4
1195 4
2061 1
1351 5
1183 4
1084 0
2102 4
2437 0
1723 5
2034 2
1196 1
2679 4
79 1
1004 1
2039 2
379 5
1300 4
308 4
215 1
81 0
2773 5
2779 1
2912 1
2348 1
720 0
1831 4
227 1
2233 2
2475 1
1727 5
284 5
2335 0
702 4
2252 2
319 0
2162 5
579 1
2218 2
2749 1
3243 0
266 1
387 0
3123 0
2922 2
2320 2
20 0
1884 4
2287 2
3240 2
2762 5
784 0
58 1
871 1
1815 1
2342 1
1479 4
152 1
1661 5
198 0
571 1
3165 3
634 1
1769 2
1119 2
2856 4
1855 4
243 1
630 0
2324 4
12 2
2439 5
813 0
1605 4
1302 1
1642 2
2014 2
312 0
483 0
655 4
706 1
3036 2
381 1
1587 5
860 5
1912 5
406 5
1729 5
670 5
3090 4
2064 4
3005 2
1655 2
2891 1
2116 4
2485 3
3186 0
1356 5
1618 2
1523 0
1790 5
586 2
2560 5
800 5
2209 2
1722 5
1636 5
2277 5
1733 5
673 0
2704 2
2357 2
1581 5
621 0
1078 2
2588 2
1916 5
3074 3
336 0
2436 0
1822 2
2832 4
1143 2
2676 2
229 0
2012 5
524 1
1511 1
1491 2
2373 5
2530 4
1289 4
1774 1
1441 2
440 2
2504 2
471 0
1689 2
1453 4
743 1
3210 4
796 5
2311 2
28 1
2678 1
541 4
417 0
830 5
2232 4
527 0
2583 0
664 0
661 0
511 2
3245 2
2639 4
2058 1
3115 2
1476 2
3253 1
3146 2
2351 1
2390 1
1051 2
1477 2
415 0
1464 1
458 1
476 1
1272 2
21 1
895 5
1832 4
797 1
2538 4
2683 5
1860 2
2396 4
2053 4
304 5
1617 0
803 1
257 0
648 0
2008 5
3044 5
2531 2
2595 0
1701 4
2868 2
1791 1
1227 1
2491 2
1362 5
468 1
1762 1
1754 0
1384 1
1138 2
995 5
1796 2
2280 4
1203 2
403 0
1155 4
125 3
1778 1
2849 1
497 5
1544 5
1036 2
568 0
1390 2
1663 1
2003 2
585 0
2220 5
1208 0
663 1
3217 2
1533 2
1941 1
1022 0
2305 3
1746 2
1397 3
822 0
343 0
1304 2
315 0
899 1
710 2
3114 2
3023 5
838 0
221 1
984 0
370 2
1188 1
2352 3
1913 5
987 0
1041 2
2247 2
615 5
1939 5
716 0
164 0
591 0
357 4
2911 2
2237 2
1856 3
2529 4
2435 1
1629 2
2007 5
2484 2
2862 4
100 1
852 0
584 1
827 1
2456 2
134 4
2820 0
2591 0
1361 5
1625 5
159 0
2917 2
2997 4
742 1
3239 5
949 0
925 4
1126 5
1066 0
397 4
3250 5
3049 5
1237 0
1255 4
452 0
196 0
56 5
2915 5
1681 2
3043 4
2343 2
1340 0
1920 2
2405 0
3092 2
174 5
3261 1
1316 5
72 0
3002 3
2334 4
602 0
928 0
1850 1
2565 2
2882 5
1713 5
2630 2
1016 5
1743 2
3060 5
1298 4
1223 1
853 0
2230 5
2400 5
559 5
610 0
1595 2
388 0
3179 4
2150 0
1619 2
2394 3
372 0
2628 2
200 3
1456 3
926 0
2123 5
447 0
360 0
3027 2
120 0
1683 2
1309 5
2732 5
2739 5
1260 4
1201 5
410 0
917 0
2896 5
1244 1
2860 1
346 0
2083 1
1559 5
903 1
2258 5
2701 4
1424 2
2370 1
1094 4
1599 4
1519 5
961 5
1586 4
1072 1
2163 5
3107 0
2865 5
981 0
2318 3
2424 1
1370 2
246 0
2001 4
1341 4
3082 5
3187 3
2167 4
2571 2
914 3
769 1
878 2
781 2
228 0
