2506 1
1008 0
372 0
854 3
1318 2
1114 2
1569 2
1332 1
2013 5
2362 2
857 5
2819 0
3023 5
2612 3
2456 2
515 1
2155 2
2757 5
2497 3
2421 4
982 0
3123 0
2558 2
2670 0
3095 3
2210 0
890 0
30 5
822 0
746 1
2494 1
1833 4
1917 2
2852 0
189 0
1868 3
2235 1
2791 0
2908 2
2307 2
1453 4
681 1
2220 5
1582 1
239 0
2471 2
671 1
1676 5
153 1
712 1
2835 5
1295 4
1317 2
1984 1
2705 0
2527 2
444 1
3204 5
3160 2
2802 1
742 1
1975 0
28 1
2337 2
1770 4
715 1
1002 1
680 0
775 1
179 1
2716 1
2441 5
72 0
2439 5
1599 4
2466 0
1034 1
244 0
54 1
331 1
2886 5
2334 4
3178 4
344 0
1068 5
1886 3
595 1
1440 3
2792 4
2614 3
818 4
792 0
1629 2
228 0
1577 5
2744 1
1618 2
1633 5
1430 4
1655 2
2896 5
1756 4
711 5
1758 2
830 5
2493 5
781 2
966 4
421 1
547 1
3222 0
3085 1
1352 3
2042 4
853 0
2129 0
399 0
2767 3
2087 4
3002 3
2305 3
3248 0
528 0
2772 5
2291 5
2202 5
1895 4
1549 1
2608 5
2415 4
312 0
1391 2
395 4
3206 5
2477 5
0 0
1461 1
1889 1
2798 4
64 0
303 1
2008 5
403 0
3036 2
2529 4
1878 1
963 0
1324 5
167 2
971 0
1260 4
1696 5
728 0
1912 5
1729 5
193 1
2648 2
663 1
2736 2
1342 1
1272 2
1361 5
1337 4
2966 5
3186 0
3029 4
2770 4
1713 5
2514 0
420 2
1832 4
1623 5
2618 3
3143 5
809 0
2661 2
178 5
493 0
2595 0
1196 1
250 1
266 1
2997 4
738 5
996 1
2281 1
1700 4
949 0
2406 2
2390 1
2310 5
2118 4
2134 3
79 1
3084 5
2135 3
785 0
2273 0
1849 5
2389 4
2424 1
2726 4
2785 0
3050 5
1829 4
3067 4
227 1
1706 5
2141 1
2952 2
2269 3
2976 1
2189 3
790 0
1617 0
351 2
1790 5
1050 5
1275 5
2858 2
243 1
995 5
2246 2
3177 1
1743 2
831 5
307 2
3141 1
1009 5
901 1
2743 2
1667 4
1185 4
1855 4
1079 5
449 2
1057 2
196 0
2978 5
141 0
1901 1
1711 5
1738 5
2865 5
2899 5
878 2
45 0
535 5
2075 3
1413 2
2753 1
2462 1
2488 1
2053 4
183 1
2704 2
550 2
2825 3
2752 5
2229 1
3126 2
553 1
1207 2
1805 4
2876 0
2890 5
611 0
3024 3
1736 1
2820 0
3237 5
465 4
418 1
2276 0
1957 4
2861 3
2366 4
917 0
2438 2
2164 5
2784 1
3256 5
1279 1
1087 2
1522 1
1688 3
1887 2
1952 2
349 0
2518 2
103 1
2740 5
190 5
565 5
1941 1
1728 5
2531 2
2228 0
2635 2
50 1
2617 5
2253 2
1999 4
2095 5
1134 5
497 5
2422 4
1423 2
2012 5
2582 0
1016 5
1178 3
1446 2
2146 1
1606 5
2577 5
1383 3
600 1
1269 1
850 4
1561 5
2794 3
2181 1
2015 2
1338 4
805 0
1176 5
1905 2
3074 3
1840 4
1331 1
2597 2
426 1
2204 2
2464 1
2252 2
1701 4
1370 2
630 0
1581 5
1678 2
1428 3
772 2
2509 1
2326 2
3220 2
1864 4
1578 4
1458 4
1334 4
401 0
655 4
276 0
85 1
3112 3
1259 2
91 4
2133 5
326 2
136 0
1462 4
767 5
579 1
1065 2
2208 2
1837 0
1939 5
2151 5
2209 2
918 1
2150 0
2430 3
1119 2
756 0
1580 5
306 0
1683 2
3045 3
977 0
1416 1
1920 2
923 0
2593 0
1863 5
1123 0
314 0
2683 5
2988 5
2071 2
2658 1
1834 5
798 1
2356 5
1476 2
1482 2
860 5
98 1
356 1
1032 5
2555 4
327 3
2237 2
260 1
1906 2
2739 5
2722 5
1574 4
1155 4
3110 0
1003 1
1042 3
1019 2
946 3
616 0
1479 4
645 0
1570 5
474 1
381 1
2221 0
2735 5
2604 4
668 1
2902 2
2096 1
1613 4
1523 0
1121 4
1987 4
2516 2
2882 5
2630 2
3170 1
319 0
3109 5
2723 4
2565 2
2875 0
720 0
1253 2
388 0
899 1
1268 5
1380 1
1000 0
554 2
3009 0
1609 2
2203 2
838 0
1173 2
903 1
1883 4
364 1
1233 2
2774 3
2340 3
3211 2
2453 3
2399 2
18 0
1441 2
2538 4
3158 5
1909 4
1366 5
3224 5
1319 1
273 5
142 4
858 0
3144 1
3213 2
1309 5
2391 2
769 1
813 0
317 1
2433 2
1074 0
296 5
1971 5
1671 0
2711 1
734 0
1872 4
409 0
648 0
1619 2
3232 2
1748 1
209 4
618 0
3163 2
1407 1
2184 5
188 1
1375 5
1596 2
1882 0
1810 5
1898 5
2561 2
279 3
2298 2
2971 1
590 1
1827 2
2729 2
897 1
7 1
2915 5
621 0
2309 4
1588 1
1598 2
1791 1
1395 5
683 1
678 1
2742 0
2405 0
896 0
2030 2
2779 1
2745 1
3145 1
2824 3
1379 4
1707 4
1565 5
1199 4
3157 5
328 3
104 0
1300 4
2672 2
3075 4
148 2
2083 1
1509 5
1090 5
2547 3
2575 2
710 2
1408 2
502 1
2287 2
1399 2
2215 5
2548 4
722 3
2034 2
2205 1
2024 1
1865 4
1006 1
623 0
834 0
26 2
182 5
235 1
2249 4
1497 4
970 2
2028 1
1940 5
2320 2
1860 2
1668 2
3133 4
1884 4
1493 0
3115 2
1226 1
1302 1
603 0
2695 3
1768 4
1733 5
204 1
1625 5
43 0
654 0
24 1
437 1
1051 2
1818 5
2218 2
86 2
511 2
945 2
952 0
2576 5
469 1
3136 4
2186 5
1280 1
2123 5
2200 5
3134 0
1340 0
284 5
541 4
2662 5
2961 2
574 1
2793 4
131 0
2454 4
207 0
2972 0
2264 2
2132 2
387 0
1567 4
2176 2
1636 5
2759 2
993 0
2694 2
1136 5
584 1
1621 5
1107 5
1852 3
200 3
3049 5
568 0
884 5
2737 3
2292 2
380 4
427 1
3114 2
1785 2
714 4
1066 0
2382 4
1035 2
729 0
846 0
589 3
2958 3
309 1
2038 2
2583 0
1481 4
3055 5
2725 4
2057 1
1488 2
1082 5
2306 3
393 0
1563 0
2613 3
1095 2
119 2
1806 2
1595 2
1310 1
1817 5
1566 2
605 0
3044 5
3210 4
3097 2
1786 3
1138 2
935 0
375 2
2055 4
242 5
116 0
2367 4
2417 0
2085 2
61 4
2435 1
536 1
25 5
1424 2
410 0
352 2
1449 4
2986 2
1489 5
1916 5
348 1
827 1
222 1
748 0
2082 1
1351 5
1778 1
984 0
1913 5
3198 5
707 2
1657 2
633 4
1856 3
2437 0
3080 4
2084 4
577 0
2911 2
1213 0
571 1
2469 0
35 0
909 1
1751 4
585 0
2857 1
1723 5
601 0
177 1
2294 2
1244 1
123 3
468 1
1045 2
1031 5
638 1
500 1
1298 4
1515 4
2236 5
3228 3
1620 5
31 5
1224 5
1131 3
951 1
1544 5
392 0
3179 4
1471 1
2913 2
2142 1
1012 5
991 5
2965 4
127 2
1850 1
1029 4
916 1
988 0
2702 3
2121 3
1694 4
206 4
1831 4
564 1
2554 0
42 0
2328 0
1472 2
1933 4
759 0
2598 2
1553 5
835 0
385 0
921 0
2822 2
216 3
3165 3
2051 2
2782 0
155 1
698 1
730 5
3093 2
275 1
1747 2
3252 1
994 0
704 1
305 0
2634 2
483 0
796 5
3079 1
1929 0
3242 1
634 1
429 5
4 3
1908 2
2645 1
2157 2
1702 4
1195 4
2724 4
2002 4
3026 5
125 3
1932 2
1664 1
2946 0
254 0
840 1
1483 5
1654 5
882 5
2502 1
2355 4
1854 2
2524 0
1060 5
3253 1
1027 2
478 5
245 0
1503 2
891 0
3105 0
2708 2
1943 2
2750 1
2856 4
2101 4
776 0
308 4
1156 2
466 0
3239 5
1529 2
252 1
807 0
1411 3
3187 3
1903 2
2327 1
2901 0
1189 2
749 0
2773 5
1605 4
1077 5
773 0
1005 1
1064 2
989 5
129 5
112 2
902 1
1283 2
2058 1
220 1
1485 4
2980 2
80 2
2508 5
1294 3
2318 3
1376 3
591 0
1518 5
976 2
2879 2
3216 2
2136 3
2990 4
626 4
2690 4
406 5
2537 1
229 0
176 0
1201 5
504 5
278 4
2685 3
310 2
779 2
2199 0
1592 5
379 5
2801 2
958 2
417 0
2560 5
2924 2
2892 5
1327 1
2217 5
2315 5
1126 5
2846 2
2036 5
304 5
3250 5
1335 4
2650 1
2047 4
2667 5
75 0
1516 0
2256 5
3041 4
2586 2
1396 5
1313 5
1652 4
799 5
948 0
11 0
627 2
2733 5
1304 2
2832 4
1394 1
354 1
2175 5
432 4
1386 2
357 4
777 1
1708 4
1191 5
2226 5
1527 2
1098 2
2917 2
1078 2
3016 0
2394 3
2710 4
1533 2
2361 4
2007 5
1473 3
1102 2
2475 1
1011 2
934 0
2049 4
1234 3
2300 0
1745 4
2738 1
1415 4
2628 2
2068 5
706 1
1250 2
556 1
198 0
218 1
2370 1
1793 2
2069 5
1456 3
2797 4
602 0
2499 4
1208 0
1099 2
2113 4
1796 2
1644 4
1144 5
221 1
1859 5
1171 2
1780 4
2323 4
2887 0
3227 5
335 1
156 1
1166 1
2079 0
2998 4
2179 0
