2332 3
99 0
1900 4
3158 5
2156 2
2699 5
2474 5
2590 3
1864 4
417 0
1875 0
2497 3
2050 2
1154 5
786 0
949 0
2970 4
1897 0
2063 4
340 0
831 5
776 0
3126 2
2340 3
1649 5
2679 4
800 5
1133 2
3165 3
121 1
1794 1
1968 5
2484 2
133 3
1185 4
2142 1
1693 5
1548 4
2381 5
3139 0
855 4
1652 4
318 0
1182 4
987 0
171 5
2878 2
2516 2
1132 2
1844 1
1068 5
2900 2
1441 2
37 1
2256 5
1176 5
526 0
177 1
2201 5
2675 0
651 4
2267 4
2978 5
1887 2
305 0
915 2
2122 5
471 0
1247 2
880 1
1354 5
2781 1
149 2
2425 0
875 0
131 0
3141 1
554 2
3258 5
955 0
2181 1
2603 2
2191 5
2216 0
1162 1
232 1
380 4
2026 4
1752 2
2555 4
1501 4
180 0
606 1
255 1
3122 0
95 1
1984 1
2786 1
3216 2
1940 5
1492 5
2500 4
989 5
2911 2
658 0
1651 4
2027 2
605 0
1026 2
748 0
187 0
2365 5
1209 1
1930 1
425 0
1818 5
829 5
1022 0
1769 2
847 0
1327 1
2494 1
2733 5
1197 2
688 0
126 1
38 0
205 1
1103 2
2855 4
2927 4
3180 4
999 2
2415 4
1223 1
958 2
902 1
465 4
708 2
285 5
2448 1
1263 4
3236 5
701 0
8 3
929 0
192 0
2492 2
1360 5
1447 2
23 2
2135 3
694 3
353 2
1004 1
3042 4
1090 5
2421 4
1674 1
1398 2
1150 5
2043 4
2770 4
1093 4
2688 0
109 0
2872 2
1338 4
1047 5
1442 2
2573 2
3014 4
1129 2
1793 2
2522 1
123 3
1469 2
662 5
1639 5
50 1
2403 5
293 3
1146 4
2225 2
3093 2
1183 4
563 4
566 0
1076 0
581 0
1798 5
2440 4
1993 4
1611 2
3037 1
2014 2
1415 4
1576 4
3242 1
898 0
687 5
2418 0
2793 4
2977 2
2743 2
2469 0
916 1
2009 1
2062 5
925 4
1454 4
3 2
146 1
1668 2
2439 5
1559 5
3220 2
1111 1
229 0
412 4
3071 0
1045 2
2995 3
2436 0
2285 5
1720 1
2867 2
511 2
770 1
806 0
1937 4
2240 2
2884 5
116 0
2894 3
938 3
1823 1
2945 1
2784 1
2763 1
1457 1
2957 3
2252 2
2402 4
2069 5
859 0
1711 5
2501 2
2301 5
3106 0
2707 2
2730 2
2663 5
415 0
2581 5
885 5
896 0
2451 0
876 2
2117 2
503 0
2833 4
804 0
62 1
169 0
520 1
2917 2
1412 3
499 0
582 0
2879 2
2485 3
1367 5
108 2
1865 4
276 0
1282 4
439 1
1358 4
621 0
2530 4
3062 3
1780 4
3166 5
1314 4
2222 3
3011 2
1748 1
1836 0
365 1
773 0
693 4
2279 2
1339 5
2257 5
1362 5
1840 4
1758 2
1159 5
1772 2
47 0
2261 3
3178 4
2011 1
1328 1
990 1
2584 5
677 2
741 2
1174 1
950 1
247 1
350 0
2604 4
1260 4
72 0
570 1
444 1
1341 4
253 1
1401 2
623 0
2192 0
1597 2
889 5
713 4
883 0
2151 5
2330 2
1564 1
569 1
559 5
3045 3
1343 4
2533 0
2397 4
2697 2
18 0
641 0
542 3
1219 1
2321 0
2829 4
2930 4
910 3
1566 2
9 4
2323 4
1732 5
1390 2
2235 1
119 2
801 1
2029 2
2391 2
2620 5
1527 2
75 0
690 0
2441 5
1853 3
2546 2
2282 1
3261 1
2775 3
504 5
1777 0
2070 0
820 0
2419 5
2335 0
1803 2
869 1
778 2
709 1
3194 3
2387 1
3105 0
1213 0
3137 2
2430 3
2909 1
3173 5
2349 5
2936 3
1789 4
1149 2
294 1
1416 1
1342 1
2832 4
152 1
648 0
555 1
1508 5
1957 4
1351 5
3225 2
329 3
1503 2
2319 2
186 0
1280 1
1080 2
2268 2
237 2
706 1
841 0
3229 1
3226 5
2390 1
2973 1
2232 4
2912 1
1303 4
3169 5
2266 2
673 0
1376 3
21 1
3162 4
2280 4
3049 5
359 0
395 4
965 1
2352 3
730 5
812 0
2862 4
783 0
2186 5
1114 2
863 0
3186 0
156 1
893 5
278 4
901 1
3057 4
1332 1
968 0
1788 4
2802 1
1072 1
512 2
1571 4
2809 0
3031 5
35 0
1613 4
646 1
2064 4
1859 5
143 0
2654 5
1557 5
1874 2
3233 1
125 3
2560 5
2048 4
1094 4
1819 4
1999 4
1393 2
158 5
2031 0
2702 3
2955 2
223 1
1381 3
1078 2
1637 5
1021 2
2647 2
1048 4
1731 5
271 5
311 0
2949 0
2932 4
1991 1
356 1
2776 3
450 1
1227 1
587 0
1115 5
2105 4
461 1
2488 1
215 1
200 3
654 0
1380 1
1951 2
2502 1
440 2
1954 5
2143 4
732 0
416 0
1895 4
1510 3
1155 4
2458 2
2292 2
2956 0
3210 4
1061 4
1382 5
799 5
2796 4
2343 2
29 5
1298 4
3227 5
2078 0
3060 5
649 0
2532 4
1095 2
1112 1
66 1
79 1
988 0
3008 0
682 1
2860 1
844 0
1106 2
369 4
344 0
36 3
779 2
2524 0
1483 5
723 1
196 0
1535 2
1418 4
2036 5
2852 0
909 1
2389 4
985 1
2218 2
2849 1
3134 0
2563 2
1016 5
937 0
2025 4
1504 2
1894 4
3157 5
227 1
856 4
1634 3
1822 2
426 1
10 1
345 0
1195 4
1892 1
1725 3
1684 2
3196 4
2984 3
1529 2
2602 2
1405 5
1948 4
2068 5
154 1
57 2
2121 3
321 1
2171 0
2311 2
280 0
3018 4
44 0
1953 4
755 0
3254 2
483 0
118 0
2674 5
1861 2
1962 1
2058 1
1161 5
1062 0
2411 1
2967 1
2924 2
2253 2
2052 2
1959 5
2979 0
52 0
3144 1
405 1
2150 0
2170 3
978 0
2329 1
2773 5
1654 5
1828 4
3079 1
579 1
3067 4
1831 4
2569 4
2915 5
2364 0
1883 4
1759 2
114 0
3184 2
2244 4
2700 2
1091 4
3050 5
348 1
40 0
2523 0
2274 2
1329 4
1717 5
1766 0
3151 3
2729 2
189 0
1028 3
1221 4
1212 4
3243 0
238 0
488 0
3052 4
1491 2
676 0
1196 1
1646 1
45 0
2886 5
2314 5
2136 3
3095 3
2134 3
1688 3
2018 4
2309 4
1872 4
1058 1
2843 1
2874 1
2965 4
997 1
664 0
1799 2
2033 5
388 0
3048 5
2259 2
2542 3
1764 5
1694 4
2276 0
2123 5
1961 5
2565 2
928 0
2508 5
1430 4
498 0
2140 4
2115 4
1049 5
2378 5
2498 3
1077 5
2918 5
1870 5
1581 5
1163 5
2822 2
1537 4
2001 4
2304 1
2034 2
2417 0
2882 5
530 0
2044 2
1082 5
2934 2
1458 4
1107 5
544 0
2413 0
532 5
2681 2
1440 3
1122 2
2920 2
1850 1
3039 2
355 1
2751 1
1762 1
868 4
2527 2
1889 1
680 0
455 1
1325 0
2445 1
2021 3
1825 4
2988 5
1955 5
2840 1
479 0
1939 5
1476 2
77 5
1071 3
2958 3
2393 2
32 5
1027 2
1704 4
3114 2
1985 3
727 0
2870 1
1368 2
2200 5
1810 5
913 4
3138 3
3163 2
2805 4
432 4
2283 2
2337 2
1925 2
1000 0
977 0
3131 2
2109 0
991 5
2880 2
2399 2
815 0
3127 1
515 1
2032 4
2077 1
2127 5
1538 4
1121 4
2394 3
2482 3
1735 4
2239 5
502 1
445 5
2318 3
1975 0
894 2
540 0
392 0
1357 5
1750 3
1890 2
976 2
1756 4
2814 1
2701 4
2362 2
213 0
1882 0
98 1
2926 4
1141 1
2359 5
1917 2
2432 1
1385 0
1198 4
2510 2
132 0
316 1
481 1
541 4
2511 2
1167 2
2579 2
1075 2
1169 5
2839 4
1131 3
209 4
793 4
2929 4
1687 5
1648 0
864 0
211 1
2073 5
2578 2
2366 4
3256 5
160 4
1979 2
2211 2
487 0
165 0
562 0
982 0
248 4
3259 2
1745 4
931 0
371 1
796 5
157 0
313 0
2696 2
489 5
3198 5
2898 4
1774 1
2928 2
1472 2
3082 5
2834 1
1184 5
1729 5
1487 4
1869 2
652 0
1941 1
867 0
1011 2
1749 1
1500 3
1738 5
2680 5
669 0
1257 3
2219 0
254 0
201 0
1050 5
3247 0
204 1
2863 0
637 1
325 2
3140 4
2596 0
2442 1
1994 4
366 0
780 5
1365 3
2693 0
2463 5
1099 2
452 0
1790 5
2420 0
2808 0
951 1
878 2
2981 1
1623 5
998 1
2691 4
2060 1
1400 2
328 3
666 1
790 0
3147 1
1935 5
144 0
3016 0
409 0
1421 1
2291 5
494 0
3061 0
472 1
317 1
1938 4
210 0
2179 0
367 0
3212 4
696 1
1204 1
1296 4
3152 5
2990 4
2404 5
1252 2
1679 4
292 4
2424 1
1453 4
1816 5
2669 3
1034 1
1591 5
962 0
2582 0
2195 5
1624 1
3153 2
2184 5
1761 4
266 1
2155 2
2320 2
2270 0
386 0
2002 4
387 0
2491 2
145 0
173 0
197 0
2248 1
1279 1
2854 4
2308 5
792 0
288 3
767 5
943 0
1909 4
1523 0
1802 1
3207 5
3038 2
536 1
791 5
721 3
3143 5
818 4
871 1
2525 3
1419 4
175 1
1239 2
1020 1
2076 5
1908 2
553 1
2690 4
556 1
589 3
3176 2
975 1
2371 0
2864 4
1839 4
2326 2
586 2
496 0
598 0
1867 5
3069 3
600 1
2084 4
2521 1
2503 2
1286 2
2969 4
1330 4
622 0
1878 1
51 1
2819 0
2723 4
1642 2
1678 2
704 1
2531 2
1002 1
493 0
661 0
1053 2
2974 1
2807 4
370 2
2198 5
2007 5
2368 0
2678 1
1721 2
1650 3
1428 3
817 1
25 5
1797 2
1230 0
2887 0
1370 2
2601 2
362 1
1465 2
3019 3
2709 1
2683 5
1636 5
1715 4
2673 2
1383 3
2443 4
2785 0
2346 1
3000 5
1910 4
2759 2
1701 4
2544 3
1676 5
1505 2
3034 0
1497 4
1533 2
1269 1
2672 2
886 1
2841 1
2196 2
454 1
183 1
2639 4
1722 5
16 2
1886 3
190 5
1785 2
2553 1
1024 5
1259 2
1489 5
707 2
2562 2
407 1
490 4
516 1
3104 0
2245 2
2221 0
139 3
1698 4
2300 0
2548 4
1220 4
1518 5
733 0
2067 4
17 5
2178 3
1670 4
459 1
1482 2
31 5
635 2
283 5
2022 3
354 1
2464 1
453 0
698 1
2750 1
734 0
2452 5
2051 2
1644 4
495 0
3241 5
3097 2
772 2
1471 1
2487 5
3021 3
2089 1
2347 0
1315 5
381 1
2101 4
2946 0
1480 5
1608 4
728 0
2950 5
981 0
2754 4
1335 4
3215 0
2153 1
837 1
558 1
2003 2
2189 3
2765 1
2831 4
1207 2
1625 5
3214 2
633 4
2682 2
2790 2
1990 5
2585 0
1410 0
2238 3
300 2
892 2
1821 4
1995 4
2167 4
2097 2
1084 0
1618 2
2351 1
1741 5
3116 2
1697 2
1201 5
391 1
1692 5
1137 5
2890 5
170 0
2859 1
2055 4
836 3
2112 1
335 1
206 4
159 0
2241 2
2385 1
1573 3
2114 4
906 4
2868 2
1479 4
396 4
334 1
2694 2
552 1
402 0
93 1
1313 5
3026 5
2242 2
3076 4
336 0
2401 2
703 4
2734 1
1617 0
474 1
1037 5
1511 1
865 2
1250 2
2768 4
2294 2
945 2
660 4
3164 5
630 0
257 0
2226 5
2632 5
1411 3
2737 3
1553 5
1467 4
639 0
1507 1
1394 1
3015 4
1568 4
1374 4
862 0
137 0
2006 3
3108 1
1191 5
61 4
519 0
1306 2
2576 5
3177 1
1983 2
697 1
500 1
1945 3
718 0
3129 1
1827 2
522 1
3124 1
944 1
413 1
3136 4
2724 4
2716 1
252 1
1626 2
2455 1
2157 2
2735 5
3078 1
2312 5
613 3
2166 5
3209 3
692 1
2174 3
1443 4
69 1
620 0
312 0
3004 4
302 1
84 0
2780 3
2496 4
1681 2
954 1
742 1
1981 2
2972 0
2369 1
441 1
2434 4
1407 1
1097 2
549 1
1918 4
1579 5
163 2
2383 1
2296 5
1873 0
681 1
1462 4
1754 0
2597 2
575 3
2061 1
1074 0
1813 4
1425 5
27 0
750 0
54 1
612 3
2813 5
2572 2
1952 2
1575 2
2618 3
1517 1
1706 5
284 5
1044 2
1190 3
2223 2
1829 4
236 0
1743 2
2804 5
244 0
2749 1
2190 3
3128 2
828 2
3102 0
705 1
2094 2
2993 1
2722 5
1127 5
884 5
3033 5
1427 1
1974 3
