820 0
1282 4
950 1
2419 5
2097 2
707 2
886 1
1296 4
201 0
3151 3
1416 1
1749 1
1242 5
1586 4
1212 4
1954 5
619 0
2785 0
336 0
3192 2
666 1
813 0
495 0
292 4
1191 5
119 2
3177 1
1361 5
2135 3
1566 2
3034 0
2109 0
938 3
2696 2
2001 4
713 4
3227 5
2536 2
120 0
1995 4
2231 1
2512 0
2786 1
3258 5
1099 2
705 1
3229 1
350 0
1799 2
2371 0
66 1
1897 0
990 1
2969 4
444 1
2809 0
755 0
2216 0
1869 2
1374 4
266 1
121 1
512 2
654 0
1812 2
2011 1
2484 2
253 1
1368 2
223 1
3225 2
558 1
1694 4
2075 3
426 1
3152 5
2915 5
3210 4
2932 4
1421 1
1022 0
563 4
2869 1
1979 2
1195 4
2350 1
2389 4
524 1
2995 3
2304 1
170 0
52 0
981 0
1957 4
1990 5
515 1
1729 5
2860 1
2043 4
1571 4
1814 4
2533 0
2061 1
1457 1
1391 2
1935 5
2383 1
2602 2
1182 4
1724 5
2709 1
229 0
2872 2
763 2
1317 2
2136 3
2807 4
3042 4
2502 1
2522 1
99 0
3049 5
1401 2
2585 0
2332 3
204 1
455 1
2276 0
1785 2
2579 2
1472 2
2003 2
192 0
905 0
2122 5
1603 2
226 1
672 0
2734 1
3241 5
1091 4
38 0
967 4
157 0
2949 0
844 0
1325 0
359 0
1453 4
1624 1
850 4
2265 5
2663 5
1396 5
1257 3
958 2
1702 4
1551 2
1405 5
1674 1
1260 4
661 0
3037 1
2417 0
2638 1
257 0
2469 0
2525 3
445 5
2285 5
828 2
2763 1
432 4
1797 2
2198 5
3106 0
2450 5
553 1
32 5
54 1
2222 3
1741 5
628 0
2494 1
2834 1
2840 1
391 1
1482 2
1510 3
2360 5
2170 3
90 5
2316 1
237 2
248 4
804 0
179 1
2246 2
801 1
706 1
2878 2
2420 0
40 0
2351 1
1505 2
2211 2
1685 5
1184 5
1383 3
2319 2
1194 1
481 1
2089 1
878 2
1926 0
1382 5
567 0
2967 1
2920 2
1766 0
2980 2
2101 4
2372 4
3039 2
2956 0
37 1
1878 1
70 0
2862 4
1511 1
416 0
630 0
1681 2
741 2
2674 5
1214 4
975 1
876 2
2195 5
2578 2
2430 3
815 0
1280 1
1323 1
2443 4
1706 5
329 3
2527 2
2957 3
1679 4
1900 4
1692 5
709 1
1533 2
1446 2
605 0
2879 2
2727 4
1050 5
1452 4
2723 4
2218 2
2686 2
430 3
2950 5
1286 2
2115 4
79 1
317 1
3200 2
3126 2
1825 4
401 0
1041 2
392 0
1331 1
1717 5
3153 2
2225 2
1239 2
2475 1
727 0
1230 0
1985 3
2914 2
606 1
1042 3
1605 4
1410 0
779 2
2963 4
676 0
1880 4
1056 5
3256 5
1764 5
388 0
200 3
2680 5
252 1
1201 5
781 2
2855 4
2580 2
1223 1
2683 5
1090 5
2215 5
1183 4
1507 1
1626 2
1418 4
621 0
499 0
1743 2
1153 5
177 1
1894 4
770 1
50 1
1781 2
1155 4
1938 4
1908 2
3004 4
1121 4
862 0
1864 4
271 5
2434 4
581 0
2975 3
2390 1
2776 3
976 2
1538 4
2492 2
767 5
1500 3
1651 4
1062 0
1617 0
2530 4
2669 3
1141 1
1937 4
3050 5
1150 5
988 0
1303 4
369 4
1132 2
2743 2
2296 5
3057 4
1802 1
461 1
1122 2
2445 1
2242 2
2984 3
2697 2
1466 4
1623 5
2161 2
2241 2
2032 4
2455 1
2116 4
1491 2
648 0
3114 2
1037 5
1796 2
2014 2
1222 2
318 0
503 0
2060 1
3045 3
2279 2
2239 5
2203 2
3157 5
2877 2
682 1
2560 5
1161 5
1297 4
2647 2
2673 2
549 1
3247 0
1313 5
1836 0
2393 2
1011 2
2114 4
796 5
3123 0
892 2
1670 4
1040 2
2188 3
1259 2
1636 5
2404 5
2442 1
1427 1
985 1
1824 2
30 5
1645 1
2397 4
3158 5
354 1
366 0
2373 5
2754 4
530 0
3148 2
385 0
871 1
1119 2
313 0
1111 1
205 1
3242 1
1981 2
2765 1
2829 4
742 1
3257 2
3051 4
620 0
2007 5
662 5
286 0
1568 4
2733 5
2257 5
3154 2
3015 4
2365 5
1488 2
2922 2
1834 5
476 1
2491 2
2888 5
764 4
1678 2
1559 5
2569 4
870 0
24 1
694 3
1185 4
909 1
284 5
2112 1
746 1
2849 1
2672 2
2939 1
1859 5
1094 4
2603 2
2308 5
2146 1
1952 2
1917 2
183 1
636 2
1492 5
2320 2
894 2
2140 4
2775 3
475 1
1329 4
989 5
1553 5
3194 3
2171 0
1467 4
1563 0
1576 4
1176 5
