2418 0
850 4
1004 1
1873 0
2751 1
944 1
2346 1
1219 1
2673 2
2256 5
2992 0
2353 5
3010 2
2994 1
1751 4
519 0
414 4
719 0
894 2
1281 1
1499 4
1477 2
724 0
1801 1
2997 4
904 1
266 1
1677 5
1641 4
2812 3
2143 4
2188 3
1155 4
740 1
833 0
1621 5
1805 4
1994 4
1950 5
553 1
471 0
2531 2
1143 2
2930 4
999 2
914 3
784 0
2424 1
1504 2
568 0
1357 5
2450 5
3248 0
2803 4
1988 5
279 3
687 5
2333 4
958 2
1303 4
1905 2
1528 2
1637 5
908 1
2582 0
2113 4
2652 4
883 0
1552 2
2205 1
2018 4
952 0
340 0
2508 5
3220 2
3140 4
792 0
974 1
3001 4
640 0
2306 3
1770 4
1026 2
1756 4
2880 2
219 1
245 0
3081 0
1392 1
1995 4
1685 5
731 0
1604 2
1091 4
613 3
1554 5
490 4
1483 5
994 0
2372 4
3193 0
2178 3
655 4
685 1
744 1
805 0
310 2
1892 1
3251 2
213 0
2163 5
714 4
856 4
2575 2
2782 0
3071 0
2266 2
2669 3
2254 5
675 2
735 0
1252 2
1367 5
1068 5
221 1
962 0
114 0
3147 1
1742 3
2972 0
2545 2
2435 1
1330 4
353 2
2471 2
222 1
1516 0
1037 5
1861 2
1517 1
2708 2
1442 2
1262 4
1984 1
931 0
1547 2
216 3
2502 1
2379 3
2472 2
1900 4
362 1
877 0
875 0
930 0
601 0
313 0
722 3
854 3
342 4
2160 2
2913 2
2974 1
1059 1
2286 1
318 0
630 0
49 0
286 0
3090 4
2374 2
1839 4
1786 3
3182 5
2427 0
2774 3
1889 1
2245 2
1844 1
1863 5
391 1
549 1
1245 2
1300 4
2875 0
1745 4
1440 3
1625 5
292 4
282 3
911 5
2672 2
2843 1
2431 0
3249 5
2024 1
828 2
2257 5
948 0
2755 4
783 0
2882 5
252 1
442 2
2791 0
2701 4
229 0
2221 0
354 1
1826 1
192 0
1050 5
2937 2
402 0
2047 4
2212 2
2522 1
2463 5
916 1
1975 0
1306 2
1759 2
3075 4
1812 2
2996 2
307 2
1486 3
2825 3
1164 1
3261 1
2062 5
381 1
1584 1
107 1
1412 3
401 0
70 0
2941 5
3061 0
1 1
397 4
538 3
1088 5
2046 2
2819 0
1572 0
1358 4
1548 4
1119 2
1297 4
710 2
3036 2
1326 5
2627 3
2116 4
382 2
2773 5
2317 1
2860 1
2086 3
2581 5
2821 2
2326 2
984 0
922 5
329 3
15 1
2302 2
96 5
1819 4
1069 5
1079 5
1678 2
347 0
555 1
488 0
180 0
2347 0
2534 4
1451 1
55 2
1929 0
2301 5
2780 3
1817 5
3018 4
2268 2
254 0
444 1
648 0
1196 1
2475 1
2277 5
257 0
2127 5
1127 5
2975 3
1369 5
2715 1
2827 1
2926 4
570 1
753 1
408 0
861 0
1927 5
1077 5
1934 5
858 0
864 0
2112 1
622 0
2121 3
2959 4
2704 2
912 1
1371 1
1814 4
2911 2
789 1
718 0
526 0
2090 4
2020 5
1372 5
1729 5
975 1
2991 4
205 1
330 2
1148 4
2908 2
1334 4
2380 4
3086 4
688 0
1815 1
328 3
160 4
3228 3
503 0
1998 4
99 0
3260 5
3157 5
2789 4
1753 3
1512 5
194 4
3091 1
2664 5
1105 4
2817 5
855 4
1961 5
3148 2
3065 5
2700 2
2224 2
1705 4
1407 1
2124 5
2281 1
741 2
2065 1
2075 3
1478 2
800 5
2788 2
2569 4
2383 1
945 2
2354 5
563 4
1598 2
2249 4
1042 3
365 1
2917 2
1638 1
3136 4
1457 1
3030 5
3040 4
2899 5
2840 1
1256 4
3163 2
1390 2
2392 1
2079 0
1862 0
2703 1
2215 5
925 4
45 0
2359 5
3105 0
2510 2
2051 2
884 5
790 0
1021 2
3074 3
1096 5
3108 1
1675 2
2649 5
136 0
179 1
2784 1
1810 5
1496 2
505 0
1156 2
2902 2
2223 2
189 0
2800 2
650 3
3210 4
2390 1
1627 5
3132 4
2321 0
484 1
22 1
1825 4
1415 4
2544 3
1007 0
40 0
964 3
2267 4
264 1
698 1
2754 4
1269 1
3037 1
1425 5
3169 5
3219 3
1855 4
777 1
182 5
2619 2
333 0
1159 5
2835 5
1336 1
755 0
2052 2
2790 2
529 0
666 1
2546 2
2984 3
485 0
1914 1
3141 1
1171 2
1348 1
1296 4
2094 2
163 2
2529 4
2995 3
1090 5
2591 0
2011 1
54 1
1679 4
1803 2
1767 0
1925 2
3009 0
1723 5
1688 3
1153 5
3124 1
609 0
2049 4
149 2
2631 5
2961 2
2606 5
2328 0
2716 1
1333 1
1121 4
3177 1
592 0
2313 2
305 0
738 5
3114 2
1199 4
2677 0
2813 5
865 2
2009 1
2147 2
1081 0
2566 1
2109 0
683 1
2016 4
782 2
658 0
253 1
316 1
59 0
1610 2
325 2
1669 2
2426 0
2685 3
2311 2
628 0
1450 4
423 0
705 1
2864 4
1032 5
1867 5
232 1
1613 4
3050 5
796 5
2823 1
1879 2
1884 4
2772 5
371 1
2225 2
3196 4
83 5
387 0
3213 2
1299 2
2604 4
509 1
431 4
1943 2
667 1
815 0
1449 4
2114 4
2360 5
1180 4
2445 1
2816 5
2102 4
2647 2
2986 2
2262 5
2600 5
1882 0
2766 4
2422 4
2227 1
2195 5
2410 4
1259 2
541 4
955 0
2528 1
578 1
2348 1
1380 1
2089 1
706 1
1733 5
565 5
627 2
2444 3
1591 5
394 3
9 4
696 1
1417 0
1287 1
299 4
3207 5
1014 2
1482 2
1454 4
1573 3
811 5
2547 3
1780 4
794 0
1859 5
742 1
1683 2
2165 5
2285 5
2260 2
801 1
393 0
2341 0
1092 5
3033 5
119 2
1924 5
466 0
1468 1
3216 2
983 3
1313 5
1764 5
3146 2
1687 5
2537 1
1648 0
1567 4
1229 4
2108 5
3208 1
2213 2
851 4
3089 4
1846 1
2609 2
937 0
3115 2
995 5
2125 5
2 0
949 0
892 2
3012 2
3201 1
1444 4
978 0
631 1
1824 2
459 1
3134 0
1555 3
339 0
1913 5
2226 5
1018 0
500 1
608 4
2308 5
879 5
2802 1
2526 3
985 1
1401 2
265 5
2594 0
2943 4
2650 1
3211 2
1531 3
3021 3
1293 5
1871 4
2565 2
702 4
2981 1
2228 0
836 3
947 3
243 1
1142 5
1510 3
2120 1
1701 4
81 0
51 1
3111 2
610 0
1944 1
2589 2
1520 5
2598 2
2095 5
1347 5
1260 4
1484 4
2874 1
2194 2
14 2
1704 4
1173 2
84 0
1186 5
2832 4
2867 2
1500 3
1266 5
680 0
1122 2
217 5
2985 2
1624 1
3171 5
659 0
785 0
618 0
2506 1
2278 0
915 2
2479 3
1857 1
599 5
1209 1
2842 4
1774 1
2927 4
2656 0
516 1
295 1
3239 5
2618 3
3229 1
2448 1
2282 1
2616 5
1749 1
3256 5
2312 5
332 0
669 0
1216 1
1634 3
2680 5
1278 1
998 1
3059 4
360 0
827 1
2872 2
2676 2
2798 4
1931 1
3131 2
1954 5
475 1
1126 5
1589 1
2686 2
3127 1
3166 5
2602 2
3003 2
1921 2
672 0
2884 5
1098 2
1340 0
2466 0
2877 2
208 0
1608 4
2764 5
2971 1
632 1
1922 4
368 0
1292 2
2554 0
2923 2
344 0
1319 1
569 1
2054 5
1265 2
1890 2
413 1
564 1
656 1
1703 2
28 1
676 0
2857 1
1453 4
1941 1
1017 5
1639 5
701 0
3257 2
1403 5
557 4
1203 2
684 1
1099 2
1761 4
1220 4
1787 4
481 1
2349 5
3083 4
1489 5
3052 4
7 1
443 1
2633 2
539 1
1671 0
2252 2
2666 1
1577 5
1633 5
2055 4
2057 1
1019 2
1385 0
654 0
3217 2
1054 5
537 1
1272 2
460 2
3110 0
461 1
643 2
2303 5
494 0
603 0
2366 4
2002 4
204 1
726 1
874 1
2503 2
649 0
1513 1
366 0
207 0
1097 2
3056 5
1686 2
1146 4
251 0
1251 5
2271 2
3101 1
331 1
2765 1
65 1
602 0
3179 4
1854 2
2004 2
1404 5
314 0
115 0
78 5
2396 4
2852 0
1968 5
2342 1
1716 2
2900 2
1288 4
1804 5
1434 0
1233 2
2699 5
1834 5
157 0
2970 4
2299 5
682 1
2723 4
20 0
1850 1
345 0
239 0
2938 5
2735 5
1067 2
1423 2
830 5
1304 2
274 1
24 1
458 1
3149 2
2514 0
1473 3
2455 1
2031 0
2836 5
1546 4
1000 0
2841 1
2728 3
1696 5
2377 4
1074 0
3067 4
641 0
1735 4
1243 2
346 0
3088 2
491 0
1866 4
1966 5
32 5
2050 2
452 0
2848 3
231 1
2325 4
2022 3
440 2
1359 2
2456 2
2156 2
2562 2
1494 2
2210 0
2895 3
1239 2
757 0
1370 2
2646 4
1507 1
772 2
2630 2
2760 0
2310 5
671 1
3154 2
1095 2
1257 3
1682 5
1064 2
2879 2
926 0
1193 2
2688 0
1393 2
798 1
64 0
699 1
891 0
1802 1
2474 5
1959 5
215 1
1031 5
1047 5
356 1
2826 4
1234 3
2162 5
1475 2
1673 1
1493 0
1070 1
1200 1
2593 0
3072 1
2636 2
2394 3
288 3
786 0
2560 5
1920 2
807 0
838 0
1078 2
1538 4
1823 1
2137 4
725 1
1895 4
1221 4
2667 5
1084 0
2741 0
120 0
906 4
38 0
23 2
1807 2
3160 2
474 1
3262 2
2870 1
1738 5
1550 4
3236 5
2244 4
2936 3
3070 3
765 0
417 0
1722 5
3076 4
1508 5
2197 2
3104 0
2453 3
691 5
2548 4
1563 0
1527 2
2241 2
1388 2
3145 1
3043 4
532 5
2042 4
2081 0
2289 5
2730 2
2402 4
1049 5
2935 2
2787 2
810 1
1741 5
1849 5
2632 5
1798 5
1360 5
2250 2
2438 2
1775 5
2040 2
2590 3
3051 4
1791 1
1831 4
1314 4
1075 2
2651 1
1836 0
1870 5
1991 1
2118 4
1578 4
350 0
72 0
871 1
303 1
3203 5
1448 5
1967 4
2499 4
367 0
75 0
2831 4
2327 1
2596 0
713 4
1809 5
2607 4
970 2
33 0
1928 0
979 0
1038 2
1737 1
651 4
1715 4
1284 0
2012 5
3022 3
665 0
2830 2
1463 2
2008 5
1971 5
2517 2
237 2
3144 1
1711 5
1630 2
2512 0
1295 4
3128 2
1027 2
1467 4
3194 3
1558 2
430 3
1191 5
2214 1
1447 2
2395 4
272 3
2549 1
2626 2
415 0
2232 4
1986 3
720 0
2497 3
102 5
2892 5
2906 5
154 1
156 1
3259 2
1145 2
1072 1
2828 4
1594 1
2989 2
2198 5
2061 1
2488 1
1065 2
1408 2
2878 2
1194 1
2139 0
1763 5
3204 5
1424 2
2747 4
1112 1
1748 1
1162 1
577 0
1275 5
454 1
2273 0
1140 5
829 5
1990 5
1898 5
1063 5
2376 5
1206 1
1397 3
167 2
1362 5
2037 1
1479 4
171 5
2272 3
375 2
624 2
2492 2
2316 1
3013 2
686 1
1282 4
2457 4
3038 2
1231 1
41 0
1317 2
595 1
2675 0
2709 1
436 1
3175 0
525 0
309 1
2196 2
1315 5
2365 5
1909 4
1025 5
1135 2
2718 4
1684 2
546 0
2944 4
248 4
3238 3
1210 3
2068 5
1335 4
3100 2
2117 2
2945 1
1615 5
1387 2
1827 2
1821 4
426 1
660 4
166 1
2192 0
1635 2
1649 5
6 0
30 5
898 0
566 0
2314 5
837 1
263 0
2729 2
1797 2
1073 2
2296 5
142 4
320 1
497 5
1963 5
748 0
2216 0
1389 2
143 0
2599 3
2639 4
1773 4
3085 1
1309 5
463 0
2119 4
2759 2
3151 3
1057 2
2740 5
2000 5
1271 5
358 4
294 1
2990 4
2339 2
1109 3
1416 1
1308 2
1411 3
109 0
2230 5
256 1
1628 2
3092 2
2532 4
1328 1
2458 2
2931 1
3250 5
882 5
3192 2
1413 2
203 0
2140 4
2069 5
826 1
2161 2
1377 5
398 0
1534 2
2017 1
2752 5
2883 4
573 1
1702 4
2671 0
1085 2
1428 3
2493 5
2087 4
1758 2
695 1
2998 4
737 3
2233 2
2498 3
3170 1
848 0
1646 1
625 3
133 3
562 0
847 0
1250 2
1076 0
2749 1
1654 5
3142 5
50 1
1188 1
863 0
2801 2
957 0
2003 2
2901 0
899 1
2115 4
2242 2
12 2
198 0
2552 4
117 1
465 4
2126 0
1607 2
910 3
2149 1
4 3
260 1
1869 2
1622 4
773 0
1514 4
1523 0
2622 5
2866 2
1574 4
528 0
376 2
1903 2
2939 1
2958 3
2083 1
1700 4
2732 5
1264 1
43 0
1932 2
1706 5
2172 2
98 1
2388 5
2983 2
2521 1
586 2
2753 1
1653 5
2746 4
2756 0
418 1
2890 5
1876 2
1298 4
39 0
140 0
1283 2
271 5
2662 5
2415 4
1880 4
2615 1
1285 5
2520 0
2362 2
3017 1
1503 2
1422 2
2657 5
778 2
3242 1
276 0
1103 2
2897 4
67 1
1848 4
544 0
2804 5
302 1
1694 4
2587 4
2584 5
716 0
943 0
451 5
2660 2
1236 1
1860 2
3125 0
2331 2
2088 5
1131 3
234 1
690 0
2785 0
151 1
1894 4
267 5
1938 4
1875 0
1080 2
2315 5
1692 5
1662 5
2013 5
2962 3
771 1
3133 4
103 1
511 2
1549 1
2155 2
2135 3
2378 5
2932 4
542 3
2485 3
2886 5
1060 5
183 1
1771 2
1061 4
2722 5
1852 3
1600 2
588 1
633 4
1845 2
2060 1
518 0
1724 5
1784 5
1652 4
514 0
2538 4
1766 0
2248 1
2251 4
1518 5
181 1
1588 1
1349 2
795 1
2440 4
2397 4
560 5
2637 0
1951 2
2077 1
1570 5
2655 5
126 1
1139 2
1048 4
172 3
1935 5
1519 5
1835 4
3197 5
1565 5
164 0
768 5
2148 5
412 4
2868 2
2612 3
3209 3
1937 4
2446 1
326 2
435 0
576 2
814 0
889 5
2904 2
2811 5
472 1
225 0
1364 5
1279 1
3098 3
2963 4
1028 3
2369 1
1312 5
2319 2
1006 1
148 2
1837 0
