1518 5
1934 5
203 0
1449 4
2666 1
528 0
1770 4
1059 1
2751 1
1598 2
557 4
2230 5
1766 0
2506 1
2759 2
1878 1
1836 0
879 5
3226 5
451 5
1496 2
960 0
1317 2
2975 3
1550 4
659 0
3100 2
2113 4
2763 1
1995 4
1630 2
128 4
326 2
1837 0
1510 3
1057 2
546 0
436 1
215 1
2715 1
588 1
1528 2
2699 5
2017 1
1014 2
2764 5
2774 3
490 4
2503 2
2677 0
2904 2
239 0
1360 5
2227 1
1850 1
648 0
2268 2
564 1
2047 4
474 1
1325 0
394 3
1061 4
3056 5
2020 5
38 0
2315 5
649 0
3018 4
64 0
1767 0
81 0
1252 2
618 0
3037 1
1100 0
3003 2
2989 2
706 1
1221 4
1397 3
2631 5
1903 2
553 1
1139 2
725 1
2161 2
1075 2
2620 5
2281 1
2673 2
149 2
1531 3
2475 1
1682 5
1191 5
2098 2
2826 4
737 3
1451 1
2729 2
2213 2
2882 5
613 3
1074 0
3052 4
2538 4
1711 5
1420 4
202 0
2282 1
2390 1
286 0
1618 2
3134 0
3105 0
701 0
167 2
1952 2
2958 3
1653 5
3132 4
698 1
1434 0
1635 2
1233 2
2618 3
2004 2
2671 0
980 0
3072 1
2472 2
1639 5
2895 3
339 0
2766 4
628 0
1688 3
1928 0
964 3
1773 4
1264 1
1882 0
1156 2
3193 0
1428 3
1483 5
2303 5
827 1
2749 1
2864 4
1314 4
1203 2
2974 1
682 1
765 0
2498 3
1065 2
1578 4
75 0
2937 2
952 0
3168 2
1288 4
2008 5
1869 2
1971 5
220 1
660 4
2446 1
1454 4
836 3
2448 1
855 4
718 0
3197 5
2754 4
858 0
2090 4
1922 4
2813 5
2755 4
3144 1
2630 2
805 0
2306 3
874 1
2124 5
2998 4
251 0
3008 0
3262 2
2164 5
3248 0
3149 2
2593 0
2066 2
1243 2
2545 2
371 1
491 0
382 2
3257 2
213 0
1081 0
2120 1
1370 2
955 0
1335 4
2994 1
1070 1
1938 4
1117 3
160 4
3208 1
72 0
1854 2
117 1
1415 4
1442 2
229 0
925 4
753 1
1269 1
2314 5
3036 2
2790 2
3163 2
2358 1
1037 5
1097 2
1153 5
687 5
1359 2
1239 2
309 1
2785 0
814 0
1737 1
2607 4
837 1
2773 5
2333 4
207 0
2892 5
811 5
3194 3
2379 3
2579 2
957 0
2003 2
1385 0
1284 0
1 1
1494 2
1802 1
418 1
151 1
3083 4
1281 1
333 0
387 0
1873 0
2831 4
1801 1
2348 1
1473 3
2454 4
2245 2
602 0
1519 5
2345 4
2215 5
1774 1
650 3
970 2
330 2
1069 5
3040 4
1803 2
2546 2
1929 0
1665 4
1589 1
2552 4
733 0
267 5
1326 5
1577 5
3110 0
2249 4
1900 4
2116 4
2520 0
1229 4
2650 1
826 1
644 1
13 1
1704 4
1119 2
1263 4
2115 4
2527 2
107 1
2277 5
1643 2
3088 2
3086 4
671 1
2517 2
601 0
2037 1
2596 0
208 0
1818 5
2788 2
329 3
1131 3
2194 2
1723 5
1554 5
1275 5
1155 4
2415 4
276 0
1594 1
2046 2
2301 5
999 2
1299 2
2931 1
2233 2
1296 4
1771 2
3042 4
3204 5
829 5
194 4
3160 2
1285 5
2210 0
2212 2
401 0
1998 4
1863 5
998 1
2512 0
1021 2
995 5
2811 5
789 1
2816 5
2271 2
1683 2
2060 1
1319 1
1039 2
1923 2
2962 3
983 3
2639 4
510 0
481 1
609 0
1857 1
748 0
3125 0
2966 5
1756 4
2497 3
776 0
2214 1
1358 4
2877 2
2981 1
786 0
1667 4
1512 5
2457 4
2456 2
3065 5
2782 0
2652 4
1295 4
1791 1
1686 2
2308 5
1049 5
2334 4
417 0
1558 2
3090 4
3033 5
250 1
1347 5
2983 2
833 0
1508 5
2649 5
3251 2
2365 5
243 1
1372 5
2057 1
702 4
1549 1
726 1
2377 4
2311 2
2732 5
78 5
282 3
563 4
52 0
2986 2
1292 2
861 0
1574 4
1804 5
391 1
2872 2
684 1
994 0
3081 0
2192 0
2326 2
2746 4
263 0
1511 1
1844 1
2660 2
959 4
1754 0
2054 5
1707 4
471 0
2225 2
2627 3
771 1
1749 1
1328 1
2927 4
1685 5
3171 5
440 2
2499 4
1729 5
2188 3
503 0
1050 5
1860 2
2325 4
2410 4
1745 4
631 1
1715 4
2874 1
1982 1
2341 0
325 2
2087 4
785 0
2197 2
757 0
2328 0
2589 2
800 5
3213 2
1628 2
2930 4
1078 2
1206 1
2086 3
1967 4
1859 5
2149 1
414 4
1409 3
2011 1
1555 3
3141 1
2052 2
12 2
2013 5
1846 1
1765 2
3076 4
2908 2
2803 4
2488 1
2566 1
2825 3
2599 3
577 0
358 4
2137 4
1489 5
3254 2
930 0
2817 5
931 0
1216 1
1546 4
1637 5
2018 4
1634 3
1805 4
2866 2
1073 2
3011 2
2431 0
1417 0
772 2
2049 4
526 0
2760 0
2992 0
2752 5
2147 2
894 2
413 1
274 1
1340 0
1943 2
974 1
1250 2
630 0
292 4
488 0
2787 2
295 1
1271 5
882 5
1966 5
51 1
1334 4
599 5
2830 2
1839 4
3030 5
135 0
2843 1
1786 3
3209 3
1593 1
2991 4
2549 1
257 0
2626 2
1132 2
3219 3
3211 2
585 0
2117 2
2508 5
803 1
641 0
1336 1
1503 2
724 0
1371 1
1278 1
2360 5
1251 5
1122 2
1084 0
1441 2
1025 5
166 1
1817 5
2686 2
3210 4
1408 2
1641 4
360 0
2317 1
39 0
1090 5
1467 4
798 1
356 1
2875 0
2601 2
3236 5
2655 5
907 5
1716 2
2926 4
403 0
2703 1
3237 5
316 1
2453 3
2369 1
2241 2
2832 4
2135 3
1450 4
2632 5
2990 4
2716 1
1677 5
2226 5
1440 3
608 4
20 0
423 0
1257 3
1007 0
54 1
323 2
847 0
2609 2
1592 5
2065 1
778 2
2762 5
1034 1
1448 5
2880 2
2426 0
2252 2
1068 5
908 1
1565 5
1523 0
2573 2
1507 1
1312 5
549 1
2260 2
3220 2
1692 5
114 0
1254 1
1705 4
84 0
2667 5
1810 5
2254 5
485 0
2331 2
1349 2
2162 5
1411 3
1236 1
2257 5
2417 0
192 0
2860 1
2641 0
643 2
331 1
1377 5
2359 5
3128 2
1742 3
1121 4
1701 4
1048 4
3022 3
2374 2
140 0
181 1
1500 3
1127 5
2648 2
2228 0
252 1
1262 4
163 2
1504 2
1835 4
2128 2
2286 1
1516 0
3151 3
936 0
633 4
603 0
2772 5
686 1
2791 0
299 4
1391 2
2598 2
271 5
863 0
680 0
509 1
627 2
655 4
115 0
30 5
2827 1
73 2
189 0
984 0
2537 1
672 0
234 1
2669 3
44 0
539 1
494 0
683 1
3071 0
949 0
2932 4
2205 1
906 4
865 2
3038 2
2917 2
1521 2
1567 4
1098 2
2812 3
1423 2
854 3
711 5
2672 2
2050 2
2140 4
1194 1
2745 1
302 1
777 1
381 1
1067 2
1648 0
1054 5
2156 2
2396 4
1404 5
3175 0
516 1
2278 0
962 0
182 5
891 0
183 1
2940 4
2256 5
1779 4
2380 4
3201 1
2444 3
3182 5
722 3
1880 4
2094 2
1807 2
1367 5
1722 5
232 1
1138 2
1671 0
1898 5
2675 0
347 0
2522 1
1907 3
2068 5
2062 5
1357 5
2510 2
716 0
2793 4
2471 2
2394 3
362 1
340 0
1961 5
1914 1
245 0
570 1
2148 5
1032 5
3055 5
2378 5
1825 4
1077 5
306 0
2856 4
1062 0
1105 4
3165 3
2321 0
1245 2
1753 3
3170 1
3250 5
148 2
2963 4
1416 1
717 0
2392 1
201 0
2376 5
412 4
2221 0
2970 4
98 1
1962 1
65 1
1171 2
2024 1
180 0
807 0
3050 5
632 1
1180 4
260 1
70 0
