520 1
1508 5
309 1
1430 4
158 5
2363 5
2643 1
2210 0
2519 3
458 1
541 4
964 3
1535 2
29 5
1420 4
75 0
1549 1
2244 4
1144 5
2371 0
2500 4
1484 4
1452 4
2790 2
1295 4
694 3
2015 2
2877 2
994 0
216 3
83 5
1270 1
1034 1
2418 0
2421 4
3232 2
2725 4
2773 5
1146 4
1742 3
1365 3
2972 0
710 2
273 5
2977 2
623 0
2050 2
42 0
1641 4
2881 1
410 0
86 2
1615 5
354 1
1531 3
894 2
62 1
1510 3
793 4
3172 4
736 1
1846 1
3027 2
993 0
1298 4
1156 2
2373 5
468 1
2160 2
2177 0
2470 5
2791 0
829 5
1534 2
368 0
2909 1
2457 4
575 3
2750 1
1284 0
605 0
238 0
2429 2
1316 5
2962 3
1910 4
1472 2
872 0
587 0
270 0
2860 1
1100 0
708 2
1584 1
2620 5
143 0
2896 5
1948 4
2143 4
2908 2
96 5
1399 2
245 0
888 3
2326 2
1323 1
135 0
3233 1
2 0
464 4
690 0
2025 4
633 4
1616 2
291 1
1389 2
1706 5
868 4
446 1
247 1
3159 0
2568 3
757 0
1018 0
2349 5
2375 0
2312 5
1536 4
1290 4
2133 5
141 0
895 5
733 0
1202 0
3020 3
3157 5
1282 4
1971 5
252 1
1970 3
614 1
1600 2
2191 5
2728 3
3121 5
2985 2
3101 1
3122 0
1741 5
3128 2
1547 2
2777 0
583 0
2538 4
703 4
2711 1
2564 2
2981 1
839 1
832 0
1876 2
3043 4
114 0
925 4
2593 0
2413 0
1085 2
195 0
1112 1
1972 1
3166 5
3009 0
44 0
360 0
1655 2
3098 3
2136 3
1397 3
306 0
780 5
2949 0
765 0
2356 5
2882 5
891 0
2928 2
2053 4
1784 5
900 1
147 0
1306 2
730 5
2726 4
3115 2
1645 1
2999 5
3260 5
108 2
1230 0
3204 5
2060 1
2787 2
1031 5
1801 1
1158 2
230 1
70 0
2434 4
434 0
56 5
712 1
1969 1
725 1
2154 1
2225 2
582 0
1394 1
2001 4
1606 5
563 4
3196 4
2150 0
1314 4
45 0
1361 5
2842 4
800 5
1250 2
1525 2
2462 1
2007 5
2510 2
1096 5
119 2
947 3
1729 5
1822 2
1650 3
26 2
2135 3
271 5
3255 1
3213 2
2270 0
3226 5
1832 4
2095 5
3210 4
997 1
2503 2
2441 5
3100 2
3224 5
2428 1
3029 4
3126 2
3146 2
486 0
830 5
279 3
1129 2
1514 4
1563 0
2956 0
2323 4
673 0
2976 1
1854 2
801 1
161 5
2990 4
3031 5
3202 4
881 1
1880 4
2164 5
1848 4
910 3
2359 5
858 0
188 1
1061 4
488 0
1527 2
2998 4
2639 4
1919 4
851 4
1402 2
1195 4
2298 2
2602 2
1713 5
2031 0
443 1
811 5
3203 5
280 0
1352 3
41 0
2590 3
215 1
1984 1
2662 5
92 0
1859 5
3071 0
2528 1
2300 0
2567 2
2527 2
2927 4
1448 5
622 0
2812 3
943 0
1080 2
2833 4
2317 1
405 1
2469 0
2097 2
1036 2
1867 5
286 0
3231 2
1151 3
2960 1
3042 4
1599 4
2712 4
1586 4
2303 5
22 1
2389 4
2196 2
748 0
127 2
3250 5
1482 2
1533 2
2543 1
2476 5
1483 5
912 1
2802 1
106 1
2993 1
715 1
340 0
2737 3
201 0
2458 2
1964 5
2086 3
2200 5
751 0
606 1
2763 1
2653 2
603 0
12 2
128 4
1198 4
9 4
2448 1
2390 1
675 2
571 1
1256 4
1176 5
3154 2
2294 2
734 0
1276 1
2501 2
2151 5
2889 5
2958 3
646 1
1905 2
2574 1
1330 4
556 1
1746 2
516 1
773 0
2966 5
315 0
53 4
3199 5
499 0
310 2
1313 5
1720 1
3123 0
489 5
1087 2
1676 5
713 4
1963 5
530 0
111 0
1300 4
2651 1
94 1
595 1
1521 2
3178 4
2339 2
684 1
1958 3
1756 4
1225 2
1681 2
131 0
2692 1
2665 1
1401 2
1977 2
565 5
1070 1
984 0
157 0
1263 4
596 1
1023 3
2610 1
3074 3
1585 4
1553 5
1292 2
2537 1
99 0
1473 3
3182 5
1049 5
845 0
1840 4
1272 2
682 1
419 1
2608 5
2360 5
3024 3
496 0
1434 0
2732 5
2342 1
2130 2
2040 2
1701 4
2746 4
3139 0
1754 0
3176 2
1016 5
377 2
745 1
11 0
248 4
859 0
1077 5
2073 5
1719 2
2900 2
3008 0
2598 2
2427 0
8 3
374 2
2914 2
2691 4
2923 2
1291 2
2318 3
1363 5
3037 1
2539 5
2808 0
2168 5
657 0
1967 4
1246 1
2221 0
1344 2
213 0
227 1
825 1
983 3
2426 0
1665 4
1638 1
1445 4
3087 4
1207 2
2969 4
3148 2
607 1
1666 4
1864 4
2254 5
272 3
915 2
1647 5
2297 2
1870 5
1062 0
1163 5
2885 1
3079 1
1861 2
1602 2
181 1
3192 2
743 1
1067 2
220 1
1415 4
1165 5
380 4
1860 2
2765 1
439 1
1244 1
2982 1
992 0
162 0
2174 3
2760 0
3067 4
1917 2
2132 2
869 1
363 1
1827 2
774 2
2514 0
1279 1
2348 1
1117 3
3145 1
616 0
1845 2
1581 5
3124 1
3056 5
1774 1
1150 5
971 0
2056 4
2066 2
2613 3
102 5
1412 3
1411 3
967 4
2764 5
1537 4
2399 2
433 0
3222 0
1481 4
904 1
2431 0
1727 5
2011 1
2149 1
1333 1
1673 1
2647 2
536 1
1775 5
1180 4
274 1
2669 3
105 1
2654 5
632 1
2987 1
2255 1
2912 1
1491 2
2315 5
2661 2
864 0
2435 1
2003 2
550 2
1605 4
1441 2
1907 3
2775 3
2961 2
1707 4
2144 1
1289 4
2770 4
2419 5
1376 3
1596 2
1988 5
80 2
944 1
1424 2
2163 5
1470 2
1538 4
1124 2
2771 4
212 1
2464 1
2450 5
2805 4
1539 1
3144 1
709 1
1959 5
323 2
618 0
151 1
1382 5
763 2
1968 5
500 1
1287 1
2145 2
1052 5
1578 4
2708 2
3112 3
837 1
453 0
2082 1
386 0
2182 4
1946 4
2575 2
3243 0
2310 5
1814 4
1041 2
1853 3
2397 4
2705 0
1517 1
1232 4
942 4
1632 2
474 1
2094 2
2192 0
2032 4
36 3
2455 1
1283 2
411 0
1489 5
146 1
980 0
1120 5
1329 4
2012 5
2742 0
1056 5
2735 5
1736 1
535 5
2843 1
877 0
414 4
764 4
2229 1
2677 0
529 0
628 0
243 1
67 1
178 5
2361 4
1511 1
1343 4
470 1
1213 0
2693 0
59 0
400 0
822 0
1717 5
1710 1
670 5
1692 5
1983 2
2744 1
1261 1
418 1
1751 4
1030 0
28 1
2560 5
402 0
2023 5
2267 4
2780 3
524 1
2281 1
3246 5
2026 4
1530 3
3228 3
3194 3
2187 5
2456 2
137 0
197 0
2422 4
3068 3
1920 2
299 4
924 4
2400 5
2890 5
2218 2
1428 3
2242 2
2792 4
2123 5
505 0
917 0
1588 1
2594 0
168 4
2511 2
884 5
1466 4
3208 1
561 4
2085 2
3041 4
3168 2
481 1
430 3
2409 4
2753 1
1739 5
762 0
1174 1
979 0
2022 3
2739 5
1105 4
1451 1
940 0
1060 5
2768 4
2557 2
883 0
2417 0
401 0
447 0
1532 2
1764 5
2769 5
674 0
1500 3
2607 4
2631 5
1776 1
265 5
1423 2
1206 1
1097 2
3120 5
517 2
109 0
3130 2
2868 2
776 0
2933 3
787 3
1687 5
677 2
268 3
2682 2
1785 2
269 3
54 1
73 2
740 1
1624 1
211 1
1842 0
2497 3
2996 2
2635 2
1759 2
2521 1
573 1
2331 2
533 1
3051 4
697 1
81 0
2252 2
1490 5
2815 4
2869 1
3140 4
2640 2
1192 5
304 5
999 2
3254 2
2717 1
647 0
7 1
2042 4
738 5
1560 3
2008 5
2481 2
1862 0
492 0
2626 2
63 3
1790 5
2707 2
2061 1
886 1
1139 2
222 1
2282 1
2261 3
3116 2
989 5
2657 5
1497 4
1386 2
457 5
878 2
615 5
2098 2
3158 5
2079 0
1826 1
1800 4
2794 3
2585 0
1169 5
1072 1
788 0
2402 4
463 0
132 0
1248 2
2641 0
735 0
2328 0
528 0
2515 2
1516 0
1359 2
440 2
586 2
334 1
724 0
534 0
1360 5
1571 4
1485 4
318 0
796 5
2314 5
226 1
1913 5
2157 2
1559 5
288 3
1747 2
2582 0
1771 2
2660 2
1575 2
3102 0
2710 4
817 1
2837 1
3167 5
2440 4
3002 3
3129 1
1834 5
1257 3
371 1
1583 1
3241 5
51 1
1407 1
3142 5
2789 4
1737 1
973 0
1268 5
2596 0
2237 2
429 5
2134 3
2545 2
1385 0
1890 2
3118 5
578 1
1598 2
2345 4
2347 0
1626 2
2687 4
1733 5
2124 5
726 1
155 1
2262 5
456 5
962 0
1502 2
3105 0
2604 4
2652 4
814 0
798 1
1066 0
2445 1
3209 3
2508 5
1569 2
359 0
1570 5
1709 4
479 0
1865 4
3138 3
3095 3
287 3
2383 1
1201 5
1454 4
1444 4
370 2
2087 4
1431 4
1027 2
2680 5
1730 5
2587 4
1315 5
1153 5
416 0
1561 5
537 1
1327 1
142 4
1303 4
107 1
25 5
898 0
1985 3
2580 2
1362 5
913 4
1417 0
1459 3
1523 0
338 0
1123 0
1029 4
2217 5
2648 2
3060 5
321 1
122 5
2388 5
1307 5
2973 1
2266 2
2688 0
954 1
2351 1
2530 4
2509 1
369 4
57 2
2630 2
929 0
651 4
494 0
1835 4
909 1
2911 2
1926 0
1456 3
1103 2
2796 4
2804 5
2809 0
2006 3
3133 4
2953 5
1128 1
82 1
860 5
1228 1
396 4
3131 2
365 1
172 3
1885 1
3016 0
2615 1
3201 1
2167 4
1260 4
2526 3
1765 2
2313 2
599 5
2849 1
758 0
2905 5
2219 0
731 0
1576 4
79 1
2180 1
2074 5
1022 0
3050 5
3230 0
1888 2
1937 4
1855 4
2100 2
420 2
2701 4
1728 5
3088 2
1188 1
1889 1
755 0
38 0
1435 5
1032 5
2213 2
2088 5
1184 5
2913 2
1654 5
301 1
190 5
511 2
2109 0
2723 4
3240 2
720 0
1496 2
553 1
2129 0
1636 5
253 1
2806 4
972 1
6 0
1035 2
523 2
2534 4
767 5
1892 1
1878 1
2416 5
438 1
1127 5
2308 5
1210 3
2983 2
2415 4
1949 1
502 1
1479 4
485 0
3262 2
17 5
2108 5
1757 1
1758 2
1554 5
2649 5
1762 1
1009 5
1437 2
3164 5
2039 2
3173 5
2650 1
1242 5
2307 2
2178 3
1104 2
1954 5
1936 2
422 2
426 1
2874 1
1939 5
24 1
557 4
600 1
1868 3
259 0
1611 2
1465 2
1843 0
1013 2
2703 1
2204 2
2214 1
782 2
2220 5
1999 4
1297 4
746 1
1981 2
1269 1
2772 5
3220 2
2633 2
2058 1
451 5
3099 2
879 5
2062 5
160 4
681 1
2000 5
1160 2
2089 1
2612 3
2234 2
1366 5
2499 4
2907 5
2156 2
1721 2
729 0
2002 4
1305 4
89 0
397 4
873 0
2738 1
1908 2
1110 4
1691 2
602 0
2922 2
1285 5
2591 0
1520 5
2197 2
123 3
809 0
576 2
1982 1
1975 0
2646 4
441 1
1831 4
1542 2
911 5
5 3
1008 0
1247 2
843 2
3200 2
799 5
3062 3
1059 1
1209 1
1637 5
384 0
179 1
1320 5
2353 5
1767 0
2502 1
465 4
2663 5
2883 4
2555 4
150 1
1462 4
2228 0
1697 2
865 2
820 0
2201 5
2597 2
630 0
1749 1
1629 2
495 0
2811 5
899 1
192 0
3011 2
2004 2
3036 2
700 2
3227 5
3239 5
1566 2
202 0
2170 3
347 0
1226 1
13 1
1503 2
656 1
2384 1
459 1
841 0
2697 2
1957 4
935 0
3206 5
2873 0
1450 4
551 5
2084 4
1183 4
1589 1
2189 3
2656 0
2541 3
2411 1
1427 1
490 4
296 5
184 0
2449 5
1388 2
2548 4
3073 1
2477 5
1334 4
653 1
1807 2
2901 0
2138 1
2330 2
1786 3
2113 4
2325 4
1744 1
679 4
1335 4
547 1
1899 5
619 0
1390 2
2800 2
3256 5
1372 5
1002 1
1973 4
2533 0
1748 1
3191 2
1111 1
1702 4
981 0
2080 5
2321 0
1177 2
2425 0
970 2
3047 2
3082 5
2751 1
1131 3
1693 5
938 3
2754 4
3003 2
1012 5
2856 4
1179 4
756 0
2986 2
3006 4
1590 5
2855 4
1076 0
2253 2
37 1
955 0
65 1
1683 2
3055 5
219 1
2288 1
1349 2
808 4
3180 4
1321 4
2131 2
504 5
1567 4
482 1
1760 4
1674 1
727 0
2243 4
3135 1
1956 5
1755 5
2316 1
1432 4
2906 5
3111 2
1273 4
598 0
242 5
2696 2
631 1
1987 4
2273 0
2141 1
1395 5
1106 2
813 0
2854 4
39 0
2311 2
907 5
2224 2
1331 1
2212 2
552 1
2260 2
1091 4
1573 3
1498 4
1090 5
1113 2
3156 0
1277 4
1019 2
2566 1
887 3
2355 4
2215 5
1378 1
1799 2
588 1
2823 1
275 1
1912 5
2535 2
2549 1
818 4
2319 2
2063 4
513 0
1224 5
686 1
1064 2
2275 4
2798 4
927 1
620 0
789 1
2122 5
580 4
1922 4
244 0
2736 2
842 1
2916 2
435 0
1229 4
2727 4
969 2
2605 5
2581 5
1793 2
2880 2
594 0
409 0
1223 1
498 0
569 1
1850 1
2453 3
2934 2
3160 2
519 0
93 1
113 3
1358 4
1367 5
352 2
717 0
1830 4
3081 0
1620 5
19 0
2595 0
2876 0
300 2
61 4
2165 5
1463 2
846 0
2438 2
2403 5
1900 4
1670 4
2184 5
138 0
1903 2
963 0
1368 2
852 0
1266 5
2365 5
328 3
2562 2
1219 1
427 1
1398 2
281 0
121 1
2394 3
3089 4
117 1
2752 5
849 4
1299 2
3032 4
1869 2
2672 2
487 0
1381 3
2404 5
2803 4
990 1
1887 2
43 0
1007 0
68 2
1308 2
2655 5
257 0
581 0
1194 1
3186 0
1351 5
1734 5
1239 2
901 1
163 2
491 0
1789 4
1088 5
208 0
2127 5
610 0
2664 5
2970 4
2988 5
2709 1
1339 5
170 0
2592 0
2614 3
1115 5
1639 5
1603 2
2104 4
1461 1
2573 2
2684 2
914 3
889 5
1715 4
2756 0
3034 0
2840 1
3197 5
404 0
1346 1
1155 4
2507 1
2730 2
1474 0
124 0
1312 5
3052 4
3108 1
1310 1
236 0
2951 3
3169 5
233 1
1063 5
2578 2
2667 5
3147 1
478 5
1873 0
40 0
1211 4
2576 5
2401 2
2460 2
2936 3
1409 3
204 1
3205 1
353 2
1231 1
2766 4
1494 2
348 1
1371 1
2121 3
2940 4
649 0
3171 5
406 5
2295 2
1004 1
98 1
2352 3
527 0
1591 5
1337 4
180 0
2468 2
198 0
2942 5
815 0
2748 5
387 0
2203 2
1518 5
1383 3
1055 2
1218 4
739 0
3114 2
521 1
564 1
2405 0
747 1
3083 4
2925 5
2341 0
786 0
785 0
1541 2
1858 2
2571 2
1271 5
1236 1
1241 1
3195 3
413 1
2479 3
544 0
1010 1
699 1
2034 2
1648 0
1994 4
2372 4
3248 0
826 1
2625 2
193 1
1024 5
2492 2
1609 2
469 1
1725 3
2690 4
2824 3
261 5
2852 0
1507 1
2551 2
2190 3
343 0
2370 1
1540 2
1205 5
902 1
1663 1
2043 4
959 4
790 0
1495 2
1806 2
2068 5
294 1
566 0
335 1
331 1
484 1
2443 4
2036 5
2632 5
2910 1
3053 0
882 5
2140 4
1794 1
590 1
2603 2
3075 4
295 1
2997 4
3261 1
