2913 2
576 2
1537 4
1365 3
2394 3
2626 2
1029 4
1072 1
2403 5
2769 5
2582 0
1742 3
699 1
815 0
2310 5
673 0
724 0
2625 2
2261 3
2576 5
884 5
2086 3
484 1
1645 1
541 4
2098 2
1549 1
1394 1
158 5
2184 5
2149 1
2571 2
830 5
682 1
2528 1
571 1
2587 4
710 2
2178 3
2723 4
2270 0
2388 5
2413 0
2151 5
93 1
1174 1
1917 2
1266 5
2082 1
1534 2
2500 4
498 0
2533 0
914 3
488 0
3168 2
274 1
2136 3
121 1
2295 2
1559 5
757 0
2123 5
306 0
2040 2
2987 1
2652 4
57 2
2635 2
354 1
2440 4
2138 1
599 5
1490 5
649 0
1320 5
793 4
1298 4
2390 1
2736 2
2401 2
536 1
1650 3
602 0
397 4
92 0
1801 1
331 1
163 2
3052 4
633 4
1285 5
904 1
1485 4
1807 2
3231 2
881 1
607 1
1155 4
108 2
1629 2
1063 5
3118 5
1520 5
1263 4
3130 2
1273 4
1195 4
441 1
2063 4
2692 1
2791 0
980 0
2508 5
2906 5
2449 5
1970 3
785 0
334 1
1407 1
230 1
2806 4
2100 2
2633 2
3034 0
1892 1
2766 4
2359 5
1491 2
2789 4
1276 1
3047 2
1609 2
762 0
3154 2
190 5
1540 2
586 2
2203 2
646 1
2312 5
969 2
2165 5
1603 2
404 0
1059 1
2224 2
458 1
1539 1
2790 2
1007 0
1984 1
587 0
3147 1
1247 2
3053 0
13 1
257 0
2255 1
2445 1
1210 3
2060 1
2882 5
192 0
2662 5
2612 3
2307 2
2664 5
1367 5
2031 0
3166 5
1466 4
1496 2
717 0
868 4
3243 0
1793 2
1041 2
1822 2
2534 4
573 1
1080 2
606 1
107 1
401 0
547 1
2197 2
1958 3
900 1
102 5
1432 4
352 2
3043 4
380 4
1977 2
1581 5
829 5
2597 2
438 1
2843 1
2431 0
453 0
1176 5
3222 0
96 5
3230 0
430 3
1117 3
3194 3
616 0
1963 5
962 0
470 1
2002 4
3095 3
261 5
481 1
2328 0
620 0
544 0
1371 1
1381 3
2792 4
767 5
720 0
105 1
81 0
3176 2
1880 4
2428 1
287 3
1229 4
1192 5
3108 1
2182 4
800 5
2429 2
1757 1
1948 4
3191 2
44 0
420 2
740 1
2228 0
3199 5
233 1
500 1
2318 3
2022 3
1975 0
70 0
2573 2
328 3
1397 3
1335 4
553 1
970 2
1312 5
1401 2
594 0
2360 5
809 0
818 4
2972 0
1139 2
3220 2
1283 2
2885 1
940 0
1225 2
2574 1
26 2
817 1
2585 0
745 1
2696 2
2383 1
864 0
883 0
1008 0
3067 4
2927 4
36 3
1846 1
1663 1
2877 2
487 0
2352 3
2043 4
299 4
670 5
1707 4
971 0
1473 3
1260 4
1570 5
39 0
2315 5
193 1
1521 2
1351 5
1013 2
869 1
80 2
1719 2
758 0
735 0
2999 5
41 0
2266 2
556 1
2970 4
416 0
674 0
479 0
1124 2
1867 5
1957 4
1602 2
1295 4
2510 2
2942 5
2068 5
2244 4
1535 2
1827 2
