193 1
1218 4
606 1
365 1
1129 2
2949 0
1834 5
2640 2
1747 2
502 1
990 1
709 1
161 5
13 1
2122 5
170 0
1330 4
1056 5
3140 4
1230 0
1283 2
3071 0
2458 2
2626 2
729 0
3055 5
253 1
2591 0
1223 1
2163 5
2261 3
2802 1
3088 2
980 0
201 0
1320 5
909 1
818 4
1936 2
179 1
1584 1
1225 2
1727 5
1295 4
1463 2
488 0
2160 2
830 5
1742 3
883 0
1969 1
1869 2
2555 4
2402 4
851 4
3126 2
446 1
243 1
1774 1
1654 5
2896 5
1848 4
2581 5
1789 4
2080 5
3074 3
2545 2
2427 0
610 0
940 0
537 1
564 1
2331 2
1226 1
1535 2
1913 5
1331 1
3222 0
2130 2
2002 4
208 0
1060 5
3121 5
2339 2
2927 4
1263 4
1887 2
699 1
1461 1
131 0
3169 5
2383 1
323 2
89 0
2587 4
309 1
1034 1
3051 4
3102 0
2422 4
2573 2
2635 2
1994 4
2214 1
299 4
694 3
2775 3
3164 5
2860 1
2252 2
2341 0
2167 4
1860 2
2253 2
3139 0
2450 5
2356 5
3008 0
1363 5
2150 0
1858 2
1964 5
2462 1
1202 0
1018 0
490 4
2365 5
2510 2
1386 2
1327 1
1088 5
271 5
865 2
2127 5
3123 0
1002 1
1242 5
1536 4
2481 2
1958 3
972 1
811 5
1831 4
1523 0
1010 1
530 0
92 0
28 1
3002 3
2190 3
1415 4
2143 4
2003 2
2808 0
756 0
817 1
724 0
369 4
1179 4
1335 4
2823 1
837 1
1982 1
2652 4
746 1
68 2
2191 5
1232 4
1176 5
1636 5
487 0
1520 5
566 0
1231 1
368 0
3168 2
123 3
1939 5
3082 5
1444 4
2833 4
2138 1
1514 4
1160 2
2803 4
1158 2
1297 4
2032 4
1715 4
2754 4
2134 3
1456 3
2993 1
2342 1
1516 0
3201 1
1721 2
1409 3
2760 0
615 5
188 1
2043 4
1758 2
1807 2
2321 0
79 1
2664 5
1246 1
1188 1
1371 1
294 1
1462 4
1112 1
1272 2
2909 1
2310 5
1589 1
2180 1
300 2
1638 1
310 2
288 3
1757 1
1739 5
2500 4
2874 1
1382 5
2791 0
280 0
992 0
2515 2
3034 0
291 1
1266 5
3011 2
1598 2
2022 3
731 0
677 2
1024 5
1937 4
3124 1
1949 1
113 3
1009 5
793 4
1165 5
1861 2
565 5
1561 5
1260 4
2639 4
402 0
1790 5
2905 5
994 0
2502 1
2777 0
1139 2
122 5
1648 0
1853 3
842 1
198 0
433 0
2877 2
147 0
127 2
479 0
2008 5
458 1
67 1
2735 5
11 0
1346 1
3020 3
2298 2
1560 3
2511 2
1016 5
2262 5
482 1
820 0
12 2
1183 4
1268 5
839 1
1150 5
1365 3
3194 3
3138 3
430 3
2986 2
121 1
717 0
1602 2
523 2
2936 3
2352 3
3156 0
581 0
5 3
2178 3
595 1
2330 2
822 0
1567 4
94 1
3105 0
2751 1
774 2
989 5
1760 4
3081 0
1448 5
3075 4
2956 0
3224 5
1517 1
3202 4
1855 4
128 4
2168 5
1490 5
3180 4
3009 0
3256 5
2295 2
929 0
748 0
2969 4
2914 2
3116 2
1946 4
434 0
347 0
2187 5
2308 5
1445 4
1687 5
2732 5
124 0
1097 2
576 2
1647 5
2123 5
878 2
1343 4
2040 2
2204 2
1284 0
1970 3
1926 0
2748 5
3148 2
1195 4
70 0
2746 4
1917 2
1066 0
708 2
2537 1
2567 2
151 1
587 0
1868 3
997 1
3115 2
287 3
2157 2
3220 2
181 1
2996 2
2170 3
386 0
269 3
843 2
1394 1
1549 1
2842 4
2313 2
2411 1
1070 1
1313 5
2534 4
2798 4
2701 4
2431 0
2288 1
2790 2
1248 2
157 0
2923 2
1090 5
2314 5
809 0
938 3
1351 5
406 5
596 1
184 0
1532 2
2243 4
1299 2
2677 0
2455 1
1972 1
2415 4
2982 1
618 0
2361 4
2787 2
1474 0
2068 5
2400 5
2750 1
2752 5
1793 2
2976 1
1389 2
3196 4
2655 5
2773 5
1496 2
2756 0
1100 0
3208 1
1063 5
798 1
2025 4
1029 4
1300 4
163 2
2477 5
2981 1
1776 1
410 0
1999 4
1169 5
2680 5
620 0
1366 5
2854 4
1971 5
715 1
1031 5
3036 2
3261 1
2087 4
429 5
681 1
2034 2
481 1
2007 5
2058 1
2880 2
2934 2
799 5
2053 4
2273 0
1104 2
413 1
3195 3
2460 2
1900 4
1412 3
180 0
3087 4
1538 4
1312 5
2384 1
1411 3
2375 0
2149 1
2620 5
588 1
2631 5
2582 0
2281 1
2104 4
2307 2
107 1
3047 2
829 5
1096 5
1907 3
1865 4
440 2
338 0
2399 2
3122 0
2962 3
533 1
2812 3
889 5
1730 5
1105 4
1963 5
967 4
2958 3
3240 2
1198 4
265 5
2657 5
1077 5
3205 1
1683 2
686 1
1103 2
1542 2
3204 5
1388 2
1609 2
1987 4
1450 4
494 0
397 4
384 0
2192 0
2669 3
3099 2
901 1
3209 3
1908 2
739 0
1890 2
3037 1
6 0
841 0
1569 2
1315 5
25 5
1269 1
2036 5
83 5
443 1
2987 1
3024 3
869 1
1903 2
2983 2
272 3
2789 4
295 1
371 1
884 5
2662 5
2882 5
1749 1
37 1
3062 3
1570 5
2184 5
786 0
335 1
1035 2
2843 1
2764 5
2933 3
2641 0
315 0
2 0
2062 5
2889 5
3213 2
419 1
1956 5
1111 1
2942 5
252 1
964 3
3129 1
2448 1
1786 3
296 5
233 1
1062 0
1367 5
602 0
1256 4
1452 4
99 0
426 1
2133 5
304 5
53 4
2401 2
306 0
1765 2
2363 5
3210 4
900 1
814 0
7 1
1201 5
411 0
1123 0
2990 4
2145 2
1632 2
3254 2
2771 4
2217 5
1497 4
2394 3
971 0
2717 1
2189 3
1920 2
1527 2
1957 4
80 2
8 3
447 0
1959 5
720 0
2275 4
1878 1
2737 3
1553 5
1359 2
2548 4
504 5
2697 2
3154 2
3108 1
2390 1
1518 5
2066 2
2345 4
1910 4
484 1
2061 1
61 4
222 1
2212 2
279 3
2913 2
2129 0
734 0
2849 1
465 4
3031 5
1822 2
2177 0
2541 3
427 1
456 5
2174 3
485 0
3053 0
2770 4
160 4
281 0
2610 1
1585 4
519 0
1511 1
2218 2
1717 5
2910 1
2973 1
2766 4
631 1
1383 3
1128 1
808 4
751 0
757 0
1091 4
2203 2
1064 2
2605 5
2703 1
2960 1
1885 1
86 2
3182 5
1127 5
1398 2
2800 2
904 1
2514 0
1645 1
2224 2
898 0
2593 0
2404 5
2131 2
547 1
9 4
2806 4
63 3
1435 5
789 1
2403 5
286 0
3120 5
2360 5
1663 1
146 1
979 0
2050 2
1559 5
1867 5
1827 2
2916 2
2088 5
2726 4
2213 2
1710 1
2804 5
505 0
213 0
2026 4
418 1
247 1
2441 5
1748 1
1539 1
377 2
868 4
3227 5
3098 3
553 1
1733 5
582 0
2156 2
301 1
3056 5
3246 5
1395 5
1485 4
1494 2
468 1
190 5
1023 3
1578 4
578 1
743 1
590 1
859 0
935 0
441 1
1873 0
1762 1
3178 4
162 0
132 0
2154 1
1734 5
882 5
2470 5
2303 5
1670 4
726 1
2254 5
2985 2
2772 5
197 0
2643 1
2951 3
656 1
275 1
2086 3
673 0
204 1
2972 0
119 2
3042 4
24 1
401 0
575 3
1784 5
2769 5
1401 2
3029 4
1624 1
646 1
1676 5
2108 5
2649 5
3041 4
2348 1
733 0
1510 3
813 0
1692 5
773 0
697 1
3006 4
1333 1
2079 0
2300 0
2651 1
380 4
2765 1
261 5
2221 0
907 5
1305 4
3060 5
3142 5
59 0
649 0
1599 4
2602 2
2730 2
2809 0
2725 4
2873 0
959 4
1316 5
3158 5
212 1
1975 0
