1786 3
907 5
1946 4
331 1
184 0
440 2
1746 2
3248 0
971 0
868 4
2597 2
2500 4
2196 2
1018 0
2940 4
2607 4
2711 1
3124 1
1963 5
502 1
1707 4
3164 5
1785 2
994 0
734 0
1323 1
2352 3
846 0
751 0
656 1
1801 1
1971 5
1112 1
1206 1
2791 0
386 0
763 2
2201 5
2422 4
3169 5
1308 2
1603 2
1570 5
1423 2
3075 4
1105 4
3255 1
433 0
1864 4
709 1
38 0
1330 4
1428 3
3099 2
2261 3
2468 2
2581 5
1733 5
786 0
565 5
216 3
1312 5
3168 2
1922 4
2182 4
1784 5
1507 1
1729 5
1536 4
2355 4
2244 4
747 1
1085 2
942 4
2325 4
75 0
557 4
2438 2
2237 2
1372 5
138 0
464 4
590 1
3130 2
1165 5
1004 1
3079 1
227 1
2145 2
1702 4
1853 3
59 0
44 0
3178 4
3112 3
1106 2
2960 1
1917 2
1759 2
595 1
3160 2
2281 1
135 0
384 0
3171 5
2167 4
519 0
630 0
2104 4
2885 1
1242 5
773 0
2981 1
2983 2
2773 5
2174 3
2906 5
1007 0
2803 4
1226 1
2990 4
2949 0
247 1
111 0
2060 1
1052 5
81 0
2806 4
434 0
2267 4
1231 1
2852 0
2421 4
1517 1
1146 4
1861 2
1800 4
446 1
2036 5
2710 4
681 1
1590 5
3213 2
1616 2
1334 4
3056 5
420 2
2141 1
1589 1
484 1
808 4
1333 1
2087 4
1244 1
679 4
1498 4
2390 1
1230 0
1371 1
1620 5
580 4
1776 1
2574 1
3060 5
2229 1
211 1
370 2
353 2
2905 5
1860 2
402 0
1484 4
2701 4
758 0
2218 2
438 1
1919 4
1889 1
1016 5
137 0
2842 4
3135 1
1180 4
2763 1
3173 5
51 1
2805 4
1567 4
1760 4
2457 4
615 5
675 2
1728 5
338 0
1611 2
1737 1
2404 5
108 2
973 0
1692 5
411 0
1842 0
3098 3
3129 1
26 2
1957 4
3111 2
1273 4
1351 5
2000 5
1120 5
1482 2
1890 2
1232 4
2567 2
3121 5
2744 1
2815 4
2682 2
1540 2
1151 3
2833 4
1435 5
1407 1
1290 4
3210 4
1832 4
1736 1
2356 5
2453 3
259 0
3159 0
1905 2
287 3
2916 2
2889 5
1209 1
3047 2
894 2
2094 2
2777 0
1035 2
1077 5
1303 4
2669 3
2415 4
1920 2
1981 2
1949 1
1236 1
2273 0
168 4
147 0
2908 2
3204 5
2998 4
2254 5
2649 5
731 0
1683 2
2927 4
2587 4
233 1
3133 4
499 0
1087 2
2427 0
82 1
1432 4
489 5
1554 5
2647 2
1888 2
2341 0
248 4
633 4
1431 4
57 2
2429 2
2455 1
124 0
1982 1
1806 2
3037 1
1576 4
1799 2
2796 4
492 0
1049 5
563 4
1583 1
677 2
197 0
113 3
1516 0
790 0
122 5
2874 1
2066 2
19 0
780 5
1062 0
1192 5
900 1
132 0
1279 1
1411 3
1789 4
2144 1
11 0
2855 4
869 1
2260 2
2972 0
1315 5
2727 4
970 2
1834 5
1674 1
2953 5
2756 0
899 1
2650 1
708 2
3052 4
649 0
1767 0
213 0
2664 5
3036 2
2976 1
1067 2
2400 5
1346 1
1401 2
1451 1
3120 5
1606 5
980 0
927 1
2460 2
487 0
306 0
2641 0
1329 4
274 1
2469 0
2876 0
2326 2
969 2
1361 5
990 1
2712 4
1624 1
1076 0
2349 5
2464 1
1297 4
2243 4
482 1
2787 2
873 0
1059 1
1295 4
2684 2
578 1
1177 2
2631 5
1561 5
54 1
1331 1
2596 0
865 2
2215 5
924 4
553 1
2527 2
2766 4
2657 5
598 0
983 3
208 0
1359 2
2541 3
2 0
180 0
400 0
1748 1
717 0
2270 0
79 1
1959 5
495 0
242 5
2307 2
2538 4
712 1
2575 2
1527 2
2015 2
1362 5
1639 5
533 1
2585 0
1569 2
1638 1
2448 1
1027 2
1292 2
2576 5
989 5
40 0
2149 1
1150 5
801 1
1588 1
2363 5
1224 5
1485 4
622 0
1091 4
158 5
2328 0
2399 2
1663 1
713 4
2375 0
602 0
2934 2
2108 5
1496 2
1219 1
521 1
599 5
261 5
1313 5
878 2
253 1
1023 3
2551 2
1448 5
864 0
2723 4
481 1
3254 2
2434 4
2555 4
1277 4
3006 4
904 1
2890 5
1241 1
2933 3
843 2
1602 2
2969 4
851 4
813 0
1739 5
1599 4
1376 3
2595 0
809 0
1970 3
2942 5
2610 1
1337 4
1434 0
2725 4
1973 4
1988 5
1525 2
2210 0
1912 5
793 4
157 0
2687 4
1272 2
2180 1
2443 4
3034 0
1887 2
2417 0
837 1
2707 2
967 4
2058 1
1397 3
1774 1
1757 1
1299 2
2620 5
733 0
2197 2
3123 0
2578 2
596 1
478 5
564 1
1520 5
252 1
479 0
1710 1
632 1
318 0
898 0
745 1
2811 5
2345 4
1681 2
940 0
2317 1
700 2
230 1
1218 4
1257 3
1666 4
1123 0
1127 5
3195 3
647 0
860 5
3147 1
161 5
1128 1
1549 1
1845 2
2192 0
703 4
296 5
738 5
2160 2
2812 3
1115 5
2262 5
8 3
245 0
1483 5
2914 2
1314 4
121 1
2691 4
1398 2
756 0
406 5
2613 3
3016 0
2625 2
2088 5
1713 5
1535 2
401 0
1831 4
2365 5
73 2
3029 4
2703 1
2996 2
2100 2
2501 2
2440 4
2217 5
818 4
1430 4
1415 4
463 0
2697 2
2140 4
2315 5
3176 2
2970 4
1862 0
1450 4
1730 5
286 0
2882 5
884 5
1386 2
887 3
774 2
1691 2
2300 0
901 1
2121 3
3105 0
3241 5
583 0
2521 1
1202 0
2122 5
1256 4
343 0
3032 4
913 4
764 4
2612 3
1581 5
6 0
979 0
304 5
3240 2
1368 2
1609 2
1096 5
2580 2
959 4
1968 5
1417 0
2753 1
202 0
1494 2
2113 4
2928 2
954 1
1687 5
3202 4
181 1
886 1
2746 4
1910 4
820 0
2109 0
729 0
1994 4
1335 4
619 0
163 2
556 1
1855 4
3139 0
912 1
25 5
3167 5
1573 3
142 4
141 0
3051 4
9 4
2321 0
3095 3
2925 5
2962 3
17 5
2042 4
340 0
1571 4
146 1
178 5
3226 5
594 0
2533 0
727 0
3157 5
616 0
2539 5
1358 4
1958 3
2255 1
236 0
2449 5
984 0
785 0
36 3
2508 5
730 5
172 3
1437 2
2008 5
470 1
244 0
2648 2
1223 1
2413 0
371 1
2492 2
2303 5
323 2
2514 0
1491 2
387 0
500 1
453 0
474 1
605 0
997 1
2213 2
1409 3
363 1
2742 0
1061 4
2594 0
800 5
1626 2
1794 1
2802 1
1542 2
587 0
2221 0
2760 0
2298 2
1830 4
2132 2
2936 3
1868 3
2330 2
2157 2
1389 2
1269 1
1870 5
265 5
1385 0
1598 2
1424 2
2026 4
842 1
1211 4
2431 0
1009 5
2748 5
1205 5
2061 1
2323 4
1282 4
1365 3
410 0
1064 2
1665 4
2458 2
1987 4
2314 5
257 0
2922 2
2252 2
2615 1
1032 5
2726 4
119 2
2085 2
2402 4
1835 4
1113 2
2860 1
2200 5
2499 4
1008 0
1306 2
2804 5
826 1
295 1
2418 0
2509 1
1320 5
3138 3
2133 5
222 1
1615 5
2007 5
3239 5
1321 4
430 3
2441 5
2730 2
2089 1
1637 5
1523 0
416 0
299 4
2665 1
2371 0
3144 1
179 1
3131 2
1225 2
1648 0
2031 0
204 1
1194 1
2359 5
1532 2
1584 1
917 0
520 1
3108 1
1530 3
291 1
3197 5
226 1
1693 5
1479 4
2528 1
881 1
99 0
1129 2
1349 2
2416 5
1090 5
3199 5
2530 4
3156 0
127 2
2907 5
1586 4
2982 1
1305 4
3142 5
2138 1
1339 5
684 1
2219 0
505 0
106 1
1381 3
2310 5
2319 2
3220 2
1762 1
1360 5
614 1
511 2
2633 2
1563 0
1298 4
822 0
2136 3
2809 0
369 4
1926 0
1382 5
1537 4
1939 5
1876 2
832 0
300 2
799 5
1144 5
1378 1
1892 1
1013 2
1948 4
762 0
2754 4
359 0
1848 4
1459 3
2462 1
2150 0
697 1
3208 1
2764 5
1629 2
2143 4
2604 4
1250 2
2910 1
309 1
2736 2
955 0
2660 2
109 0
2986 2
1473 3
2388 5
2384 1
1352 3
3246 5
1867 5
1444 4
2476 5
3180 4
2573 2
2868 2
1103 2
2966 5
1744 1
1596 2
193 1
3027 2
1756 4
1826 1
155 1
1697 2
552 1
2639 4
2692 1
2348 1
1854 2
1104 2
1465 2
12 2
944 1
1072 1
1490 5
1793 2
288 3
972 1
1503 2
576 2
2063 4
496 0
2134 3
1343 4
3206 5
1010 1
352 2
1967 4
1983 2
651 4
2479 3
2515 2
270 0
2050 2
2191 5
2656 0
3055 5
2823 1
1908 2
2312 5
3230 0
534 0
1022 0
2877 2
28 1
2869 1
2543 1
2566 1
348 1
3024 3
2025 4
1873 0
1956 5
879 5
3191 2
2370 1
2456 2
1287 1
628 0
999 2
530 0
1533 2
845 0
541 4
2590 3
1289 4
1972 1
1228 1
2068 5
2923 2
1880 4
872 0
1534 2
7 1
1452 4
1207 2
2084 4
1518 5
3231 2
1176 5
911 5
3089 4
3071 0
1466 4
2123 5
726 1
2086 3
788 0
2646 4
1765 2
1553 5
160 4
2079 0
2318 3
2308 5
1174 1
1531 3
2503 2
2004 2
1179 4
586 2
2360 5
