2076 5
2174 3
1271 5
810 1
3132 4
1215 4
2482 3
986 0
2839 4
1368 2
1650 3
1169 5
793 4
358 4
1126 5
2466 0
2611 1
48 1
565 5
1823 1
2593 0
265 5
1006 1
171 5
271 5
332 0
1390 2
820 0
1227 1
2993 1
750 0
1810 5
3062 3
3102 0
1743 2
2996 2
2127 5
862 0
3059 4
668 1
1954 5
757 0
715 1
2708 2
115 0
2773 5
2483 1
2814 1
789 1
2629 3
1501 4
9 4
545 1
2047 4
835 0
3039 2
2100 2
2962 3
2598 2
337 5
96 5
2966 5
87 3
2332 3
3083 4
3118 5
3136 4
2501 2
583 0
1270 1
1703 2
3219 3
2185 2
3117 1
2627 3
302 1
1422 2
614 1
2701 4
2821 2
2676 2
383 2
2972 0
1062 0
1471 1
2639 4
2621 5
324 2
2324 4
1554 5
799 5
122 5
2213 2
1176 5
2417 0
1451 1
2135 3
1815 1
85 1
2309 4
2146 1
83 5
807 0
660 4
166 1
2746 4
346 0
3161 1
394 3
1201 5
690 0
360 0
717 0
1535 2
2568 3
222 1
2365 5
3185 0
25 5
808 4
1860 2
1380 1
1657 2
1411 3
287 3
1189 2
2376 5
1890 2
2267 4
120 0
318 0
1102 2
1161 5
2743 2
3246 5
2189 3
705 1
2038 2
1291 2
2771 4
1431 4
492 0
1362 5
1124 2
1403 5
1932 2
2597 2
2575 2
638 1
2522 1
468 1
306 0
1181 1
1510 3
1091 4
3119 3
312 0
1916 5
1903 2
110 0
2305 3
1388 2
2957 3
401 0
2059 1
2259 2
701 0
649 0
2808 0
1180 4
2120 1
710 2
2094 2
2704 2
1171 2
2657 5
3153 2
1495 2
507 1
3035 3
1183 4
1092 5
2151 5
178 5
1927 5
1675 2
3125 0
1465 2
273 5
962 0
2052 2
1143 2
1958 3
2241 2
702 4
1238 1
204 1
2218 2
672 0
2876 0
1421 1
2364 0
1022 0
2854 4
1223 1
996 1
2319 2
1693 5
1870 5
2774 3
261 5
1900 4
2209 2
19 0
2465 2
1019 2
527 0
1075 2
2913 2
2294 2
2486 2
359 0
1936 2
1178 3
1971 5
284 5
2833 4
752 5
534 0
3192 2
876 2
1470 2
29 5
1881 0
983 3
3140 4
2346 1
328 3
2754 4
1968 5
1739 5
517 2
3197 5
2356 5
2510 2
391 1
848 0
2115 4
1182 4
1778 1
2745 1
2776 3
2134 3
1185 4
1080 2
1458 4
1360 5
1530 3
320 1
3046 5
1007 0
566 0
823 1
687 5
1463 2
2276 0
2503 2
2283 2
3142 5
1902 2
1799 2
753 1
372 0
2555 4
1219 1
2958 3
2099 2
869 1
1295 4
500 1
2025 4
2884 5
12 2
76 0
626 4
197 0
1975 0
167 2
3016 0
2850 1
964 3
1099 2
801 1
1656 1
1322 4
881 1
1625 5
2088 5
698 1
2658 1
1051 2
2960 1
802 1
1525 2
2579 2
3042 4
1032 5
1177 2
2932 4
1359 2
930 0
1234 3
191 0
1115 5
2475 1
2083 1
2272 3
1035 2
3031 5
2545 2
785 0
1059 1
1386 2
1150 5
1325 0
2175 5
3229 1
2002 4
3226 5
1450 4
1645 1
46 0
2660 2
1165 5
1785 2
763 2
1290 4
3044 5
2184 5
1667 4
809 0
2564 2
2694 2
47 0
2835 5
707 2
735 0
936 0
1224 5
2882 5
304 5
1131 3
2951 3
1616 2
1188 1
216 3
2812 3
3231 2
98 1
1734 5
2824 3
1949 1
102 5
2905 5
2060 1
1277 4
176 0
2361 4
2344 0
37 1
2636 2
2412 4
2424 1
2354 5
621 0
1155 4
2110 1
867 0
654 0
1024 5
1941 1
1333 1
3179 4
2721 4
479 0
833 0
461 1
179 1
847 0
842 1
2841 1
3054 4
2630 2
910 3
333 0
2200 5
1472 2
458 1
2065 1
1749 1
733 0
2129 0
446 1
2674 5
1514 4
951 1
315 0
745 1
1922 4
2519 3
3107 0
90 5
3247 0
255 1
1763 5
2285 5
1041 2
3064 0
1583 1
3206 5
2761 1
1891 1
1377 5
1852 3
1649 5
1606 5
2672 2
3120 5
2915 5
2730 2
1822 2
384 0
1917 2
250 1
357 4
574 1
786 0
1023 3
902 1
959 4
2802 1
1664 1
2143 4
2323 4
2930 4
762 0
662 5
2711 1
875 0
2017 1
1611 2
1564 1
135 0
2162 5
1078 2
1679 4
2288 1
1499 4
737 3
248 4
1455 5
1435 5
2419 5
2448 1
2351 1
2422 4
514 0
104 0
2832 4
2019 5
3184 2
2098 2
2747 4
2682 2
105 1
3165 3
2679 4
375 2
2738 1
2914 2
2792 4
3089 4
1257 3
2798 4
1740 5
3159 0
3209 3
511 2
3138 3
2534 4
196 0
1387 2
2352 3
234 1
3098 3
1358 4
2000 5
1127 5
590 1
2652 4
1930 1
2347 0
536 1
3163 2
2788 2
1690 3
281 0
958 2
1601 2
245 0
2691 4
1301 5
948 0
1736 1
620 0
1692 5
1330 4
2322 2
1152 1
1686 2
228 0
2026 4
1378 1
2147 2
218 1
1321 4
2205 1
3012 2
1855 4
622 0
2929 4
1782 5
692 1
1515 4
2056 4
2869 1
184 0
2410 4
540 0
2286 1
989 5
3122 0
723 1
2735 5
1416 1
2153 1
644 1
1162 1
2775 3
1316 5
1653 5
1999 4
891 0
1086 2
2719 4
2212 2
1119 2
1117 3
137 0
1748 1
395 4
2393 2
2496 4
1209 1
1123 0
1619 2
421 1
1392 1
2768 4
2481 2
380 4
2906 5
758 0
1190 3
1813 4
210 0
2198 5
677 2
2396 4
1504 2
663 1
972 1
1347 5
788 0
1042 3
1477 2
3195 3
2304 1
1701 4
379 5
2739 5
366 0
787 3
679 4
132 0
3162 4
2414 5
748 0
143 0
599 5
2529 4
994 0
2395 4
1436 2
2439 5
2385 1
224 4
2591 0
3152 5
1419 4
2702 3
816 4
151 1
1207 2
2803 4
1097 2
1594 1
18 0
606 1
916 1
866 0
1351 5
952 0
2480 3
1445 4
2628 2
2084 4
2605 5
494 0
2032 4
2082 1
2057 1
2163 5
1602 2
729 0
2086 3
485 0
2046 2
1770 4
1054 5
2234 2
2077 1
1850 1
1437 2
2609 2
300 2
2373 5
1332 1
1103 2
643 2
1793 2
2909 1
2971 1
1620 5
2622 5
1012 5
389 1
2902 2
2986 2
1083 2
3093 2
1338 4
1622 4
503 0
1049 5
2383 1
1797 2
452 0
1814 4
2749 1
1069 5
3232 2
3215 0
2778 1
2538 4
319 0
415 0
1357 5
3096 2
2600 5
2432 1
2968 1
759 0
1929 0
2075 3
2320 2
1669 2
111 0
2255 1
15 1
3194 3
3260 5
2298 2
3135 1
89 0
708 2
639 0
581 0
2290 3
688 0
911 5
2103 4
3026 5
3218 4
1798 5
462 1
795 1
2284 4
556 1
2125 5
1989 5
3254 2
3166 5
1517 1
2782 0
113 3
1948 4
2825 3
327 3
1065 2
1826 1
1768 4
51 1
2131 2
3092 2
91 4
2879 2
3101 1
2201 5
1284 0
2670 0
280 0
2051 2
2536 2
2766 4
3253 1
2118 4
429 5
1661 5
2737 3
449 2
2469 0
2865 5
201 0
136 0
1217 3
2073 5
2908 2
2331 2
941 0
1212 4
75 0
1795 3
3028 2
194 4
2572 2
680 0
1114 2
832 0
55 2
595 1
2232 4
684 1
2381 5
2239 5
1229 4
2145 2
1780 4
1863 5
129 5
1505 2
62 1
158 5
1758 2
800 5
1108 5
1260 4
742 1
1582 1
1493 0
3124 1
1245 2
2843 1
1578 4
336 0
77 5
1011 2
2348 1
2840 1
3187 3
2938 5
524 1
1947 4
2714 5
1208 0
14 2
873 0
1130 2
631 1
243 1
475 1
2251 4
2495 1
1982 1
2723 4
3233 1
1865 4
2614 3
2450 5
4 3
1889 1
1538 4
2864 4
2827 1
2203 2
1030 0
836 3
2515 2
1043 4
1110 4
3023 5
2116 4
1909 4
1817 5
264 1
2359 5
2172 2
1286 2
1427 1
127 2
2907 5
2687 4
1420 4
150 1
879 5
1570 5
1543 2
353 2
1566 2
1268 5
392 0
2826 4
1935 5
778 2
2181 1
1711 5
464 4
270 0
482 1
670 5
1615 5
1859 5
1401 2
2755 4
279 3
1853 3
3222 0
1599 4
1539 1
2121 3
206 4
2035 1
64 0
1141 1
1230 0
2315 5
3224 5
908 1
403 0
209 4
3086 4
1355 3
1666 4
2487 5
1233 2
1172 5
442 2
2692 1
2398 4
3079 1
741 2
187 0
477 0
2155 2
3090 4
3041 4
2666 1
439 1
1874 2
1942 1
1297 4
1842 0
2220 5
2442 1
1912 5
2269 3
2509 1
896 0
2179 0
3000 5
1752 2
3189 1
549 1
3057 4
824 3
3043 4
2713 2
917 0
2413 0
2685 3
1164 1
912 1
2765 1
2617 5
1194 1
1987 4
3018 4
618 0
423 0
628 0
756 0
130 0
1911 4
2406 2
2342 1
1636 5
1400 2
1845 2
2955 2
1105 4
3027 2
2585 0
40 0
181 1
2142 1
970 2
2457 4
508 0
985 1
1010 1
1050 5
1621 5
177 1
2799 2
1258 2
1296 4
617 1
2003 2
2160 2
2380 4
2392 1
579 1
1548 4
1766 0
1831 4
570 1
863 0
2208 2
246 0
2335 0
481 1
3145 1
1767 0
266 1
1659 5
2533 0
417 0
256 1
189 0
1111 1
1343 4
3257 2
726 1
180 0
473 5
0 0
2237 2
1287 1
1806 2
3121 5
1104 2
84 0
2744 1
918 1
2207 2
2287 2
445 5
2261 3
1225 2
153 1
3108 1
2956 0
1827 2
3058 4
1864 4
142 4
1309 5
1756 4
424 0
409 0
1744 1
1088 5
1005 1
2849 1
651 4
453 0
609 0
1819 4
1314 4
1721 2
2297 2
2113 4
2221 0
1432 4
2817 5
2734 1
1835 4
1549 1
1705 4
1020 1
2847 2
3078 1
2149 1
815 0
363 1
2242 2
1154 5
2887 0
1500 3
1764 5
2371 0
66 1
2931 1
3084 5
1247 2
2810 5
152 1
956 1
925 4
499 0
2970 4
2787 2
940 0
2474 5
1901 1
2444 3
1459 3
2279 2
1760 4
1231 1
2186 5
721 3
1871 4
3008 0
2697 2
2517 2
1077 5
2544 3
1626 2
927 1
1175 4
2926 4
2900 2
3128 2
1502 2
2459 5
1482 2
2391 2
2204 2
112 2
1791 1
716 0
3147 1
580 4
1140 5
1265 2
1895 4
3069 3
2759 2
497 5
1998 4
496 0
682 1
2091 4
2389 4
1389 2
1551 2
173 0
1887 2
39 0
1346 1
547 1
913 4
3263 5
2858 2
696 1
1753 3
2388 5
1886 3
483 0
2532 4
1682 5
2128 2
3006 4
1236 1
1745 4
1076 0
571 1
1221 4
2553 1
2952 2
1254 1
1468 1
240 0
3111 2
1962 1
1095 2
2192 0
2 0
1139 2
2998 4
2662 5
1274 5
2922 2
192 0
2560 5
2574 1
24 1
52 0
1433 4
2587 4
691 5
396 4
242 5
2270 0
1956 5
478 5
3256 5
1658 1
2644 5
1742 3
1481 4
2278 0
2964 4
630 0
1473 3
1239 2
2006 3
441 1
541 4
544 0
1026 2
1186 5
3190 2
416 0
277 5
1589 1
2740 5
2837 1
2400 5
3234 0
2291 5
1644 4
413 1
1146 4
642 3
1409 3
207 0
33 0
2791 0
2953 5
2561 2
681 1
2005 0
3126 2
307 2
3051 4
1348 1
2074 5
2343 2
343 0
1281 1
1410 0
2271 2
1558 2
3005 2
1 1
99 0
162 0
2363 5
1776 1
156 1
2852 0
1484 4
3082 5
623 0
3030 5
2196 2
2072 4
414 4
1678 2
2861 3
293 3
695 1
854 3
298 1
1461 1
2461 3
241 0
1878 1
1631 1
2302 2
73 2
213 0
200 3
1197 2
858 0
2550 1
1533 2
886 1
1560 3
2505 3
125 3
804 0
657 0
1677 5
381 1
2408 4
2944 4
1241 1
2615 1
625 3
3164 5
101 0
1395 5
974 1
2897 4
2973 1
2472 2
2507 1
1761 4
1807 2
1166 1
2949 0
2238 3
195 0
2894 3
1888 2
1218 4
667 1
3100 2
2117 2
784 0
2443 4
877 0
2731 2
2451 0
1187 2
1009 5
2566 1
334 1
2769 5
1873 0
2526 3
3157 5
1747 2
59 0
1373 5
2449 5
1302 1
2732 5
28 1
2720 2
632 1
559 5
2108 5
773 0
2910 1
1716 2
3193 0
3099 2
2369 1
295 1
2206 5
283 5
1712 5
1518 5
2078 0
2819 0
811 5
367 0
493 0
1061 4
1396 5
2518 2
1931 1
1996 4
2610 1
3208 1
2978 5
2934 2
2295 2
838 0
2997 4
693 4
