2687 4
1616 2
1795 3
998 1
1280 1
2474 5
1941 1
2879 2
1965 5
223 1
710 2
2251 4
1127 5
3042 4
910 3
581 0
1152 1
3099 2
625 3
1188 1
2352 3
2761 1
220 1
2993 1
2472 2
3084 5
941 0
2821 2
1295 4
130 0
168 4
2501 2
1103 2
503 0
2131 2
1999 4
956 1
1011 2
539 1
2469 0
395 4
3076 4
2413 0
2699 5
2242 2
2002 4
1171 2
283 5
96 5
3184 2
1024 5
2564 2
3111 2
2518 2
556 1
2944 4
3079 1
1626 2
1230 0
1649 5
2689 0
639 0
1207 2
452 0
605 0
481 1
2000 5
1770 4
809 0
787 3
1009 5
174 5
626 4
1150 5
504 5
1166 1
2088 5
2302 2
40 0
892 2
424 0
3193 0
2617 5
882 5
3165 3
180 0
1694 4
485 0
696 1
3147 1
1484 4
2541 3
2017 1
2579 2
1610 2
279 3
2491 2
2611 1
836 3
832 0
1095 2
1975 0
2768 4
2396 4
2849 1
255 1
1132 2
1504 2
2892 5
1712 5
1791 1
3208 1
462 1
315 0
2094 2
1701 4
1373 5
1760 4
1030 0
334 1
2398 4
3153 2
1678 2
3032 4
1065 2
1162 1
1852 3
2738 1
858 0
1427 1
417 0
2799 2
866 0
1123 0
429 5
1744 1
816 4
804 0
110 0
2186 5
3102 0
2084 4
0 0
3031 5
750 0
2814 1
780 5
2146 1
2896 5
2465 2
1061 4
1239 2
948 0
2598 2
453 0
3179 4
613 3
1519 5
2347 0
101 0
1221 4
2510 2
240 0
752 5
2262 5
2697 2
2791 0
3039 2
68 2
3092 2
3161 1
1756 4
2073 5
1010 1
2273 0
2129 0
803 1
2497 3
757 0
2734 1
2931 1
1169 5
2005 0
1212 4
1419 4
1445 4
2261 3
649 0
333 0
2322 2
2343 2
2375 0
1301 5
2003 2
1322 4
1682 5
1099 2
2876 0
1470 2
1358 4
2826 4
1751 4
3152 5
1257 3
726 1
1690 3
195 0
2429 2
1612 2
2862 4
1161 5
302 1
2782 0
3219 3
1197 2
1131 3
427 1
2621 5
1873 0
531 5
2120 1
206 4
1736 1
1110 4
990 1
2174 3
1860 2
288 3
789 1
2771 4
506 1
753 1
1105 4
1377 5
1935 5
2297 2
2083 1
210 0
469 1
1416 1
663 1
1948 4
2200 5
2519 3
158 5
287 3
2295 2
2961 2
143 0
3197 5
1185 4
2908 2
293 3
1929 0
47 0
1583 1
2720 2
2057 1
3000 5
413 1
2544 3
3142 5
847 0
1450 4
1435 5
1947 4
854 3
2970 4
632 1
2411 1
2334 4
120 0
1337 4
1143 2
1336 1
412 4
2007 5
1272 2
2798 4
132 0
231 1
1650 3
2480 3
1154 5
1437 2
3118 5
2091 4
2905 5
2570 5
2087 4
1288 4
2443 4
2346 1
547 1
2813 5
1763 5
2406 2
1989 5
1988 5
48 1
276 0
1692 5
1140 5
667 1
1495 2
2852 0
1842 0
859 0
2953 5
363 1
1782 5
2496 4
1141 1
1733 5
2213 2
1357 5
1752 2
1560 3
1035 2
2128 2
1548 4
2189 3
3028 2
379 5
1003 1
2587 4
2721 4
585 0
1114 2
496 0
2861 3
1739 5
1827 2
1409 3
2962 3
2922 2
1360 5
3141 1
622 0
3016 0
2397 4
1889 1
2746 4
1157 3
360 0
912 1
339 0
1194 1
1888 2
1253 2
2505 3
545 1
1798 5
2932 4
1023 3
544 0
536 1
3192 2
213 0
3117 1
867 0
564 1
2523 0
402 0
2532 4
786 0
3226 5
83 5
1625 5
2635 2
22 1
1570 5
3064 0
2884 5
2160 2
2739 5
1960 2
2795 4
2487 5
644 1
294 1
695 1
102 5
3122 0
958 2
430 3
2612 3
1917 2
2938 5
1281 1
1260 4
2032 4
1734 5
2506 1
2392 1
2021 3
474 1
201 0
499 0
1130 2
224 4
2153 1
1661 5
2304 1
2732 5
2792 4
2674 5
546 0
1655 2
2056 4
2281 1
2641 0
2759 2
1247 2
2776 3
2151 5
1325 0
590 1
2840 1
670 5
1747 2
1218 4
2279 2
668 1
76 0
2269 3
162 0
1241 1
189 0
2568 3
2555 4
2108 5
1215 4
1936 2
2249 4
1433 4
1032 5
2459 5
2850 1
2076 5
542 3
911 5
398 0
197 0
1768 4
2220 5
1716 2
1815 1
1178 3
2335 0
2737 3
2747 4
1515 4
936 0
1316 5
688 0
2730 2
2903 2
2869 1
234 1
2086 3
2740 5
2369 1
1528 2
3051 4
687 5
148 2
2424 1
1749 1
2077 1
759 0
2754 4
657 0
136 0
716 0
1500 3
2460 2
1864 4
571 1
1844 1
312 0
2175 5
1111 1
2733 5
1859 5
1835 4
2509 1
3132 4
2221 0
2680 5
1501 4
217 5
676 0
1459 3
2679 4
2835 5
2280 4
3260 5
1401 2
271 5
274 1
2376 5
243 1
3238 3
2203 2
1091 4
1810 5
1180 4
2113 4
2900 2
1258 2
461 1
1117 3
1436 2
1007 0
403 0
3027 2
1006 1
651 4
2615 1
1249 4
1020 1
2041 4
580 4
2731 2
2444 3
1355 3
375 2
2097 2
2105 4
570 1
2517 2
2209 2
795 1
2461 3
996 1
1343 4
2294 2
209 4
2380 4
2508 5
1530 3
606 1
1236 1
117 1
442 2
2765 1
873 0
1172 5
2691 4
2652 4
3041 4
1089 0
3185 0
1954 5
879 5
2483 1
2046 2
3008 0
196 0
2145 2
876 2
1472 2
2466 0
3206 5
1421 1
624 2
1817 5
3229 1
2906 5
1219 1
1714 1
3057 4
3083 4
610 0
2833 4
166 1
783 0
1330 4
2827 1
1949 1
2985 2
1183 4
925 4
3253 1
2309 4
1238 1
1077 5
2913 2
2116 4
1909 4
2127 5
311 0
3096 2
3101 1
763 2
719 0
1636 5
421 1
693 4
1686 2
801 1
2179 0
972 1
2218 2
473 5
2956 0
2066 2
1320 5
1182 4
3107 0
1932 2
614 1
1876 2
3093 2
1420 4
2711 1
3256 5
2997 4
2391 2
2755 4
2714 5
3021 3
2051 2
129 5
1050 5
1473 3
1822 2
479 0
1503 2
2271 2
877 0
241 0
1229 4
1801 1
1078 2
2514 0
3128 2
3012 2
347 0
1165 5
98 1
2395 4
623 0
1670 4
2198 5
2065 1
3023 5
1543 2
799 5
2448 1
3257 2
2627 3
1499 4
391 1
1390 2
1566 2
177 1
304 5
1008 0
2666 1
2756 0
702 4
748 0
2210 0
2925 5
59 0
2636 2
1577 5
1993 4
1224 5
1611 2
458 1
1830 4
51 1
1041 2
3044 5
2286 1
1640 1
1645 1
1742 3
2451 0
2403 5
3125 0
1968 5
2968 1
2163 5
1359 2
497 5
540 0
2843 1
951 1
2808 0
1410 0
807 0
2692 1
798 1
295 1
266 1
1761 4
2986 2
1378 1
2788 2
1679 4
2500 4
1912 5
1930 1
3263 5
1931 1
505 0
660 4
3089 4
3164 5
2184 5
336 0
1102 2
2047 4
105 1
1871 4
568 0
1465 2
2893 3
1840 4
1205 5
2371 0
1540 2
944 1
922 5
579 1
1213 0
1745 4
1083 2
683 1
1302 1
1126 5
2283 2
2162 5
680 0
2750 1
3126 2
2713 2
2629 3
1155 4
2412 4
741 2
2001 4
77 5
1490 5
277 5
2134 3
3196 4
1793 2
2196 2
595 1
2819 0
886 1
1455 5
85 1
1666 4
2572 2
1226 1
2481 2
2952 2
2724 4
2244 4
2475 1
470 1
1916 5
919 1
827 1
2298 2
2410 4
179 1
2486 2
1079 5
2052 2
248 4
1432 4
3082 5
1 1
2583 0
281 0
970 2
2287 2
291 1
1703 2
1746 2
2812 3
2585 0
476 1
1823 1
717 0
477 0
2665 1
1574 4
1223 1
416 0
1944 1
1569 2
3190 2
1022 0
2025 4
2533 0
1396 5
84 0
2344 0
3043 4
1721 2
2682 2
1902 2
926 0
2205 1
2255 1
1659 5
959 4
394 3
1615 5
2173 1
566 0
2957 3
681 1
167 2
522 1
2422 4
1776 1
2600 5
2364 0
1208 0
765 0
2622 5
3202 4
1878 1
2920 2
773 0
2373 5
265 5
2207 2
409 0
821 5
1538 4
475 1
1005 1
1891 1
1510 3
1481 4
1590 5
1284 0
2668 2
1748 1
1887 2
940 0
638 1
25 5
273 5
99 0
2915 5
3002 3
2118 4
1797 2
1075 2
2550 1
2074 5
3222 0
1324 5
135 0
758 0
2270 0
2803 4
3157 5
318 0
635 2
1468 1
37 1
654 0
869 1
440 2
2864 4
2185 2
389 1
1086 2
1578 4
679 4
126 1
1589 1
2039 2
2909 1
1976 0
2038 2
2723 4
2479 3
437 1
3136 4
1753 3
280 0
1104 2
414 4
2319 2
2515 2
2427 0
1535 2
2035 1
218 1
2704 2
2630 2
1731 5
1585 4
264 1
2817 5
891 0
250 1
1653 5
902 1
3054 4
2605 5
328 3
2082 1
1958 3
707 2
1403 5
2663 5
1728 5
2059 1
1684 2
1705 4
793 4
2839 4
3058 4
2824 3
176 0
2234 2
14 2
2353 5
1575 2
3095 3
2351 1
559 5
228 0
2360 5
380 4
1245 2
439 1
1819 4
2887 0
1657 2
1080 2
534 0
918 1
2609 2
1923 2
1395 5
982 0
33 0
2769 5
2865 5
3018 4
1368 2
3233 1
1231 1
762 0
289 3
621 0
2201 5
1865 4
981 0
410 0
1043 4
367 0
2006 3
745 1
415 0
2743 2
9 4
46 0
4 3
1338 4
2867 2
1389 2
1743 2
2278 0
204 1
2495 1
2026 4
2181 1
2655 5
154 1
2801 2
3189 1
3086 4
2263 5
1296 4
913 4
390 1
1606 5
2099 2
207 0
3254 2
2591 0
1850 1
2503 2
2432 1
183 1
319 0
1853 3
358 4
1119 2
989 5
735 0
802 1
1644 4
917 0
1493 0
2390 1
603 0
1858 2
549 1
2949 0
2527 2
1326 5
3100 2
692 1
1513 1
963 0
2534 4
533 1
690 0
1505 2
346 0
3081 0
2960 1
2354 5
2439 5
3215 0
1287 1
701 0
630 0
2 0
306 0
3108 1
2121 3
343 0
1956 5
2998 4
822 0
2978 5
2744 1
1234 3
1836 0
691 5
2290 3
1696 5
23 2
2192 0
2914 2
2787 2
2232 4
1806 2
2442 1
647 0
2578 2
2702 3
1900 4
2080 5
677 2
1124 2
24 1
446 1
617 1
643 2
184 0
1329 4
2973 1
2623 0
844 0
3203 5
3005 2
2300 0
2417 0
2774 3
173 0
1190 3
2525 3
2072 4
1084 0
1942 1
1266 5
2902 2
200 3
194 4
578 1
3119 3
187 0
3166 5
55 2
848 0
3135 1
908 1
1339 5
3078 1
1309 5
1814 4
1533 2
399 0
142 4
964 3
1925 2
930 0
1464 1
115 0
1482 2
974 1
155 1
2226 5
2701 4
181 1
1092 5
2561 2
2212 2
3246 5
1217 3
900 1
1767 0
2581 5
2313 2
1780 4
1961 5
712 1
156 1
2078 0
723 1
337 5
1097 2
811 5
1601 2
1062 0
778 2
2778 1
983 3
3035 3
1225 2
1271 5
2749 1
3069 3
1340 0
2208 2
1831 4
3162 4
2775 3
2955 2
1000 0
246 0
2206 5
684 1
1189 2
810 1
508 0
359 0
1863 5
2971 1
39 0
192 0
742 1
1265 2
2425 0
721 3
2142 1
672 0
1895 4
527 0
1321 4
2610 1
838 0
2320 2
242 5
1290 4
2657 5
2854 4
609 0
928 0
2785 0
1539 1
1233 2
441 1
2408 4
1467 4
2735 5
1559 5
2441 5
2172 2
2100 2
1362 5
658 0
307 2
1602 2
2445 1
2155 2
1181 1
2361 4
327 3
111 0
191 0
2781 1
3218 4
2143 4
3145 1
1019 2
3098 3
75 0
1081 0
178 5
2538 4
1982 1
1364 5
150 1
1252 2
2284 4
1458 4
2842 4
492 0
2745 1
1088 5
1922 4
2291 5
808 4
2237 2
784 0
2522 1
3159 0
127 2
1979 2
2276 0
7 1
1971 5
541 4
1807 2
874 1
113 3
1049 5
863 0
2643 1
483 0
1855 4
1012 5
1177 2
2995 3
2894 3
1034 1
2489 5
456 5
1656 1
353 2
713 4
1351 5
494 0
896 0
1785 2
445 5
3140 4
3090 4
1462 4
1270 1
2058 1
2288 1
3204 5
112 2
1911 4
1051 2
2804 5
2381 5
2841 1
1064 2
1901 1
881 1
1813 4
270 0
3006 4
384 0
2110 1
2560 5
1054 5
1209 1
883 0
1621 5
1387 2
1139 2
137 0
2837 1
1554 5
1517 1
1592 5
788 0
733 0
2966 5
161 5
650 3
1431 4
2285 5
2482 3
238 0
1502 2
842 1
1367 5
366 0
1564 1
2773 5
835 0
1664 1
511 2
1766 0
1411 3
171 5
2019 5
1619 2
3030 5
524 1
2574 1
507 1
1620 5
3231 2
2825 3
1693 5
2685 3
316 1
3224 5
1451 1
2315 5
737 3
1675 2
324 2
2644 5
284 5
2880 2
2832 4
1514 4
2389 4
1870 5
3046 5
2075 3
642 3
2259 2
1487 4
1996 4
2910 1
1392 1
2897 4
2964 4
153 1
2929 4
152 1
1631 1
954 1
1297 4
2628 2
3195 3
1422 2
1669 2
500 1
2359 5
986 0
785 0
3232 2
62 1
1845 2
2161 2
2103 4
1549 1
2239 5
2419 5
1069 5
2658 1
1254 1
2566 1
90 5
460 2
2597 2
2122 5
1594 1
1201 5
73 2
1582 1
1677 5
1146 4
1306 2
468 1
2553 1
509 1
2332 3
1927 5
2117 2
1173 2
64 0
1551 2
3129 1
372 0
1153 5
245 0
2272 3
2660 2
2204 2
3049 5
2383 1
2457 4
2414 5
2926 4
686 1
1764 5
631 1
2115 4
2575 2
3230 0
2450 5
3059 4
1826 1
253 1
2676 2
2385 1
1725 3
2493 5
862 0
2339 2
2670 0
1346 1
574 1
1477 2
222 1
1227 1
2810 5
2951 3
2672 2
620 0
392 0
2526 3
3121 5
800 5
815 0
991 5
1277 4
777 1
478 5
466 0
2907 5
1274 5
1333 1
2719 4
1599 4
1179 4
2404 5
962 0
994 0
823 1
1059 1
551 5
2882 5
3169 5
2614 3
2593 0
2858 2
2529 4
2545 2
423 0
514 0
261 5
1380 1
2596 0
357 4
1518 5
833 0
109 0
125 3
