2737 3
2692 1
941 0
1051 2
265 5
2621 5
752 5
1636 5
2596 0
1650 3
1871 4
52 0
807 0
1693 5
2203 2
3021 3
2920 2
625 3
1146 4
1400 2
1900 4
2218 2
677 2
1858 2
2400 5
2731 2
590 1
1569 2
936 0
336 0
756 0
2813 5
1455 5
759 0
1748 1
173 0
2787 2
1360 5
963 0
1622 4
1886 3
1054 5
1734 5
2506 1
3100 2
2652 4
2091 4
721 3
524 1
2160 2
184 0
1656 1
2163 5
820 0
686 1
508 0
1566 2
1197 2
1467 4
531 5
2672 2
1758 2
1942 1
2094 2
3204 5
115 0
3253 1
2985 2
546 0
2332 3
2598 2
1201 5
1539 1
2840 1
1245 2
337 5
228 0
2232 4
2344 0
2151 5
248 4
2897 4
311 0
442 2
2723 4
3051 4
1288 4
1020 1
1321 4
1079 5
2279 2
363 1
1559 5
1115 5
1533 2
1347 5
886 1
1333 1
1346 1
458 1
565 5
1226 1
2261 3
2365 5
287 3
1010 1
2219 0
2938 5
2315 5
574 1
1231 1
223 1
757 0
835 0
1749 1
174 5
2714 5
2056 4
1881 0
2909 1
2623 0
2127 5
307 2
2465 2
2534 4
954 1
527 0
2161 2
1890 2
2720 2
2201 5
710 2
998 1
2128 2
2356 5
990 1
2500 4
204 1
2660 2
3129 1
883 0
2893 3
3041 4
2759 2
2113 4
1669 2
3023 5
238 0
129 5
858 0
1878 1
453 0
1989 5
1114 2
2463 5
2835 5
1599 4
3202 4
3166 5
1364 5
2533 0
3030 5
1212 4
