2444 3
1364 5
2898 4
2831 4
833 0
1475 2
379 5
2267 4
2601 2
2527 2
2100 2
1337 4
2518 2
2886 5
2098 2
1151 3
1746 2
173 0
2498 3
1367 5
553 1
1992 1
728 0
3183 5
343 0
3098 3
404 0
200 3
2638 1
1516 0
1116 2
152 1
1426 5
2213 2
411 0
2710 4
1879 2
2567 2
57 2
2184 5
1706 5
2504 2
1849 5
55 2
2466 0
2656 0
1644 4
664 0
1435 5
2406 2
3072 1
2756 0
2762 5
2506 1
2852 0
2775 3
1032 5
2268 2
1966 5
1542 2
1371 1
1514 4
1161 5
419 1
1253 2
393 0
2283 2
2682 2
2866 2
2085 2
3199 5
2082 1
3027 2
753 1
961 5
165 0
230 1
802 1
1279 1
264 1
805 0
3078 1
3210 4
2993 1
1565 5
2364 0
2747 4
2013 5
406 5
1773 4
467 1
2642 5
2986 2
2304 1
1865 4
399 0
816 4
508 0
1756 4
211 1
1833 4
470 1
392 0
3230 0
3080 4
383 2
1607 2
1172 5
1694 4
3041 4
1376 3
873 0
2313 2
2176 2
1586 4
2904 2
498 0
719 0
2489 5
2876 0
3179 4
2416 5
1526 4
894 2
317 1
1136 5
2021 3
111 0
2255 1
1790 5
2357 2
1905 2
1476 2
2153 1
29 5
46 0
1077 5
919 1
2333 4
971 0
297 3
1064 2
1183 4
224 4
3044 5
631 1
2342 1
3127 1
3107 0
1315 5
1383 3
175 1
202 0
3137 2
1719 2
1069 5
3106 0
1397 3
1173 2
346 0
83 5
2117 2
2122 5
3070 3
2724 4
731 0
563 4
1799 2
1836 0
274 1
2432 1
855 4
2516 2
3074 3
2395 4
2047 4
1272 2
2163 5
1403 5
3132 4
511 2
1517 1
1046 2
2763 1
30 5
1248 2
3089 4
3228 3
1541 2
759 0
1000 0
2548 4
3212 4
2409 4
545 1
1815 1
1001 0
875 0
1213 0
71 0
3105 0
1720 1
2319 2
2156 2
1481 4
2829 4
226 1
190 5
652 0
1880 4
2482 3
1275 5
2645 1
1062 0
1859 5
1304 2
3025 3
796 5
2077 1
2533 0
27 0
3047 2
1441 2
2508 5
135 0
2248 1
2616 5
2103 4
744 1
133 3
1280 1
374 2
2146 1
3191 2
1165 5
2375 0
2435 1
2114 4
2016 4
709 1
2792 4
1980 2
2071 2
1227 1
837 1
242 5
3064 0
2511 2
830 5
2897 4
128 4
1939 5
266 1
1845 2
426 1
1042 3
494 0
397 4
2003 2
2199 0
1461 1
1544 5
412 4
2445 1
2558 2
1107 5
1158 2
3154 2
2940 4
801 1
162 0
1989 5
1603 2
2064 4
2565 2
1201 5
2137 4
37 1
1430 4
2104 4
2069 5
2577 5
514 0
687 5
3094 4
2930 4
776 0
1789 4
1853 3
11 0
1378 1
2249 4
2012 5
3156 0
1554 5
1985 3
2290 3
1295 4
864 0
3195 3
2209 2
1573 3
2105 4
1090 5
2060 1
1123 0
2182 4
3010 2
22 1
2392 1
127 2
1615 5
93 1
3038 2
65 1
951 1
3079 1
2141 1
1688 3
2561 2
2186 5
1592 5
1306 2
229 0
741 2
786 0
1468 1
1831 4
610 0
658 0
2080 5
2753 1
1724 5
2532 4
1700 4
835 0
2520 0
1843 0
2475 1
2027 2
2618 3
3000 5
1014 2
2385 1
2702 3
154 1
2160 2
1528 2
1321 4
1330 4
1261 1
1639 5
1722 5
2758 5
1899 5
2821 2
852 0
3217 2
2035 1
1266 5
1764 5
87 3
2772 5
62 1
2178 3
1503 2
34 1
362 1
3008 0
2593 0
125 3
876 2
2760 0
465 4
768 5
2626 2
3126 2
1335 4
3221 2
1770 4
682 1
495 0
1218 4
1689 2
702 4
3056 5
605 0
1780 4
2773 5
558 1
597 1
1317 2
581 0
455 1
640 0
2194 2
2452 5
235 1
1957 4
405 1
2830 2
2552 4
1447 2
1784 5
1937 4
259 0
1359 2
481 1
1409 3
2490 1
506 1
117 1
1243 2
2377 4
2679 4
2293 2
906 4
492 0
1604 2
2967 1
2857 1
1634 3
1106 2
2314 5
449 2
2749 1
1535 2
1501 4
1006 1
820 0
2994 1
2938 5
198 0
288 3
2858 2
648 0
656 1
1489 5
3216 2
1132 2
1758 2
2971 1
2700 2
149 2
1497 4
1455 5
31 5
2978 5
1025 5
3177 1
1822 2
2136 3
438 1
59 0
2353 5
2519 3
1823 1
2549 1
1063 5
2058 1
3033 5
1596 2
282 3
2771 4
1697 2
2840 1
916 1
639 0
2562 2
3262 2
2703 1
715 1
2872 2
856 4
2686 2
2596 0
1373 5
2935 2
1524 2
938 3
1186 5
3121 5
824 3
1418 4
3110 0
14 2
1080 2
2174 3
2221 0
352 2
2964 4
2383 1
2437 0
2668 2
2273 0
3194 3
3243 0
1584 1
1904 2
3050 5
2541 3
3097 2
1346 1
1 1
257 0
407 1
1911 4
2807 4
2992 0
2598 2
583 0
1978 5
2330 2
2297 2
716 0
2544 3
199 1
2279 2
676 0
1329 4
619 0
1387 2
3143 5
2272 3
657 0
150 1
1398 2
2440 4
1108 5
524 1
1129 2
2447 0
2443 4
713 4
2028 1
942 4
591 0
3182 5
2225 2
2863 0
2043 4
807 0
164 0
1954 5
1024 5
1616 2
1442 2
751 0
2665 1
3093 2
867 0
3130 2
2744 1
2982 1
1976 0
2264 2
2725 4
957 0
35 0
2472 2
389 1
958 2
668 1
773 0
2424 1
1519 5
1915 4
636 2
735 0
975 1
517 2
2805 4
1917 2
2970 4
213 0
1948 4
616 0
536 1
1893 1
1556 3
729 0
954 1
2991 4
1850 1
2605 5
1209 1
2138 1
2049 4
1590 5
398 0
2165 5
2509 1
725 1
1927 5
429 5
1913 5
2496 4
2887 0
2717 1
2586 2
1452 4
803 1
1464 1
968 0
167 2
845 0
3011 2
309 1
1242 5
2767 3
2451 0
3119 3
963 0
337 5
105 1
2402 4
734 0
3198 5
1705 4
1178 3
201 0
2939 1
2061 1
388 0
2020 5
1011 2
758 0
1738 5
1974 3
995 5
132 0
2611 1
2966 5
227 1
2503 2
3018 4
363 1
2453 3
2681 2
2981 1
1422 2
115 0
1012 5
829 5
2040 2
2338 0
184 0
269 3
354 1
348 1
1854 2
8 3
2486 2
2001 4
3145 1
2018 4
1907 3
2057 1
1096 5
1895 4
1728 5
2737 3
118 0
690 0
650 3
1934 5
3125 0
592 0
2965 4
1601 2
3135 1
2846 2
1187 2
647 0
1074 0
2365 5
2711 1
1804 5
1412 3
2422 4
2167 4
1997 4
2151 5
2298 2
1654 5
727 0
1323 1
886 1
189 0
576 2
1701 4
2161 2
2929 4
840 1
2802 1
2456 2
347 0
3019 3
1598 2
3116 2
1043 4
1571 4
1355 3
3213 2
192 0
171 5
1204 1
228 0
325 2
1552 2
680 0
570 1
1134 5
1388 2
599 5
3251 2
2934 2
2201 5
2386 4
1239 2
1049 5
926 0
575 3
2393 2
2311 2
745 1
463 0
2301 5
2788 2
403 0
1114 2
1241 1
217 5
3052 4
2550 1
2373 5
600 1
295 1
931 0
1045 2
2502 1
2732 5
2845 1
2589 2
1626 2
461 1
2289 5
286 0
2226 5
1645 1
2023 5
1180 4
1492 5
1562 0
332 0
223 1
396 4
1361 5
3147 1
2730 2
386 0
2483 1
2007 5
749 0
2110 1
2265 5
1860 2
2470 5
1299 2
832 0
207 0
1786 3
153 1
1245 2
40 0
1365 3
1625 5
1031 5
350 0
1340 0
1608 4
1578 4
1269 1
474 1
3032 4
3176 2
1887 2
459 1
509 1
3118 5
3006 4
1650 3
1283 2
324 2
2242 2
980 0
774 2
528 0
3004 4
2691 4
946 3
3102 0
1500 3
828 2
2164 5
2370 1
1648 0
140 0
1776 1
2824 3
1427 1
489 5
2583 0
2335 0
109 0
2958 3
