2763 1
1169 5
2540 2
2706 4
1218 4
880 1
2439 5
411 0
2510 2
1609 2
571 1
1477 2
3066 5
2184 5
1328 1
3061 0
371 1
708 2
94 1
360 0
1403 5
1388 2
1740 5
1309 5
718 0
3012 2
2368 0
2392 1
1097 2
2812 3
2838 0
930 0
1039 2
293 3
2937 2
1308 2
2695 3
186 0
2873 0
809 0
187 0
134 4
211 1
1965 5
2046 2
2955 2
3256 5
1414 2
2623 0
2674 5
960 0
1767 0
1395 5
1009 5
1084 0
2444 3
2939 1
3169 5
85 1
1468 1
424 0
881 1
2665 1
2759 2
1397 3
2654 5
629 0
762 0
3189 1
1445 4
3150 5
736 1
2373 5
1658 1
2863 0
197 0
1050 5
3086 4
660 4
3233 1
2148 5
1186 5
499 0
696 1
1598 2
198 0
1130 2
2905 5
1731 5
2237 2
2579 2
751 0
124 0
671 1
2325 4
236 0
2836 5
2196 2
2770 4
1319 1
2846 2
941 0
886 1
2530 4
740 1
2045 4
1564 1
2592 0
227 1
1061 4
54 1
2451 0
2264 2
2703 1
631 1
936 0
2359 5
1466 4
4 3
2777 0
579 1
2532 4
379 5
2739 5
2877 2
889 5
2656 0
1115 5
721 3
2821 2
1955 5
1258 2
3243 0
817 1
2277 5
654 0
2576 5
1583 1
1248 2
382 2
845 0
2289 5
2025 4
1548 4
2980 2
1507 1
1155 4
2363 5
2685 3
2396 4
2852 0
2223 2
3146 2
2466 0
1487 4
294 1
212 1
151 1
2340 3
1522 1
2851 4
1947 4
49 0
1732 5
1517 1
2191 5
248 4
2006 3
2829 4
1274 5
1516 0
1761 4
2450 5
1670 4
853 0
962 0
2285 5
3019 3
2151 5
1940 5
1550 4
1290 4
474 1
2336 2
2236 5
3079 1
2104 4
2048 4
2337 2
2749 1
2640 2
1890 2
605 0
733 0
949 0
2401 2
2459 5
2425 0
1436 2
642 3
2607 4
125 3
3104 0
2516 2
2651 1
510 0
2093 2
2653 2
2344 0
2760 0
1555 3
1208 0
1554 5
1692 5
2446 1
1486 3
937 0
2933 3
501 1
255 1
2222 3
2307 2
1005 1
2457 4
1645 1
789 1
2262 5
1137 5
1704 4
2802 1
171 5
1544 5
3074 3
752 5
1136 5
2612 3
875 0
2169 5
2925 5
989 5
1359 2
2231 1
1699 4
2037 1
2927 4
1203 2
355 1
1771 2
874 1
414 4
1070 1
1003 1
2735 5
957 0
2715 1
381 1
2709 1
3188 5
2795 4
1709 4
1085 2
1316 5
623 0
1350 3
2617 5
1775 5
2152 5
2228 0
114 0
698 1
2100 2
3202 4
516 1
1585 4
2017 1
1384 1
507 1
2190 3
3030 5
500 1
287 3
984 0
2060 1
1238 1
2080 5
3223 5
1952 2
797 1
3153 2
597 1
2748 5
772 2
3116 2
2930 4
3008 0
1420 4
1687 5
2454 4
1750 3
3245 2
1310 1
2003 2
412 4
2293 2
1807 2
2634 2
3055 5
1541 2
1591 5
1394 1
658 0
1928 0
2738 1
570 1
234 1
1455 5
2353 5
2780 3
3031 5
273 5
289 3
1596 2
1321 4
1711 5
612 3
1936 2
1370 2
488 0
2155 2
1285 5
2660 2
1812 2
2331 2
2710 4
2956 0
196 0
2609 2
1415 4
2161 2
3209 3
81 0
1787 4
2817 5
1066 0
2458 2
585 0
1324 5
609 0
79 1
2139 0
1978 5
2978 5
3246 5
223 1
175 1
2868 2
106 1
3161 1
176 0
2694 2
2126 0
935 0
2536 2
651 4
2747 4
386 0
56 5
2766 4
1015 3
214 5
142 4
1937 4
1264 1
162 0
822 0
2431 0
3176 2
2484 2
1255 4
206 4
973 0
1945 3
1519 5
940 0
2247 2
1684 2
1165 5
2205 1
1872 4
638 1
259 0
2742 0
899 1
3020 3
2103 4
48 1
2270 0
2793 4
1877 1
2811 5
456 5
1793 2
450 1
1967 4
2815 4
1944 1
279 3
2667 5
1897 0
2168 5
3103 0
2556 1
3192 2
1776 1
1864 4
2721 4
1873 0
208 0
1322 4
1152 1
1398 2
304 5
324 2
2452 5
2291 5
141 0
1958 3
138 0
1794 1
2049 4
3065 5
661 0
1561 5
1002 1
589 3
388 0
2212 2
2966 5
640 0
33 0
2414 5
177 1
416 0
3087 4
1837 0
933 0
240 0
373 1
2549 1
657 0
1409 3
1427 1
139 3
2129 0
1480 5
2867 2
1296 4
470 1
1895 4
2010 1
1457 1
2655 5
1325 0
477 0
51 1
2342 1
2670 0
2016 4
2117 2
2808 0
1763 5
2498 3
468 1
790 0
1825 4
201 0
1578 4
91 4
2996 2
3154 2
2426 0
1948 4
2443 4
1425 5
167 2
2087 4
3088 2
1839 4
1491 2
731 0
523 2
1705 4
1048 4
787 3
1091 4
1714 1
985 1
3179 4
3236 5
3124 1
117 1
2689 0
3040 4
1652 4
1387 2
1446 2
2004 2
191 0
1103 2
1574 4
2717 1
2535 2
2615 1
2608 5
521 1
1968 5
1188 1
3145 1
1374 4
1621 5
1975 0
3042 4
1759 2
1275 5
1485 4
2514 0
2967 1
674 0
2816 5
676 0
2649 5
1348 1
2686 2
1450 4
1363 5
795 1
2411 1
1129 2
592 0
1627 5
2039 2
2690 4
970 2
394 3
2730 2
433 0
2643 1
104 0
1549 1
1660 1
2676 2
233 1
1343 4
3025 3
2476 5
2761 1
1053 2
2971 1
3229 1
1553 5
2254 5
535 5
2790 2
1738 5
1707 4
1019 2
1496 2
2338 0
1973 4
656 1
978 0
1454 4
681 1
2574 1
3085 1
347 0
3133 4
11 0
2906 5
2474 5
2582 0
562 0
1462 4
3259 2
2240 2
2724 4
2878 2
2227 1
1265 2
846 0
2496 4
2716 1
299 4
2723 4
2027 2
1465 2
1217 3
3062 3
862 0
1910 4
1008 0
1943 2
1617 0
2783 1
3172 4
1232 4
2398 4
1997 4
397 4
2021 3
599 5
1560 3
1690 3
406 5
1964 5
2241 2
1688 3
2704 2
361 2
1933 4
73 2
292 4
111 0
89 0
1770 4
2519 3
2165 5
1854 2
402 0
400 0
2432 1
1057 2
2847 2
999 2
277 5
1448 5
668 1
755 0
2835 5
2357 2
1920 2
2042 4
1995 4
3117 1
1034 1
1182 4
2479 3
1742 3
1899 5
2520 0
679 4
1225 2
2065 1
934 0
1810 5
1914 1
908 1
879 5
1562 0
220 1
3026 5
1408 2
2578 2
2501 2
2871 5
1044 2
1509 5
1469 2
1942 1
581 0
1851 3
953 0
2310 5
1484 4
3200 2
1190 3
2938 5
127 2
1702 4
2897 4
872 0
76 0
1007 0
422 2
482 1
2445 1
2385 1
1671 0
185 0
250 1
1279 1
2208 2
3046 5
759 0
1241 1
808 4
948 0
1339 5
1224 5
1493 0
3063 4
2853 4
1559 5
1341 4
2866 2
1869 2
17 5
1908 2
1557 5
2316 1
121 1
995 5
2108 5
2743 2
2000 5
576 2
1664 1
325 2
2944 4
2345 4
2030 2
1991 1
1063 5
192 0
2885 1
672 0
1479 4
2154 1
1527 2
276 0
1105 4
586 2
264 1
1263 4
1476 2
3213 2
107 1
1540 2
3254 2
1001 0
2326 2
2543 1
1371 1
2512 0
2922 2
1081 0
647 0
108 2
1954 5
1437 2
2322 2
1535 2
3258 5
358 4
574 1
1060 5
442 2
1539 1
1101 3
3029 4
3038 2
2461 3
2177 0
1838 0
2427 0
445 5
209 4
3119 3
1312 5
1650 3
2195 5
2339 2
855 4
2767 3
2849 1
598 0
2663 5
493 0
1514 4
448 2
2164 5
1502 2
2 0
1460 4
2841 1
805 0
339 0
310 2
870 0
773 0
818 4
169 0
3135 1
804 0
2012 5
1195 4
1876 2
767 5
1919 4
2769 5
3051 4
95 1
1222 2
1123 0
62 1
1698 4
1677 5
2683 5
1925 2
420 2
1230 0
694 3
463 0
1678 2
413 1
84 0
