956 1
1877 1
1216 1
2110 1
277 5
493 0
1881 0
2824 3
2240 2
693 4
2294 2
192 0
717 0
610 0
3095 3
331 1
528 0
3157 5
2968 1
533 1
1775 5
43 0
54 1
2277 5
1190 3
266 1
1388 2
3132 4
2438 2
1991 1
1897 0
411 0
1708 4
430 3
634 1
1843 0
935 0
1429 4
825 1
767 5
2878 2
3235 1
62 1
2461 3
1551 2
2155 2
2400 5
2344 0
886 1
1990 5
1819 4
568 0
1256 4
482 1
1652 4
1873 0
2761 1
2305 3
2829 4
548 1
503 0
2270 0
1937 4
969 2
1543 2
2446 1
2441 5
1319 1
1066 0
2309 4
104 0
2490 1
786 0
1773 4
1913 5
2956 0
488 0
1684 2
1418 4
1832 4
2194 2
2449 5
2285 5
223 1
1880 4
1771 2
696 1
1325 0
2026 4
2182 4
560 5
2025 4
1486 3
2414 5
2161 2
1084 0
2154 1
793 4
2816 5
2509 1
1074 0
2667 5
1130 2
24 1
1057 2
774 2
2660 2
3261 1
2787 2
2427 0
2704 2
106 1
2930 4
2833 4
14 2
293 3
2466 0
848 0
628 0
2877 2
3011 2
1679 4
1597 2
2510 2
2431 0
1977 2
2165 5
631 1
272 3
355 1
155 1
2474 5
2519 3
1741 5
1750 3
338 0
42 0
2576 5
2184 5
1746 2
2642 5
1997 4
353 2
3061 0
1920 2
801 1
1272 2
2653 2
2863 0
2971 1
1000 0
1290 4
2158 2
1397 3
1115 5
1122 2
1517 1
3020 3
873 0
34 1
523 2
1975 0
1451 1
1105 4
2530 4
2029 2
2045 4
2444 3
1731 5
298 1
668 1
456 5
613 3
1910 4
1559 5
638 1
379 5
444 1
2893 3
2815 4
285 5
1101 3
855 4
2695 3
209 4
2244 4
1742 3
559 5
3030 5
84 0
1018 0
1063 5
164 0
1502 2
1617 0
2366 4
3175 0
1554 5
621 0
584 1
1738 5
944 1
937 0
124 0
79 1
1194 1
1348 1
1572 0
382 2
1349 2
2237 2
1539 1
740 1
2844 5
1890 2
2525 3
3201 1
394 3
1620 5
1992 1
731 0
672 0
1644 4
566 0
1919 4
1811 2
1039 2
2846 2
2573 2
2426 0
2014 2
2759 2
1409 3
1171 2
1312 5
1484 4
333 0
1180 4
187 0
2777 0
2209 2
746 1
539 1
521 1
93 1
2922 2
2262 5
110 0
2211 2
3088 2
687 5
2207 2
2875 0
432 4
1075 2
404 0
210 0
1479 4
501 1
2767 3
2605 5
2476 5
843 2
589 3
1452 4
2080 5
1905 2
775 1
1081 0
3057 4
3046 5
2439 5
797 1
2329 1
2498 3
2246 2
1379 4
1309 5
2645 1
864 0
175 1
2705 0
1172 5
2520 0
1015 3
2639 4
94 1
1976 0
30 5
1108 5
2191 5
1382 5
426 1
2840 1
2103 4
96 5
3160 2
2685 3
592 0
2133 5
33 0
2514 0
1719 2
922 5
1553 5
1986 3
1519 5
2228 0
3015 4
1448 5
2512 0
1938 4
2515 2
2489 5
2689 0
1050 5
1197 2
1446 2
1766 0
263 0
2551 2
1858 2
778 2
3111 2
1279 1
1097 2
2395 4
313 0
780 5
1807 2
2817 5
499 0
324 2
3050 5
694 3
229 0
976 2
2048 4
2741 0
909 1
385 0
1778 1
2106 4
199 1
1055 2
3035 3
1980 2
388 0
83 5
1926 0
2928 2
2343 2
1690 3
2450 5
965 1
787 3
814 0
1129 2
2254 5
2082 1
3085 1
799 5
2006 3
1012 5
453 0
902 1
3093 2
2541 3
2052 2
1017 5
45 0
870 0
865 2
2339 2
490 4
193 1
1670 4
191 0
2206 5
1328 1
2540 2
3117 1
3008 0
2143 4
1493 0
2619 2
1514 4
2527 2
3153 2
1395 5
1109 3
440 2
615 5
1410 0
2250 2
1791 1
1544 5
343 0
2716 1
1465 2
828 2
1265 2
1415 4
2802 1
1274 5
1285 5
151 1
2752 5
2196 2
2663 5
2036 5
1903 2
2087 4
400 0
3055 5
470 1
1371 1
141 0
874 1
949 0
550 2
1212 4
1053 2
1557 5
2780 3
322 0
1564 1
2055 4
460 2
3087 4
2724 4
1509 5
1598 2
2650 1
310 2
2581 5
1165 5
936 0
2120 1
918 1
2350 1
1492 5
942 4
99 0
3038 2
1461 1
2018 4
1392 1
2898 4
2841 1
1441 2
658 0
2749 1
3190 2
609 0
581 0
2938 5
412 4
587 0
789 1
2075 3
2867 2
349 0
2308 5
1955 5
347 0
1687 5
1263 4
772 2
2868 2
3066 5
3254 2
1869 2
1676 5
2338 0
3116 2
2004 2
371 1
2933 3
1374 4
822 0
1370 2
165 0
3058 4
2056 4
69 1
1650 3
1609 2
2151 5
1436 2
2109 0
3154 2
1906 2
612 3
570 1
442 2
2799 2
2655 5
2586 2
1504 2
1934 5
2565 2
2751 1
1134 5
468 1
1921 2
709 1
953 0
1656 1
1457 1
2897 4
2730 2
1276 1
3242 1
1385 0
327 3
2288 1
1776 1
1261 1
2318 3
2169 5
233 1
721 3
1408 2
517 2
423 0
1420 4
1580 5
2027 2
3139 0
85 1
1136 5
1387 2
752 5
2105 4
2783 1
358 4
417 0
2795 4
2568 3
2021 3
403 0
2368 0
975 1
2814 1
1103 2
2966 5
3180 4
703 4
2849 1
2914 2
558 1
361 2
2665 1
1131 3
1566 2
3177 1
2651 1
1803 2
1383 3
2793 4
845 0
3218 4
1455 5
1623 5
1944 1
1611 2
2238 3
271 5
661 0
2488 1
1591 5
2396 4
159 0
1531 3
109 0
571 1
428 5
497 5
2608 5
1271 5
186 0
1469 2
268 3
1413 2
2319 2
899 1
1487 4
3229 1
95 1
2721 4
1810 5
930 0
2939 1
773 0
3062 3
3118 5
183 1
1770 4
2050 2
1386 2
826 1
2452 5
1958 3
651 4
1444 4
3119 3
2838 0
1637 5
3238 3
1173 2
755 0
1154 5
2943 4
1390 2
248 4
554 2
2213 2
3052 4
133 3
3103 0
3234 0
1785 2
3208 1
989 5
2578 2
1654 5
2946 0
1842 0
2888 5
2347 0
1431 4
339 0
729 0
1987 4
1286 2
2606 5
1541 2
2733 5
1259 2
1008 0
1947 4
2126 0
817 1
3065 5
1732 5
916 1
761 1
208 0
477 0
1329 4
1984 1
2264 2
373 1
185 0
16 2
881 1
516 1
2621 5
622 0
1844 1
1740 5
1816 5
3028 2
520 1
880 1
174 5
1805 4
1155 4
1459 3
156 1
2766 4
362 1
2325 4
676 0
284 5
1824 2
2384 1
2326 2
586 2
390 1
1801 1
1208 0
1333 1
1868 3
2643 1
1876 2
3200 2
2484 2
667 1
502 1
242 5
653 1
579 1
3091 1
2769 5
2042 4
1964 5
3198 5
2104 4
1044 2
2177 0
1928 0
240 0
2357 2
2413 0
640 0
3053 0
1247 2
1359 2
2003 2
108 2
1959 5
1083 2
125 3
1425 5
811 5
507 1
1952 2
149 2
2825 3
2430 3
138 0
2557 2
279 3
664 0
605 0
307 2
1535 2
1759 2
1389 2
728 0
1007 0
1322 4
2763 1
75 0
2359 5
416 0
1767 0
2010 1
2959 4
602 0
1442 2
474 1
2259 2
2451 0
2739 5
1583 1
2223 2
2506 1
2501 2
1091 4
769 1
2707 2
2927 4
921 0
973 0
2093 2
2720 2
3178 4
3213 2
3002 3
2388 5
2747 4
378 0
305 0
1924 5
2632 5
1437 2
134 4
2203 2
1237 0
2148 5
2513 0
332 0
2453 3
2496 4
1864 4
1117 3
2291 5
3056 5
1005 1
1968 5
2076 5
647 0
2810 5
3228 3
2717 1
1965 5
1232 4
920 1
1200 1
2084 4
250 1
3236 5
510 0
1692 5
3075 4
51 1
1825 4
3185 0
171 5
875 0
2609 2
1059 1
1001 0
2336 2
1626 2
2108 5
107 1
660 4
153 1
2493 5
2068 5
196 0
1743 2
1627 5
1100 0
1003 1
3019 3
862 0
234 1
2383 1
383 2
287 3
1195 4
2955 2
2529 4
1678 2
2634 2
1070 1
1396 5
708 2
1584 1
1426 5
2916 2
169 0
2373 5
1942 1
2445 1
1477 2
1508 5
1475 2
1339 5
779 2
2683 5
1694 4
4 3
1112 1
1680 2
1956 5
3104 0
1985 3
2152 5
597 1
1496 2
1878 1
433 0
2205 1
1106 2
986 0
2616 5
181 1
1721 2
1061 4
2547 3
908 1
2900 2
2978 5
2852 0
471 0
3150 5
2212 2
2706 4
1034 1
11 0
2592 0
1860 2
1918 4
1491 2
2168 5
1310 1
2670 0
81 0
2866 2
719 0
1915 4
509 1
243 1
1230 0
3033 5
808 4
2012 5
970 2
381 1
328 3
1048 4
623 0
167 2
1925 2
103 1
1933 4
160 4
958 2
2043 4
2649 5
194 4
489 5
500 1
743 1
674 0
1971 5
1152 1
1510 3
1852 3
1324 5
2360 5
3006 4
73 2
2159 2
49 0
1515 4
1789 4
3124 1
1799 2
2337 2
1186 5
1316 5
1792 5
3182 5
3063 4
413 1
212 1
607 1
1600 2
2457 4
2071 2
2864 4
2039 2
1664 1
3017 1
1967 4
2676 2
2425 0
1203 2
2851 4
98 1
2374 2
182 5
2448 1
3169 5
1226 1
2858 2
1855 4
790 0
2764 5
524 1
1384 1
2112 1
1014 2
1445 4
2738 1
1923 2
1908 2
3026 5
1916 5
1404 5
960 0
791 5
2771 4
3239 5
1688 3
38 0
1036 2
771 1
736 1
1238 1
3086 4
479 0
2723 4
195 0
1434 0
1838 0
3173 5
681 1
91 4
1549 1
2298 2
1954 5
3115 2
22 1
1355 3
3094 4
2753 1
3009 0
276 0
2247 2
2998 4
2760 0
2522 1
2735 5
2307 2
2160 2
1567 4
3263 5
1848 4
2532 4
3031 5
599 5
1297 4
2640 2
890 0
2186 5
1901 1
1703 2
1090 5
2656 0
3007 0
891 0
1948 4
3258 5
1794 1
1454 4
1568 4
2905 5
561 4
1009 5
2139 0
760 2
585 0
2416 5
2925 5
170 0
1936 2
2459 5
8 3
1089 0
3161 1
3147 1
2869 1
1683 2
2671 0
2808 0
431 4
562 0
1399 2
1296 4
3202 4
1793 2
1978 5
325 2
2821 2
785 0
978 0
1241 1
197 0
1292 2
2141 1
10 1
2935 2
925 4
1621 5
1565 5
3042 4
1875 0
2385 1
2745 1
1836 0
866 0
3109 5
2964 4
78 5
1045 2
1643 2
3025 3
3003 2
1589 1
907 5
1657 2
1350 3
1432 4
853 0
3128 2
1156 2
2454 4
2853 4
2231 1
2113 4
2623 0
2156 2
2612 3
535 5
1645 1
964 3
3159 0
1534 2
145 0
119 2
1264 1
2577 5
2487 5
1516 0
1666 4
414 4
148 2
2432 1
406 5
810 1
139 3
2748 5
2499 4
1343 4
868 4
258 1
450 1
1973 4
1782 5
1892 1
2589 2
1699 4
2334 4
2399 2
1982 1
831 5
2984 3
713 4
2538 4
2355 4
999 2
2556 1
763 2
2386 4
1258 2
1899 5
1248 2
3179 4
1613 4
1812 2
2746 4
2236 5
368 0
56 5
642 3
3113 5
2715 1
2590 3
1677 5
1224 5
2208 2
1275 5
201 0
1823 1
424 0
2644 5
1573 3
415 0
2401 2
2465 2
931 0
445 5
2997 4
2918 5
1914 1
1236 1
1092 5
2016 4
2544 3
1522 1
794 0
837 1
0 0
225 0
2549 1
2121 3
1065 2
1403 5
2222 3
2881 1
1427 1
448 2
879 5
1020 1
2597 2
2607 4
2770 4
2046 2
3192 2
157 0
3012 2
995 5
1169 5
3233 1
3064 0
3223 5
629 0
1538 4
940 0
1278 1
966 4
657 0
751 0
48 1
360 0
1781 2
957 0
1314 4
2420 0
2690 4
2232 4
2533 0
1480 5
2192 0
76 0
1704 4
804 0
2516 2
1085 2
1414 2
21 1
1266 5
2243 4
1308 2
2710 4
1962 1
2030 2
1450 4
2398 4
2554 0
2363 5
2842 4
2371 0
962 0
177 1
1142 5
2703 1
2190 3
2379 3
823 1
57 2
1581 5
984 0
2543 1
275 1
809 0
2201 5
2915 5
1929 0
398 0
839 1
2345 4
698 1
889 5
538 3
1462 4
2164 5
1351 5
2837 1
1739 5
40 0
832 0
475 1
2392 1
1466 4
2617 5
1394 1
2941 5
446 1
1126 5
1752 2
3135 1
2458 2
1123 0
255 1
71 0
1430 4
3096 2
1714 1
2630 2
2230 5
2440 4
1391 2
2195 5
1579 5
2000 5
1561 5
121 1
1468 1
2023 5
2140 4
2479 3
127 2
759 0
2065 1
1217 3
3209 3
2402 4
2615 1
1327 1
1894 4
1234 3
420 2
1137 5
2871 5
292 4
1320 5
1569 2
294 1
2709 1
784 0
2331 2
2896 5
1555 3
1550 4
1837 0
3255 1
2691 4
1161 5
1526 4
1709 4
2117 2
26 2
2980 2
1411 3
1588 1
2017 1
1798 5
1402 2
2965 4
2375 0
1222 2
2340 3
2317 1
2819 0
3243 0
3043 4
663 1
2657 5
3021 3
1872 4
2037 1
1707 4
2885 1
422 2
111 0
2579 2
1763 5
941 0
1182 4
1576 4
2185 2
1507 1
2873 0
3259 2
1578 4
684 1
3146 2
1940 5
1019 2
1562 0
1585 4
173 0
903 1
2296 5
3133 4
386 0
236 0
1895 4
2220 5
2937 2
827 1
2354 5
1715 4
654 0
2015 2
25 5
2972 0
260 1
2694 2
1453 4
762 0
135 0
176 0
2170 3
1658 1
1682 5
3079 1
2975 3
934 0
1251 5
2847 2
1698 4
2926 4
1485 4
1460 4
1218 4
2920 2
1140 5
1144 5
565 5
1922 4
172 3
2622 5
369 4
3127 1
299 4
1945 3
1368 2
795 1
89 0
1577 5
3219 3
1612 2
455 1
259 0
2316 1
2310 5
948 0
206 4
1787 4
2411 1
1854 2
90 5
576 2
1341 4
2804 5
1540 2
2743 2
967 4
220 1
802 1
3074 3
545 1
2049 4
1398 2
2129 0
2600 5
3051 4
2367 4
190 5
3189 1
3245 2
2353 5
846 0
397 4
264 1
3145 1
113 3
2189 3
2378 5
2790 2
1262 4
1255 4
2342 1
679 4
3126 2
6 0
3256 5
3037 1
2654 5
1225 2
1367 5
1979 2
1779 4
2744 1
211 1
3067 4
100 1
1363 5
